<?xml version="1.0" encoding="UTF-8" standalone="no"?>
<!-- Created with Inkscape (http://www.inkscape.org/) -->

<svg
   xmlns:dc="http://purl.org/dc/elements/1.1/"
   xmlns:cc="http://creativecommons.org/ns#"
   xmlns:rdf="http://www.w3.org/1999/02/22-rdf-syntax-ns#"
   xmlns:svg="http://www.w3.org/2000/svg"
   xmlns="http://www.w3.org/2000/svg"
   xmlns:sodipodi="http://sodipodi.sourceforge.net/DTD/sodipodi-0.dtd"
   xmlns:inkscape="http://www.inkscape.org/namespaces/inkscape"
   id="svg2"
   version="1.1"
   inkscape:version="0.91 r13725"
   width="297mm"
   height="210mm"
   viewBox="0 0 1052.3622 744.0945"
   sodipodi:docname="Coquille.svg">
  <metadata
     id="metadata8">
    <rdf:RDF>
      <cc:Work
         rdf:about="">
        <dc:format>image/svg+xml</dc:format>
        <dc:type
           rdf:resource="http://purl.org/dc/dcmitype/StillImage" />
        <dc:title />
      </cc:Work>
    </rdf:RDF>
  </metadata>
  <defs
     id="defs6" />
  <sodipodi:namedview
     pagecolor="#ffffff"
     bordercolor="#666666"
     borderopacity="1"
     objecttolerance="10"
     gridtolerance="10"
     guidetolerance="10"
     inkscape:pageopacity="0"
     inkscape:pageshadow="2"
     inkscape:window-width="1920"
     inkscape:window-height="974"
     id="namedview4"
     showgrid="false"
     inkscape:zoom="0.70710678"
     inkscape:cx="711.85409"
     inkscape:cy="498.91424"
     inkscape:window-x="0"
     inkscape:window-y="27"
     inkscape:window-maximized="1"
     inkscape:current-layer="svg2"
     units="mm"
     inkscape:snap-bbox="true"
     inkscape:bbox-paths="true"
     inkscape:bbox-nodes="true"
     inkscape:snap-bbox-edge-midpoints="true"
     inkscape:snap-bbox-midpoints="true"
     showguides="false" />
  <path
     id="path4138-2-6-1"
     style="fill:none;stroke:#ff0000;stroke-opacity:1"
     d="M 133.7574,528.40714 C 119.28252,525.8326 136.06189,505.4487 141.60034,519.42931 143.68011,524.38488 138.94107,529.89219 133.7574,528.40714 Z M 129.1224,736.46684 C 109.12199,735.69933 88.959672,730.71237 71.737812,720.45759 61.985592,713.50646 51.197182,707.97965 43.371922,698.62121 25.346871,680.36535 13.55304,653.84089 9.4635702,630.82945 6.9305602,612.66066 6.0790002,594.39165 12.8925,584.15346 24.669461,565.6302 38.034591,558.29414 51.540462,553.26221 62.848092,549.85087 81.108892,552.46098 90.688682,545.0057 99.124442,538.71485 82.236252,516.47335 88.562592,506.89471 L 137.92082,506.89471 186.2724,506.89471 C 193.50466,519.36435 175.48193,532.88554 180.30946,545.0057 186.38022,550.00793 201.4937,549.19291 213.44422,549.62008 229.53813,553.07786 241.15471,558.60321 253.5066,584.6254 259.91815,599.45549 257.73422,616.2893 255.90364,631.88202 250.96728,661.51051 234.70884,689.02582 211.64741,708.15801 188.59947,726.84436 158.83518,737.24764 129.1224,736.46684 Z M 181.2971,606.4064 176.49977,599.71097 171.83049,591.96625 C 167.09366,583.01238 160.4631,575.03911 155.85074,565.85059 154.12296,561.50038 142.87329,548.64605 145.33373,560.53952 147.55545,568.3358 149.15578,577.32868 150.88871,583.43859 L 152.83576,593.20199 168.10627,651.52679 170.30659,659.37309 C 173.97888,671.82641 177.01659,675.59475 179.41246,685.59584 177.1052,681.69743 186.24645,695.89829 176.5224,700.03097 172.55932,685.86268 168.55117,671.82942 165.21337,658.2566 164.88133,655.74534 164.10069,653.05528 163.59124,650.57605 L 151.43946,601.85454 148.98404,589.60416 C 145.19678,580.07821 144.49146,559.16511 137.14187,557.19684 134.56673,556.17285 135.94563,560.55754 135.50888,579.17065 L 134.65164,613.91228 135.01934,670.66465 C 135.07167,682.06588 134.65355,693.33883 135.92988,704.67838 136.00101,707.73117 132.50067,719.37535 130.57745,705.03926 129.68646,692.55895 129.96726,685.07244 129.73123,679.82991 L 131.5014,621.05718 130.87243,589.01164 C 131.06991,572.52187 132.76636,554.89532 130.10215,555.74706 120.09705,559.28381 122.78094,577.68292 116.72872,587.98207 L 112.53686,607.14183 C 112.02436,609.9473 111.5369,612.35009 110.3952,614.45062 107.10601,628.09213 106.70325,628.27596 103.58375,637.02351 102.4708,643.57074 97.662212,650.09078 95.529102,660.18569 L 92.875252,671.67978 C 90.614442,678.66639 91.260232,691.67927 84.445952,699.35743 82.776602,700.1574 82.138892,697.86244 81.304682,696.15698 81.515592,684.7644 87.803322,674.32927 90.501092,662.72613 94.658202,649.41315 96.258502,643.65873 97.561282,639.82204 98.348472,636.58058 98.891502,634.0716 99.922852,630.09766 100.59033,627.4173 102.84998,622.92207 102.29163,623.61599 104.16319,618.20874 105.06196,617.17069 104.80173,616.61356 L 108.3974,603.29197 C 110.39459,598.4141 111.13644,596.86088 111.64495,591.85136 L 116.23898,577.10613 119.6403,561.51106 C 122.6292,549.8756 112.74607,563.17943 111.27477,565.96514 L 91.160292,595.27466 85.479102,604.64782 81.796632,610.31354 C 78.809232,613.7765 80.976312,612.04776 76.920022,617.24135 75.773622,619.04673 75.563502,618.88346 73.788442,621.70656 69.985722,627.72435 64.950962,635.76749 60.266282,643.57515 56.076652,649.7678 49.812162,663.14154 47.812992,662.17929 41.689601,649.40944 57.149852,640.28416 63.816572,630.44935 75.009662,614.4626 84.676462,597.58735 95.994482,581.71072 L 103.01965,572.00412 C 107.20376,564.87133 116.78237,556.3743 109.85474,557.97216 99.846422,558.50379 98.897502,566.08686 93.792032,570.59222 88.314402,575.426 82.655582,580.7295 78.213402,586.00762 71.044592,593.15584 64.636302,601.05046 58.329172,606.49767 50.711652,613.89428 44.731622,621.94683 36.091981,628.97258 34.146191,624.84488 41.862491,614.75409 43.089391,613.89324 51.725682,605.82744 57.896562,600.51716 65.696252,591.62219 75.147812,582.97698 83.912712,573.64234 93.186522,564.81727 98.005082,557.37275 86.373812,564.78474 78.306062,568.87444 66.525742,575.72373 47.296612,587.29967 34.539591,589.21713 28.467971,590.12973 62.236032,573.08497 58.411742,574.91004 65.701012,570.79102 71.649042,567.63319 77.381842,565.34623 83.799322,561.6932 92.819132,558.784 98.803042,552.79496 108.59495,545.93709 119.76347,539.47713 131.85953,538.22057 154.83627,538.58646 173.5622,553.33306 193.0997,563.46802 204.4622,569.90504 218.54567,576.86961 230.73442,582.02552 229.69392,580.28081 239.36785,591.11362 231.63715,589.24456 218.05722,582.43335 202.67537,573.94941 189.20445,566.83427 182.99476,564.48611 171.46005,555.47477 167.61144,558.25429 174.86698,568.01307 184.85893,575.40993 192.95185,584.46883 197.99725,589.40724 205.81525,598.40274 208.11612,599.53254 208.80013,598.9305 217.1355,608.95694 222.31213,612.52625 225.74541,614.61395 237.34548,626.22371 231.7224,629.08748 221.42746,618.08075 210.88757,607.37759 200.0907,596.95719 190.70757,587.36358 181.64118,577.74957 171.74917,568.78093 167.93229,565.84927 157.62749,551.03731 156.07757,560.07975 163.98271,569.85453 168.4223,582.07651 176.34663,591.83497 L 191.05495,614.74931 C 196.46114,621.48737 199.57851,628.85759 204.20976,635.23796 210.80785,645.56591 218.50091,653.59797 218.87124,664.40442 218.16486,665.64511 217.16565,667.44986 215.74204,665.88507 210.48173,656.47336 205.40844,646.95861 200.08244,637.59287 L 196.04283,630.44914 Z"
     inkscape:connector-curvature="0" />
  <path
     inkscape:connector-curvature="0"
     id="path4138-2-6-1-3"
     style="fill:none;stroke:#ff0000;stroke-opacity:1"
     d="M 133.7574,293.79399 C 119.28252,291.21945 136.06189,270.83555 141.60034,284.81616 143.68011,289.77173 138.94107,295.27904 133.7574,293.79399 Z M 129.1224,501.85369 C 109.12199,501.08618 88.959673,496.09922 71.737812,485.84444 61.985592,478.89331 51.197183,473.3665 43.371923,464.00806 25.346872,445.7522 13.55304,419.22774 9.4635702,396.2163 6.9305602,378.04751 6.0790002,359.7785 12.8925,349.54031 24.669462,331.01705 38.034592,323.68099 51.540463,318.64906 62.848092,315.23772 81.108893,317.84783 90.688683,310.39255 99.124443,304.1017 82.236253,281.8602 88.562593,272.28156 L 137.92082,272.28156 186.2724,272.28156 C 193.50466,284.7512 175.48193,298.27239 180.30946,310.39255 186.38022,315.39478 201.4937,314.57976 213.44422,315.00693 229.53813,318.46471 241.15471,323.99006 253.5066,350.01225 259.91815,364.84234 257.73422,381.67615 255.90364,397.26887 250.96728,426.89736 234.70884,454.41267 211.64741,473.54486 188.59947,492.23121 158.83518,502.63449 129.1224,501.85369 Z M 181.2971,371.79325 176.49977,365.09782 171.83049,357.3531 C 167.09366,348.39923 160.4631,340.42596 155.85074,331.23744 154.12296,326.88723 142.87329,314.0329 145.33373,325.92637 147.55545,333.72265 149.15578,342.71553 150.88871,348.82544 L 152.83576,358.58884 168.10627,416.91364 170.30659,424.75994 C 173.97888,437.21326 177.01659,440.9816 179.41246,450.98269 177.1052,447.08428 186.24645,461.28514 176.5224,465.41782 172.55932,451.24953 168.55117,437.21627 165.21337,423.64345 164.88133,421.13219 164.10069,418.44213 163.59124,415.9629 L 151.43946,367.24139 148.98404,354.99101 C 145.19678,345.46506 144.49146,324.55196 137.14187,322.58369 134.56673,321.5597 135.94563,325.94439 135.50888,344.5575 L 134.65164,379.29913 135.01934,436.0515 C 135.07167,447.45273 134.65355,458.72568 135.92988,470.06523 136.00101,473.11802 132.50067,484.7622 130.57745,470.42611 129.68646,457.9458 129.96726,450.45929 129.73123,445.21676 L 131.5014,386.44403 130.87243,354.39849 C 131.06991,337.90872 132.76636,320.28217 130.10215,321.13391 120.09705,324.67066 122.78094,343.06977 116.72872,353.36892 L 112.53686,372.52868 C 112.02436,375.33415 111.5369,377.73694 110.3952,379.83747 107.10601,393.47898 106.70325,393.66281 103.58375,402.41036 102.4708,408.95759 97.662213,415.47763 95.529103,425.57254 L 92.875253,437.06663 C 90.614443,444.05324 91.260233,457.06612 84.445953,464.74428 82.776603,465.54425 82.138893,463.24929 81.304683,461.54383 81.515593,450.15125 87.803323,439.71612 90.501093,428.11298 94.658203,414.8 96.258503,409.04558 97.561283,405.20889 98.348473,401.96743 98.891503,399.45845 99.922853,395.48451 100.59033,392.80415 102.84998,388.30892 102.29163,389.00284 104.16319,383.59559 105.06196,382.55754 104.80173,382.00041 L 108.3974,368.67882 C 110.39459,363.80095 111.13644,362.24773 111.64495,357.23821 L 116.23898,342.49298 119.6403,326.89791 C 122.6292,315.26245 112.74607,328.56628 111.27477,331.35199 L 91.160293,360.66151 85.479103,370.03467 81.796633,375.70039 C 78.809233,379.16335 80.976313,377.43461 76.920023,382.6282 75.773623,384.43358 75.563503,384.27031 73.788442,387.09341 69.985722,393.1112 64.950962,401.15434 60.266282,408.962 56.076652,415.15465 49.812163,428.52839 47.812993,427.56614 41.689602,414.79629 57.149852,405.67101 63.816572,395.8362 75.009663,379.84945 84.676463,362.9742 95.994483,347.09757 L 103.01965,337.39097 C 107.20376,330.25818 116.78237,321.76115 109.85474,323.35901 99.846423,323.89064 98.897503,331.47371 93.792033,335.97907 88.314403,340.81285 82.655583,346.11635 78.213403,351.39447 71.044592,358.54269 64.636302,366.43731 58.329172,371.88452 50.711653,379.28113 44.731623,387.33368 36.091982,394.35943 34.146192,390.23173 41.862492,380.14094 43.089392,379.28009 51.725683,371.21429 57.896562,365.90401 65.696252,357.00904 75.147813,348.36383 83.912713,339.02919 93.186523,330.20412 98.005083,322.7596 86.373813,330.17159 78.306063,334.26129 66.525742,341.11058 47.296613,352.68652 34.539592,354.60398 28.467972,355.51658 62.236032,338.47182 58.411742,340.29689 65.701012,336.17787 71.649042,333.02004 77.381843,330.73308 83.799323,327.08005 92.819133,324.17085 98.803043,318.18181 108.59495,311.32394 119.76347,304.86398 131.85953,303.60742 154.83627,303.97331 173.5622,318.71991 193.0997,328.85487 204.4622,335.29189 218.54567,342.25646 230.73442,347.41237 229.69392,345.66766 239.36785,356.50047 231.63715,354.63141 218.05722,347.8202 202.67537,339.33626 189.20445,332.22112 182.99476,329.87296 171.46005,320.86162 167.61144,323.64114 174.86698,333.39992 184.85893,340.79678 192.95185,349.85568 197.99725,354.79409 205.81525,363.78959 208.11612,364.91939 208.80013,364.31735 217.1355,374.34379 222.31213,377.9131 225.74541,380.0008 237.34548,391.61056 231.7224,394.47433 221.42746,383.4676 210.88757,372.76444 200.0907,362.34404 190.70757,352.75043 181.64118,343.13642 171.74917,334.16778 167.93229,331.23612 157.62749,316.42416 156.07757,325.4666 163.98271,335.24138 168.4223,347.46336 176.34663,357.22182 L 191.05495,380.13616 C 196.46114,386.87422 199.57851,394.24444 204.20976,400.62481 210.80785,410.95276 218.50091,418.98482 218.87124,429.79127 218.16486,431.03196 217.16565,432.83671 215.74204,431.27192 210.48173,421.86021 205.40844,412.34546 200.08244,402.97972 L 196.04283,395.83599 Z" />
  <path
     inkscape:connector-curvature="0"
     id="path4138-2-6-1-7"
     style="fill:none;stroke:#ff0000;stroke-opacity:1"
     d="M 133.7574,59.180842 C 119.28252,56.606302 136.06189,36.222402 141.60034,50.203012 143.68011,55.158582 138.94107,60.665892 133.7574,59.180842 Z M 129.1224,267.24054 C 109.12199,266.47303 88.959671,261.48607 71.737811,251.23129 61.985591,244.28016 51.197181,238.75335 43.371921,229.39491 25.346871,211.13905 13.55304,184.61459 9.4635699,161.60315 6.9305599,143.43436 6.0789999,125.16535 12.8925,114.92716 24.669461,96.403903 38.03459,89.067843 51.540461,84.035909 62.848091,80.624569 81.108891,83.234679 90.688681,75.779402 99.124441,69.488552 82.236251,47.247052 88.562591,37.668412 L 137.92082,37.668412 186.2724,37.668412 C 193.50466,50.138052 175.48193,63.659242 180.30946,75.779402 186.38022,80.781629 201.4937,79.966609 213.44422,80.393779 229.53813,83.851559 241.15471,89.376913 253.5066,115.3991 259.91815,130.22919 257.73422,147.063 255.90364,162.65572 250.96728,192.28421 234.70884,219.79952 211.64741,238.93171 188.59947,257.61806 158.83518,268.02134 129.1224,267.24054 Z M 181.2971,137.1801 176.49977,130.48467 171.83049,122.73995 C 167.09366,113.78608 160.4631,105.81281 155.85074,96.624293 154.12296,92.274083 142.87329,79.419749 145.33373,91.313223 147.55545,99.109503 149.15578,108.10238 150.88871,114.21229 L 152.83576,123.97569 168.10627,182.30049 170.30659,190.14679 C 173.97888,202.60011 177.01659,206.36845 179.41246,216.36954 177.1052,212.47113 186.24645,226.67199 176.5224,230.80467 172.55932,216.63638 168.55117,202.60312 165.21337,189.0303 164.88133,186.51904 164.10069,183.82898 163.59124,181.34975 L 151.43946,132.62824 148.98404,120.37786 C 145.19678,110.85191 144.49146,89.938813 137.14187,87.970539 134.56673,86.946549 135.94563,91.331243 135.50888,109.94435 L 134.65164,144.68598 135.01934,201.43835 C 135.07167,212.83958 134.65355,224.11253 135.92988,235.45208 136.00101,238.50487 132.50067,250.14905 130.57745,235.81296 129.68646,223.33265 129.96726,215.84614 129.73123,210.60361 L 131.5014,151.83088 130.87243,119.78534 C 131.06991,103.29557 132.76636,85.669019 130.10215,86.520759 120.09705,90.057513 122.78094,108.45662 116.72872,118.75577 L 112.53686,137.91553 C 112.02436,140.721 111.5369,143.12379 110.3952,145.22432 107.10601,158.86583 106.70325,159.04966 103.58375,167.79721 102.4708,174.34444 97.662211,180.86448 95.529101,190.95939 L 92.875251,202.45348 C 90.614441,209.44009 91.260231,222.45297 84.445951,230.13113 82.776601,230.9311 82.138891,228.63614 81.304681,226.93068 81.515591,215.5381 87.803321,205.10297 90.501091,193.49983 94.658201,180.18685 96.258501,174.43243 97.561281,170.59574 98.348471,167.35428 98.891501,164.8453 99.922851,160.87136 100.59033,158.191 102.84998,153.69577 102.29163,154.38969 104.16319,148.98244 105.06196,147.94439 104.80173,147.38726 L 108.3974,134.06567 C 110.39459,129.1878 111.13644,127.63458 111.64495,122.62506 L 116.23898,107.87983 119.6403,92.284763 C 122.6292,80.649299 112.74607,93.953133 111.27477,96.738843 L 91.160291,126.04836 85.479101,135.42152 81.796631,141.08724 C 78.809231,144.5502 80.976311,142.82146 76.920021,148.01505 75.773621,149.82043 75.563501,149.65716 73.788441,152.48026 69.985721,158.49805 64.950961,166.54119 60.266281,174.34885 56.076651,180.5415 49.812161,193.91524 47.812991,192.95299 41.6896,180.18314 57.149851,171.05786 63.816571,161.22305 75.009661,145.2363 84.676461,128.36105 95.994481,112.48442 L 103.01965,102.77782 C 107.20376,95.645033 116.78237,87.147999 109.85474,88.745859 99.846421,89.277493 98.897501,96.860563 93.792031,101.36592 88.314401,106.1997 82.655581,111.5032 78.213401,116.78132 71.044591,123.92954 64.636301,131.82416 58.329171,137.27137 50.711651,144.66798 44.731621,152.72053 36.09198,159.74628 34.14619,155.61858 41.86249,145.52779 43.08939,144.66694 51.725681,136.60114 57.896561,131.29086 65.696251,122.39589 75.147811,113.75068 83.912711,104.41604 93.186521,95.590973 98.005081,88.146449 86.373811,95.558443 78.306061,99.648143 66.525741,106.49743 47.296611,118.07337 34.53959,119.99083 28.467971,120.90343 62.236031,103.85867 58.411741,105.68374 65.701011,101.56472 71.649041,98.406893 77.381841,96.119933 83.799321,92.466903 92.819131,89.557703 98.803041,83.568659 108.59495,76.710792 119.76347,70.250832 131.85953,68.994272 154.83627,69.360162 173.5622,84.106759 193.0997,94.241723 204.4622,100.67874 218.54567,107.64331 230.73442,112.79922 229.69392,111.05451 239.36785,121.88732 231.63715,120.01826 218.05722,113.20705 202.67537,104.72311 189.20445,97.607973 182.99476,95.259813 171.46005,86.248469 167.61144,89.027993 174.86698,98.786773 184.85893,106.18363 192.95185,115.24253 197.99725,120.18094 205.81525,129.17644 208.11612,130.30624 208.80013,129.7042 217.1355,139.73064 222.31213,143.29995 225.74541,145.38765 237.34548,156.99741 231.7224,159.86118 221.42746,148.85445 210.88757,138.15129 200.0907,127.73089 190.70757,118.13728 181.64118,108.52327 171.74917,99.554633 167.93229,96.622973 157.62749,81.811009 156.07757,90.853453 163.98271,100.62823 168.4223,112.85021 176.34663,122.60867 L 191.05495,145.52301 C 196.46114,152.26107 199.57851,159.63129 204.20976,166.01166 210.80785,176.33961 218.50091,184.37167 218.87124,195.17812 218.16486,196.41881 217.16565,198.22356 215.74204,196.65877 210.48173,187.24706 205.40844,177.73231 200.08244,168.36657 L 196.04283,161.22284 Z" />
  <g
     id="g4208"
     transform="translate(14.968928,-397.46666)">
    <path
       d="M 374.0019,925.8738 C 359.52702,923.29926 376.30639,902.91536 381.84484,916.89597 383.92461,921.85154 379.18557,927.35885 374.0019,925.8738 Z M 369.3669,1133.9335 C 349.36649,1133.166 329.20417,1128.179 311.98231,1117.9242 302.23009,1110.9731 291.44168,1105.4463 283.61642,1096.0879 265.59137,1077.832 253.79754,1051.3075 249.70807,1028.2961 247.17506,1010.1273 246.3235,991.85831 253.137,981.62012 264.91396,963.09686 278.27909,955.7608 291.78496,950.72887 303.09259,947.31753 321.35339,949.92764 330.93318,942.47236 339.36894,936.18151 322.48075,913.94001 328.80709,904.36137 L 378.16532,904.36137 426.5169,904.36137 C 433.74916,916.83101 415.72643,930.3522 420.55396,942.47236 426.62472,947.47459 441.7382,946.65957 453.68872,947.08674 469.78263,950.54452 481.39921,956.06987 493.7511,982.09206 500.16265,996.92215 497.97872,1013.756 496.14814,1029.3487 491.21178,1058.9772 474.95334,1086.4925 451.89191,1105.6247 428.84397,1124.311 399.07968,1134.7143 369.3669,1133.9335 Z M 421.5416,1003.8731 416.74427,997.17763 412.07499,989.43291 C 407.33816,980.47904 400.7076,972.50577 396.09524,963.31725 394.36746,958.96704 383.11779,946.11271 385.57823,958.00618 387.79995,965.80246 389.40028,974.79534 391.13321,980.90525 L 393.08026,990.66865 408.35077,1048.9934 410.55109,1056.8397 C 414.22338,1069.2931 417.26109,1073.0614 419.65696,1083.0625 417.3497,1079.1641 426.49095,1093.3649 416.7669,1097.4976 412.80382,1083.3293 408.79567,1069.2961 405.45787,1055.7233 405.12583,1053.212 404.34519,1050.5219 403.83574,1048.0427 L 391.68396,999.3212 389.22854,987.07082 C 385.44128,977.54487 384.73596,956.63177 377.38637,954.6635 374.81123,953.63951 376.19013,958.0242 375.75338,976.63731 L 374.89614,1011.3789 375.26384,1068.1313 C 375.31617,1079.5325 374.89805,1090.8055 376.17438,1102.145 376.24551,1105.1978 372.74517,1116.842 370.82195,1102.5059 369.93096,1090.0256 370.21176,1082.5391 369.97573,1077.2966 L 371.7459,1018.5238 371.11693,986.4783 C 371.31441,969.98853 373.01086,952.36198 370.34665,953.21372 360.34155,956.75047 363.02544,975.14958 356.97322,985.44873 L 352.78136,1004.6085 C 352.26886,1007.414 351.7814,1009.8167 350.6397,1011.9173 347.35051,1025.5588 346.94775,1025.7426 343.82825,1034.4902 342.7153,1041.0374 337.90671,1047.5574 335.7736,1057.6523 L 333.11975,1069.1464 C 330.85894,1076.133 331.50473,1089.1459 324.69045,1096.8241 323.0211,1097.6241 322.38339,1095.3291 321.54918,1093.6236 321.76009,1082.2311 328.04782,1071.7959 330.74559,1060.1928 334.9027,1046.8798 336.503,1041.1254 337.80578,1037.2887 338.59297,1034.0472 339.136,1031.5383 340.16735,1027.5643 340.83483,1024.884 343.09448,1020.3887 342.53613,1021.0826 344.40769,1015.6754 345.30646,1014.6373 345.04623,1014.0802 L 348.6419,1000.7586 C 350.63909,995.88076 351.38094,994.32754 351.88945,989.31802 L 356.48348,974.57279 359.8848,958.97772 C 362.8737,947.34226 352.99057,960.64609 351.51927,963.4318 L 331.40479,992.74132 325.7236,1002.1145 322.04113,1007.7802 C 319.05373,1011.2432 321.22081,1009.5144 317.16452,1014.708 316.01812,1016.5134 315.808,1016.3501 314.03294,1019.1732 310.23022,1025.191 305.19546,1033.2341 300.51078,1041.0418 296.32115,1047.2345 290.05666,1060.6082 288.05749,1059.6459 281.9341,1046.8761 297.39435,1037.7508 304.06107,1027.916 315.25416,1011.9293 324.92096,995.05401 336.23898,979.17738 L 343.26415,969.47078 C 347.44826,962.33799 357.02687,953.84096 350.09924,955.43882 340.09092,955.97045 339.142,963.55352 334.03653,968.05888 328.5589,972.89266 322.90008,978.19616 318.4579,983.47428 311.28909,990.6225 304.8808,998.51712 298.57367,1003.9643 290.95615,1011.3609 284.97612,1019.4135 276.33648,1026.4392 274.39069,1022.3115 282.10699,1012.2207 283.33389,1011.3599 291.97018,1003.2941 298.14106,997.98382 305.94075,989.08885 315.39231,980.44364 324.15721,971.109 333.43102,962.28393 338.24958,954.83941 326.61831,962.2514 318.55056,966.3411 306.77024,973.19039 287.54111,984.76633 274.78409,986.68379 268.71247,987.59639 302.48053,970.55163 298.65624,972.3767 305.94551,968.25768 311.89354,965.09985 317.62634,962.81289 324.04382,959.15986 333.06363,956.25066 339.04754,950.26162 348.83945,943.40375 360.00797,936.94379 372.10403,935.68723 395.08077,936.05312 413.8067,950.79972 433.3442,960.93468 444.7067,967.3717 458.79017,974.33627 470.97892,979.49218 469.93842,977.74747 479.61235,988.58028 471.88165,986.71122 458.30172,979.90001 442.91987,971.41607 429.44895,964.30093 423.23926,961.95277 411.70455,952.94143 407.85594,955.72095 415.11148,965.47973 425.10343,972.87659 433.19635,981.93549 438.24175,986.8739 446.05975,995.8694 448.36062,996.9992 449.04463,996.39716 457.38,1006.4236 462.55663,1009.9929 465.98991,1012.0806 477.58998,1023.6904 471.9669,1026.5541 461.67196,1015.5474 451.13207,1004.8442 440.3352,994.42385 430.95207,984.83024 421.88568,975.21623 411.99367,966.24759 408.17679,963.31593 397.87199,948.50397 396.32207,957.54641 404.22721,967.32119 408.6668,979.54317 416.59113,989.30163 L 431.29945,1012.216 C 436.70564,1018.954 439.82301,1026.3242 444.45426,1032.7046 451.05235,1043.0326 458.74541,1051.0646 459.11574,1061.8711 458.40936,1063.1118 457.41015,1064.9165 455.98654,1063.3517 450.72623,1053.94 445.65294,1044.4253 440.32694,1035.0595 L 436.28733,1027.9158 Z"
       style="fill:none;stroke:#ff0000;stroke-opacity:1"
       id="path4138-2-6-1-0"
       inkscape:connector-curvature="0" />
    <path
       d="M 374.0019,691.26065 C 359.52702,688.68611 376.30639,668.30221 381.84484,682.28282 383.92461,687.23839 379.18557,692.7457 374.0019,691.26065 Z M 369.3669,899.32035 C 349.36649,898.55284 329.20417,893.56588 311.98231,883.3111 302.23009,876.35997 291.44168,870.83316 283.61642,861.47472 265.59137,843.21886 253.79754,816.6944 249.70807,793.68296 247.17506,775.51417 246.3235,757.24516 253.137,747.00697 264.91396,728.48371 278.27909,721.14765 291.78496,716.11572 303.09259,712.70438 321.35339,715.31449 330.93318,707.85921 339.36894,701.56836 322.48075,679.32686 328.80709,669.74822 L 378.16532,669.74822 426.5169,669.74822 C 433.74916,682.21786 415.72643,695.73905 420.55396,707.85921 426.62472,712.86144 441.7382,712.04642 453.68872,712.47359 469.78263,715.93137 481.39921,721.45672 493.7511,747.47891 500.16265,762.309 497.97872,779.14281 496.14814,794.73553 491.21178,824.36402 474.95334,851.87933 451.89191,871.01152 428.84397,889.69787 399.07968,900.10115 369.3669,899.32035 Z M 421.5416,769.25991 416.74427,762.56448 412.07499,754.81976 C 407.33816,745.86589 400.7076,737.89262 396.09524,728.7041 394.36746,724.35389 383.11779,711.49956 385.57823,723.39303 387.79995,731.18931 389.40028,740.18219 391.13321,746.2921 L 393.08026,756.0555 408.35077,814.3803 410.55109,822.2266 C 414.22338,834.67992 417.26109,838.44826 419.65696,848.44935 417.3497,844.55094 426.49095,858.7518 416.7669,862.88448 412.80382,848.71619 408.79567,834.68293 405.45787,821.11011 405.12583,818.59885 404.34519,815.90879 403.83574,813.42956 L 391.68396,764.70805 389.22854,752.45767 C 385.44128,742.93172 384.73596,722.01862 377.38637,720.05035 374.81123,719.02636 376.19013,723.41105 375.75338,742.02416 L 374.89614,776.76579 375.26384,833.51816 C 375.31617,844.91939 374.89805,856.19234 376.17438,867.53189 376.24551,870.58468 372.74517,882.22886 370.82195,867.89277 369.93096,855.41246 370.21176,847.92595 369.97573,842.68342 L 371.7459,783.91069 371.11693,751.86515 C 371.31441,735.37538 373.01086,717.74883 370.34665,718.60057 360.34155,722.13732 363.02544,740.53643 356.97322,750.83558 L 352.78136,769.99534 C 352.26886,772.80081 351.7814,775.2036 350.6397,777.30413 347.35051,790.94564 346.94775,791.12947 343.82825,799.87702 342.7153,806.42425 337.90671,812.94429 335.7736,823.0392 L 333.11975,834.53329 C 330.85894,841.5199 331.50473,854.53278 324.69045,862.21094 323.0211,863.01091 322.38339,860.71595 321.54918,859.01049 321.76009,847.61791 328.04782,837.18278 330.74559,825.57964 334.9027,812.26666 336.503,806.51224 337.80578,802.67555 338.59297,799.43409 339.136,796.92511 340.16735,792.95117 340.83483,790.27081 343.09448,785.77558 342.53613,786.4695 344.40769,781.06225 345.30646,780.0242 345.04623,779.46707 L 348.6419,766.14548 C 350.63909,761.26761 351.38094,759.71439 351.88945,754.70487 L 356.48348,739.95964 359.8848,724.36457 C 362.8737,712.72911 352.99057,726.03294 351.51927,728.81865 L 331.40479,758.12817 325.7236,767.50133 322.04113,773.16705 C 319.05373,776.63001 321.22081,774.90127 317.16452,780.09486 316.01812,781.90024 315.808,781.73697 314.03294,784.56007 310.23022,790.57786 305.19546,798.621 300.51078,806.42866 296.32115,812.62131 290.05666,825.99505 288.05749,825.0328 281.9341,812.26295 297.39435,803.13767 304.06107,793.30286 315.25416,777.31611 324.92096,760.44086 336.23898,744.56423 L 343.26415,734.85763 C 347.44826,727.72484 357.02687,719.22781 350.09924,720.82567 340.09092,721.3573 339.142,728.94037 334.03653,733.44573 328.5589,738.27951 322.90008,743.58301 318.4579,748.86113 311.28909,756.00935 304.8808,763.90397 298.57367,769.35118 290.95615,776.74779 284.97612,784.80034 276.33648,791.82609 274.39069,787.69839 282.10699,777.6076 283.33389,776.74675 291.97018,768.68095 298.14106,763.37067 305.94075,754.4757 315.39231,745.83049 324.15721,736.49585 333.43102,727.67078 338.24958,720.22626 326.61831,727.63825 318.55056,731.72795 306.77024,738.57724 287.54111,750.15318 274.78409,752.07064 268.71247,752.98324 302.48053,735.93848 298.65624,737.76355 305.94551,733.64453 311.89354,730.4867 317.62634,728.19974 324.04382,724.54671 333.06363,721.63751 339.04754,715.64847 348.83945,708.7906 360.00797,702.33064 372.10403,701.07408 395.08077,701.43997 413.8067,716.18657 433.3442,726.32153 444.7067,732.75855 458.79017,739.72312 470.97892,744.87903 469.93842,743.13432 479.61235,753.96713 471.88165,752.09807 458.30172,745.28686 442.91987,736.80292 429.44895,729.68778 423.23926,727.33962 411.70455,718.32828 407.85594,721.1078 415.11148,730.86658 425.10343,738.26344 433.19635,747.32234 438.24175,752.26075 446.05975,761.25625 448.36062,762.38605 449.04463,761.78401 457.38,771.81045 462.55663,775.37976 465.98991,777.46746 477.58998,789.07722 471.9669,791.94099 461.67196,780.93426 451.13207,770.2311 440.3352,759.8107 430.95207,750.21709 421.88568,740.60308 411.99367,731.63444 408.17679,728.70278 397.87199,713.89082 396.32207,722.93326 404.22721,732.70804 408.6668,744.93002 416.59113,754.68848 L 431.29945,777.60282 C 436.70564,784.34088 439.82301,791.7111 444.45426,798.09147 451.05235,808.41942 458.74541,816.45148 459.11574,827.25793 458.40936,828.49862 457.41015,830.30337 455.98654,828.73858 450.72623,819.32687 445.65294,809.81212 440.32694,800.44638 L 436.28733,793.30265 Z"
       style="fill:none;stroke:#ff0000;stroke-opacity:1"
       id="path4138-2-6-1-3-6"
       inkscape:connector-curvature="0" />
    <path
       d="M 374.0019,456.6475 C 359.52702,454.07296 376.30639,433.68906 381.84484,447.66967 383.92461,452.62524 379.18557,458.13255 374.0019,456.6475 Z M 369.3669,664.7072 C 349.36649,663.93969 329.20417,658.95273 311.98231,648.69795 302.23009,641.74682 291.44168,636.22001 283.61642,626.86157 265.59137,608.60571 253.79754,582.08125 249.70807,559.06981 247.17506,540.90102 246.3235,522.63201 253.137,512.39382 264.91396,493.87056 278.27909,486.5345 291.78496,481.50256 303.09259,478.09122 321.35339,480.70133 330.93318,473.24606 339.36894,466.95521 322.48075,444.71371 328.80709,435.13507 L 378.16532,435.13507 426.5169,435.13507 C 433.74916,447.60471 415.72643,461.1259 420.55396,473.24606 426.62472,478.24828 441.7382,477.43326 453.68872,477.86043 469.78263,481.31821 481.39921,486.84357 493.7511,512.86576 500.16265,527.69585 497.97872,544.52966 496.14814,560.12238 491.21178,589.75087 474.95334,617.26618 451.89191,636.39837 428.84397,655.08472 399.07968,665.488 369.3669,664.7072 Z M 421.5416,534.64676 416.74427,527.95133 412.07499,520.20661 C 407.33816,511.25274 400.7076,503.27947 396.09524,494.09095 394.36746,489.74074 383.11779,476.8864 385.57823,488.77988 387.79995,496.57616 389.40028,505.56904 391.13321,511.67895 L 393.08026,521.44235 408.35077,579.76715 410.55109,587.61345 C 414.22338,600.06677 417.26109,603.83511 419.65696,613.8362 417.3497,609.93779 426.49095,624.13865 416.7669,628.27133 412.80382,614.10304 408.79567,600.06978 405.45787,586.49696 405.12583,583.9857 404.34519,581.29564 403.83574,578.81641 L 391.68396,530.0949 389.22854,517.84452 C 385.44128,508.31857 384.73596,487.40547 377.38637,485.43719 374.81123,484.4132 376.19013,488.7979 375.75338,507.41101 L 374.89614,542.15264 375.26384,598.90501 C 375.31617,610.30624 374.89805,621.57919 376.17438,632.91874 376.24551,635.97153 372.74517,647.61571 370.82195,633.27962 369.93096,620.79931 370.21176,613.3128 369.97573,608.07027 L 371.7459,549.29754 371.11693,517.252 C 371.31441,500.76223 373.01086,483.13567 370.34665,483.98741 360.34155,487.52417 363.02544,505.92328 356.97322,516.22243 L 352.78136,535.38219 C 352.26886,538.18766 351.7814,540.59045 350.6397,542.69098 347.35051,556.33249 346.94775,556.51632 343.82825,565.26387 342.7153,571.8111 337.90671,578.33114 335.7736,588.42605 L 333.11975,599.92014 C 330.85894,606.90675 331.50473,619.91963 324.69045,627.59779 323.0211,628.39776 322.38339,626.1028 321.54918,624.39734 321.76009,613.00476 328.04782,602.56963 330.74559,590.96649 334.9027,577.65351 336.503,571.89909 337.80578,568.0624 338.59297,564.82094 339.136,562.31196 340.16735,558.33802 340.83483,555.65766 343.09448,551.16243 342.53613,551.85635 344.40769,546.4491 345.30646,545.41105 345.04623,544.85392 L 348.6419,531.53233 C 350.63909,526.65446 351.38094,525.10124 351.88945,520.09172 L 356.48348,505.34649 359.8848,489.75142 C 362.8737,478.11595 352.99057,491.41979 351.51927,494.2055 L 331.40479,523.51502 325.7236,532.88818 322.04113,538.5539 C 319.05373,542.01686 321.22081,540.28812 317.16452,545.48171 316.01812,547.28709 315.808,547.12382 314.03294,549.94692 310.23022,555.96471 305.19546,564.00785 300.51078,571.81551 296.32115,578.00816 290.05666,591.3819 288.05749,590.41965 281.9341,577.6498 297.39435,568.52452 304.06107,558.68971 315.25416,542.70296 324.92096,525.82771 336.23898,509.95108 L 343.26415,500.24448 C 347.44826,493.11169 357.02687,484.61465 350.09924,486.21251 340.09092,486.74415 339.142,494.32722 334.03653,498.83258 328.5589,503.66636 322.90008,508.96986 318.4579,514.24798 311.28909,521.3962 304.8808,529.29082 298.57367,534.73803 290.95615,542.13464 284.97612,550.18719 276.33648,557.21294 274.39069,553.08524 282.10699,542.99445 283.33389,542.1336 291.97018,534.0678 298.14106,528.75752 305.94075,519.86255 315.39231,511.21734 324.15721,501.8827 333.43102,493.05763 338.24958,485.6131 326.61831,493.0251 318.55056,497.1148 306.77024,503.96409 287.54111,515.54003 274.78409,517.45749 268.71247,518.37009 302.48053,501.32533 298.65624,503.1504 305.94551,499.03138 311.89354,495.87355 317.62634,493.58659 324.04382,489.93356 333.06363,487.02436 339.04754,481.03531 348.83945,474.17745 360.00797,467.71749 372.10403,466.46093 395.08077,466.82682 413.8067,481.57341 433.3442,491.70838 444.7067,498.1454 458.79017,505.10997 470.97892,510.26588 469.93842,508.52117 479.61235,519.35398 471.88165,517.48492 458.30172,510.67371 442.91987,502.18977 429.44895,495.07463 423.23926,492.72647 411.70455,483.71512 407.85594,486.49465 415.11148,496.25343 425.10343,503.65029 433.19635,512.70919 438.24175,517.6476 446.05975,526.6431 448.36062,527.7729 449.04463,527.17086 457.38,537.1973 462.55663,540.76661 465.98991,542.85431 477.58998,554.46407 471.9669,557.32784 461.67196,546.32111 451.13207,535.61795 440.3352,525.19755 430.95207,515.60394 421.88568,505.98993 411.99367,497.02129 408.17679,494.08963 397.87199,479.27766 396.32207,488.32011 404.22721,498.09489 408.6668,510.31687 416.59113,520.07533 L 431.29945,542.98967 C 436.70564,549.72773 439.82301,557.09795 444.45426,563.47832 451.05235,573.80627 458.74541,581.83833 459.11574,592.64478 458.40936,593.88547 457.41015,595.69022 455.98654,594.12543 450.72623,584.71372 445.65294,575.19897 440.32694,565.83323 L 436.28733,558.6895 Z"
       style="fill:none;stroke:#ff0000;stroke-opacity:1"
       id="path4138-2-6-1-7-8"
       inkscape:connector-curvature="0" />
  </g>
  <g
     id="g4208-9"
     transform="translate(270.18236,-397.46666)">
    <path
       d="M 374.0019,925.8738 C 359.52702,923.29926 376.30639,902.91536 381.84484,916.89597 383.92461,921.85154 379.18557,927.35885 374.0019,925.8738 Z M 369.3669,1133.9335 C 349.36649,1133.166 329.20417,1128.179 311.98231,1117.9242 302.23009,1110.9731 291.44168,1105.4463 283.61642,1096.0879 265.59137,1077.832 253.79754,1051.3075 249.70807,1028.2961 247.17506,1010.1273 246.3235,991.85831 253.137,981.62012 264.91396,963.09686 278.27909,955.7608 291.78496,950.72887 303.09259,947.31753 321.35339,949.92764 330.93318,942.47236 339.36894,936.18151 322.48075,913.94001 328.80709,904.36137 L 378.16532,904.36137 426.5169,904.36137 C 433.74916,916.83101 415.72643,930.3522 420.55396,942.47236 426.62472,947.47459 441.7382,946.65957 453.68872,947.08674 469.78263,950.54452 481.39921,956.06987 493.7511,982.09206 500.16265,996.92215 497.97872,1013.756 496.14814,1029.3487 491.21178,1058.9772 474.95334,1086.4925 451.89191,1105.6247 428.84397,1124.311 399.07968,1134.7143 369.3669,1133.9335 Z M 421.5416,1003.8731 416.74427,997.17763 412.07499,989.43291 C 407.33816,980.47904 400.7076,972.50577 396.09524,963.31725 394.36746,958.96704 383.11779,946.11271 385.57823,958.00618 387.79995,965.80246 389.40028,974.79534 391.13321,980.90525 L 393.08026,990.66865 408.35077,1048.9934 410.55109,1056.8397 C 414.22338,1069.2931 417.26109,1073.0614 419.65696,1083.0625 417.3497,1079.1641 426.49095,1093.3649 416.7669,1097.4976 412.80382,1083.3293 408.79567,1069.2961 405.45787,1055.7233 405.12583,1053.212 404.34519,1050.5219 403.83574,1048.0427 L 391.68396,999.3212 389.22854,987.07082 C 385.44128,977.54487 384.73596,956.63177 377.38637,954.6635 374.81123,953.63951 376.19013,958.0242 375.75338,976.63731 L 374.89614,1011.3789 375.26384,1068.1313 C 375.31617,1079.5325 374.89805,1090.8055 376.17438,1102.145 376.24551,1105.1978 372.74517,1116.842 370.82195,1102.5059 369.93096,1090.0256 370.21176,1082.5391 369.97573,1077.2966 L 371.7459,1018.5238 371.11693,986.4783 C 371.31441,969.98853 373.01086,952.36198 370.34665,953.21372 360.34155,956.75047 363.02544,975.14958 356.97322,985.44873 L 352.78136,1004.6085 C 352.26886,1007.414 351.7814,1009.8167 350.6397,1011.9173 347.35051,1025.5588 346.94775,1025.7426 343.82825,1034.4902 342.7153,1041.0374 337.90671,1047.5574 335.7736,1057.6523 L 333.11975,1069.1464 C 330.85894,1076.133 331.50473,1089.1459 324.69045,1096.8241 323.0211,1097.6241 322.38339,1095.3291 321.54918,1093.6236 321.76009,1082.2311 328.04782,1071.7959 330.74559,1060.1928 334.9027,1046.8798 336.503,1041.1254 337.80578,1037.2887 338.59297,1034.0472 339.136,1031.5383 340.16735,1027.5643 340.83483,1024.884 343.09448,1020.3887 342.53613,1021.0826 344.40769,1015.6754 345.30646,1014.6373 345.04623,1014.0802 L 348.6419,1000.7586 C 350.63909,995.88076 351.38094,994.32754 351.88945,989.31802 L 356.48348,974.57279 359.8848,958.97772 C 362.8737,947.34226 352.99057,960.64609 351.51927,963.4318 L 331.40479,992.74132 325.7236,1002.1145 322.04113,1007.7802 C 319.05373,1011.2432 321.22081,1009.5144 317.16452,1014.708 316.01812,1016.5134 315.808,1016.3501 314.03294,1019.1732 310.23022,1025.191 305.19546,1033.2341 300.51078,1041.0418 296.32115,1047.2345 290.05666,1060.6082 288.05749,1059.6459 281.9341,1046.8761 297.39435,1037.7508 304.06107,1027.916 315.25416,1011.9293 324.92096,995.05401 336.23898,979.17738 L 343.26415,969.47078 C 347.44826,962.33799 357.02687,953.84096 350.09924,955.43882 340.09092,955.97045 339.142,963.55352 334.03653,968.05888 328.5589,972.89266 322.90008,978.19616 318.4579,983.47428 311.28909,990.6225 304.8808,998.51712 298.57367,1003.9643 290.95615,1011.3609 284.97612,1019.4135 276.33648,1026.4392 274.39069,1022.3115 282.10699,1012.2207 283.33389,1011.3599 291.97018,1003.2941 298.14106,997.98382 305.94075,989.08885 315.39231,980.44364 324.15721,971.109 333.43102,962.28393 338.24958,954.83941 326.61831,962.2514 318.55056,966.3411 306.77024,973.19039 287.54111,984.76633 274.78409,986.68379 268.71247,987.59639 302.48053,970.55163 298.65624,972.3767 305.94551,968.25768 311.89354,965.09985 317.62634,962.81289 324.04382,959.15986 333.06363,956.25066 339.04754,950.26162 348.83945,943.40375 360.00797,936.94379 372.10403,935.68723 395.08077,936.05312 413.8067,950.79972 433.3442,960.93468 444.7067,967.3717 458.79017,974.33627 470.97892,979.49218 469.93842,977.74747 479.61235,988.58028 471.88165,986.71122 458.30172,979.90001 442.91987,971.41607 429.44895,964.30093 423.23926,961.95277 411.70455,952.94143 407.85594,955.72095 415.11148,965.47973 425.10343,972.87659 433.19635,981.93549 438.24175,986.8739 446.05975,995.8694 448.36062,996.9992 449.04463,996.39716 457.38,1006.4236 462.55663,1009.9929 465.98991,1012.0806 477.58998,1023.6904 471.9669,1026.5541 461.67196,1015.5474 451.13207,1004.8442 440.3352,994.42385 430.95207,984.83024 421.88568,975.21623 411.99367,966.24759 408.17679,963.31593 397.87199,948.50397 396.32207,957.54641 404.22721,967.32119 408.6668,979.54317 416.59113,989.30163 L 431.29945,1012.216 C 436.70564,1018.954 439.82301,1026.3242 444.45426,1032.7046 451.05235,1043.0326 458.74541,1051.0646 459.11574,1061.8711 458.40936,1063.1118 457.41015,1064.9165 455.98654,1063.3517 450.72623,1053.94 445.65294,1044.4253 440.32694,1035.0595 L 436.28733,1027.9158 Z"
       style="fill:none;stroke:#ff0000;stroke-opacity:1"
       id="path4138-2-6-1-0-4"
       inkscape:connector-curvature="0" />
    <path
       d="M 374.0019,691.26065 C 359.52702,688.68611 376.30639,668.30221 381.84484,682.28282 383.92461,687.23839 379.18557,692.7457 374.0019,691.26065 Z M 369.3669,899.32035 C 349.36649,898.55284 329.20417,893.56588 311.98231,883.3111 302.23009,876.35997 291.44168,870.83316 283.61642,861.47472 265.59137,843.21886 253.79754,816.6944 249.70807,793.68296 247.17506,775.51417 246.3235,757.24516 253.137,747.00697 264.91396,728.48371 278.27909,721.14765 291.78496,716.11572 303.09259,712.70438 321.35339,715.31449 330.93318,707.85921 339.36894,701.56836 322.48075,679.32686 328.80709,669.74822 L 378.16532,669.74822 426.5169,669.74822 C 433.74916,682.21786 415.72643,695.73905 420.55396,707.85921 426.62472,712.86144 441.7382,712.04642 453.68872,712.47359 469.78263,715.93137 481.39921,721.45672 493.7511,747.47891 500.16265,762.309 497.97872,779.14281 496.14814,794.73553 491.21178,824.36402 474.95334,851.87933 451.89191,871.01152 428.84397,889.69787 399.07968,900.10115 369.3669,899.32035 Z M 421.5416,769.25991 416.74427,762.56448 412.07499,754.81976 C 407.33816,745.86589 400.7076,737.89262 396.09524,728.7041 394.36746,724.35389 383.11779,711.49956 385.57823,723.39303 387.79995,731.18931 389.40028,740.18219 391.13321,746.2921 L 393.08026,756.0555 408.35077,814.3803 410.55109,822.2266 C 414.22338,834.67992 417.26109,838.44826 419.65696,848.44935 417.3497,844.55094 426.49095,858.7518 416.7669,862.88448 412.80382,848.71619 408.79567,834.68293 405.45787,821.11011 405.12583,818.59885 404.34519,815.90879 403.83574,813.42956 L 391.68396,764.70805 389.22854,752.45767 C 385.44128,742.93172 384.73596,722.01862 377.38637,720.05035 374.81123,719.02636 376.19013,723.41105 375.75338,742.02416 L 374.89614,776.76579 375.26384,833.51816 C 375.31617,844.91939 374.89805,856.19234 376.17438,867.53189 376.24551,870.58468 372.74517,882.22886 370.82195,867.89277 369.93096,855.41246 370.21176,847.92595 369.97573,842.68342 L 371.7459,783.91069 371.11693,751.86515 C 371.31441,735.37538 373.01086,717.74883 370.34665,718.60057 360.34155,722.13732 363.02544,740.53643 356.97322,750.83558 L 352.78136,769.99534 C 352.26886,772.80081 351.7814,775.2036 350.6397,777.30413 347.35051,790.94564 346.94775,791.12947 343.82825,799.87702 342.7153,806.42425 337.90671,812.94429 335.7736,823.0392 L 333.11975,834.53329 C 330.85894,841.5199 331.50473,854.53278 324.69045,862.21094 323.0211,863.01091 322.38339,860.71595 321.54918,859.01049 321.76009,847.61791 328.04782,837.18278 330.74559,825.57964 334.9027,812.26666 336.503,806.51224 337.80578,802.67555 338.59297,799.43409 339.136,796.92511 340.16735,792.95117 340.83483,790.27081 343.09448,785.77558 342.53613,786.4695 344.40769,781.06225 345.30646,780.0242 345.04623,779.46707 L 348.6419,766.14548 C 350.63909,761.26761 351.38094,759.71439 351.88945,754.70487 L 356.48348,739.95964 359.8848,724.36457 C 362.8737,712.72911 352.99057,726.03294 351.51927,728.81865 L 331.40479,758.12817 325.7236,767.50133 322.04113,773.16705 C 319.05373,776.63001 321.22081,774.90127 317.16452,780.09486 316.01812,781.90024 315.808,781.73697 314.03294,784.56007 310.23022,790.57786 305.19546,798.621 300.51078,806.42866 296.32115,812.62131 290.05666,825.99505 288.05749,825.0328 281.9341,812.26295 297.39435,803.13767 304.06107,793.30286 315.25416,777.31611 324.92096,760.44086 336.23898,744.56423 L 343.26415,734.85763 C 347.44826,727.72484 357.02687,719.22781 350.09924,720.82567 340.09092,721.3573 339.142,728.94037 334.03653,733.44573 328.5589,738.27951 322.90008,743.58301 318.4579,748.86113 311.28909,756.00935 304.8808,763.90397 298.57367,769.35118 290.95615,776.74779 284.97612,784.80034 276.33648,791.82609 274.39069,787.69839 282.10699,777.6076 283.33389,776.74675 291.97018,768.68095 298.14106,763.37067 305.94075,754.4757 315.39231,745.83049 324.15721,736.49585 333.43102,727.67078 338.24958,720.22626 326.61831,727.63825 318.55056,731.72795 306.77024,738.57724 287.54111,750.15318 274.78409,752.07064 268.71247,752.98324 302.48053,735.93848 298.65624,737.76355 305.94551,733.64453 311.89354,730.4867 317.62634,728.19974 324.04382,724.54671 333.06363,721.63751 339.04754,715.64847 348.83945,708.7906 360.00797,702.33064 372.10403,701.07408 395.08077,701.43997 413.8067,716.18657 433.3442,726.32153 444.7067,732.75855 458.79017,739.72312 470.97892,744.87903 469.93842,743.13432 479.61235,753.96713 471.88165,752.09807 458.30172,745.28686 442.91987,736.80292 429.44895,729.68778 423.23926,727.33962 411.70455,718.32828 407.85594,721.1078 415.11148,730.86658 425.10343,738.26344 433.19635,747.32234 438.24175,752.26075 446.05975,761.25625 448.36062,762.38605 449.04463,761.78401 457.38,771.81045 462.55663,775.37976 465.98991,777.46746 477.58998,789.07722 471.9669,791.94099 461.67196,780.93426 451.13207,770.2311 440.3352,759.8107 430.95207,750.21709 421.88568,740.60308 411.99367,731.63444 408.17679,728.70278 397.87199,713.89082 396.32207,722.93326 404.22721,732.70804 408.6668,744.93002 416.59113,754.68848 L 431.29945,777.60282 C 436.70564,784.34088 439.82301,791.7111 444.45426,798.09147 451.05235,808.41942 458.74541,816.45148 459.11574,827.25793 458.40936,828.49862 457.41015,830.30337 455.98654,828.73858 450.72623,819.32687 445.65294,809.81212 440.32694,800.44638 L 436.28733,793.30265 Z"
       style="fill:none;stroke:#ff0000;stroke-opacity:1"
       id="path4138-2-6-1-3-6-9"
       inkscape:connector-curvature="0" />
    <path
       d="M 374.0019,456.6475 C 359.52702,454.07296 376.30639,433.68906 381.84484,447.66967 383.92461,452.62524 379.18557,458.13255 374.0019,456.6475 Z M 369.3669,664.7072 C 349.36649,663.93969 329.20417,658.95273 311.98231,648.69795 302.23009,641.74682 291.44168,636.22001 283.61642,626.86157 265.59137,608.60571 253.79754,582.08125 249.70807,559.06981 247.17506,540.90102 246.3235,522.63201 253.137,512.39382 264.91396,493.87056 278.27909,486.5345 291.78496,481.50256 303.09259,478.09122 321.35339,480.70133 330.93318,473.24606 339.36894,466.95521 322.48075,444.71371 328.80709,435.13507 L 378.16532,435.13507 426.5169,435.13507 C 433.74916,447.60471 415.72643,461.1259 420.55396,473.24606 426.62472,478.24828 441.7382,477.43326 453.68872,477.86043 469.78263,481.31821 481.39921,486.84357 493.7511,512.86576 500.16265,527.69585 497.97872,544.52966 496.14814,560.12238 491.21178,589.75087 474.95334,617.26618 451.89191,636.39837 428.84397,655.08472 399.07968,665.488 369.3669,664.7072 Z M 421.5416,534.64676 416.74427,527.95133 412.07499,520.20661 C 407.33816,511.25274 400.7076,503.27947 396.09524,494.09095 394.36746,489.74074 383.11779,476.8864 385.57823,488.77988 387.79995,496.57616 389.40028,505.56904 391.13321,511.67895 L 393.08026,521.44235 408.35077,579.76715 410.55109,587.61345 C 414.22338,600.06677 417.26109,603.83511 419.65696,613.8362 417.3497,609.93779 426.49095,624.13865 416.7669,628.27133 412.80382,614.10304 408.79567,600.06978 405.45787,586.49696 405.12583,583.9857 404.34519,581.29564 403.83574,578.81641 L 391.68396,530.0949 389.22854,517.84452 C 385.44128,508.31857 384.73596,487.40547 377.38637,485.43719 374.81123,484.4132 376.19013,488.7979 375.75338,507.41101 L 374.89614,542.15264 375.26384,598.90501 C 375.31617,610.30624 374.89805,621.57919 376.17438,632.91874 376.24551,635.97153 372.74517,647.61571 370.82195,633.27962 369.93096,620.79931 370.21176,613.3128 369.97573,608.07027 L 371.7459,549.29754 371.11693,517.252 C 371.31441,500.76223 373.01086,483.13567 370.34665,483.98741 360.34155,487.52417 363.02544,505.92328 356.97322,516.22243 L 352.78136,535.38219 C 352.26886,538.18766 351.7814,540.59045 350.6397,542.69098 347.35051,556.33249 346.94775,556.51632 343.82825,565.26387 342.7153,571.8111 337.90671,578.33114 335.7736,588.42605 L 333.11975,599.92014 C 330.85894,606.90675 331.50473,619.91963 324.69045,627.59779 323.0211,628.39776 322.38339,626.1028 321.54918,624.39734 321.76009,613.00476 328.04782,602.56963 330.74559,590.96649 334.9027,577.65351 336.503,571.89909 337.80578,568.0624 338.59297,564.82094 339.136,562.31196 340.16735,558.33802 340.83483,555.65766 343.09448,551.16243 342.53613,551.85635 344.40769,546.4491 345.30646,545.41105 345.04623,544.85392 L 348.6419,531.53233 C 350.63909,526.65446 351.38094,525.10124 351.88945,520.09172 L 356.48348,505.34649 359.8848,489.75142 C 362.8737,478.11595 352.99057,491.41979 351.51927,494.2055 L 331.40479,523.51502 325.7236,532.88818 322.04113,538.5539 C 319.05373,542.01686 321.22081,540.28812 317.16452,545.48171 316.01812,547.28709 315.808,547.12382 314.03294,549.94692 310.23022,555.96471 305.19546,564.00785 300.51078,571.81551 296.32115,578.00816 290.05666,591.3819 288.05749,590.41965 281.9341,577.6498 297.39435,568.52452 304.06107,558.68971 315.25416,542.70296 324.92096,525.82771 336.23898,509.95108 L 343.26415,500.24448 C 347.44826,493.11169 357.02687,484.61465 350.09924,486.21251 340.09092,486.74415 339.142,494.32722 334.03653,498.83258 328.5589,503.66636 322.90008,508.96986 318.4579,514.24798 311.28909,521.3962 304.8808,529.29082 298.57367,534.73803 290.95615,542.13464 284.97612,550.18719 276.33648,557.21294 274.39069,553.08524 282.10699,542.99445 283.33389,542.1336 291.97018,534.0678 298.14106,528.75752 305.94075,519.86255 315.39231,511.21734 324.15721,501.8827 333.43102,493.05763 338.24958,485.6131 326.61831,493.0251 318.55056,497.1148 306.77024,503.96409 287.54111,515.54003 274.78409,517.45749 268.71247,518.37009 302.48053,501.32533 298.65624,503.1504 305.94551,499.03138 311.89354,495.87355 317.62634,493.58659 324.04382,489.93356 333.06363,487.02436 339.04754,481.03531 348.83945,474.17745 360.00797,467.71749 372.10403,466.46093 395.08077,466.82682 413.8067,481.57341 433.3442,491.70838 444.7067,498.1454 458.79017,505.10997 470.97892,510.26588 469.93842,508.52117 479.61235,519.35398 471.88165,517.48492 458.30172,510.67371 442.91987,502.18977 429.44895,495.07463 423.23926,492.72647 411.70455,483.71512 407.85594,486.49465 415.11148,496.25343 425.10343,503.65029 433.19635,512.70919 438.24175,517.6476 446.05975,526.6431 448.36062,527.7729 449.04463,527.17086 457.38,537.1973 462.55663,540.76661 465.98991,542.85431 477.58998,554.46407 471.9669,557.32784 461.67196,546.32111 451.13207,535.61795 440.3352,525.19755 430.95207,515.60394 421.88568,505.98993 411.99367,497.02129 408.17679,494.08963 397.87199,479.27766 396.32207,488.32011 404.22721,498.09489 408.6668,510.31687 416.59113,520.07533 L 431.29945,542.98967 C 436.70564,549.72773 439.82301,557.09795 444.45426,563.47832 451.05235,573.80627 458.74541,581.83833 459.11574,592.64478 458.40936,593.88547 457.41015,595.69022 455.98654,594.12543 450.72623,584.71372 445.65294,575.19897 440.32694,565.83323 L 436.28733,558.6895 Z"
       style="fill:none;stroke:#ff0000;stroke-opacity:1"
       id="path4138-2-6-1-7-8-0"
       inkscape:connector-curvature="0" />
  </g>
  <g
     id="g4208-1"
     transform="translate(525.39579,-397.46666)">
    <path
       d="M 374.0019,925.8738 C 359.52702,923.29926 376.30639,902.91536 381.84484,916.89597 383.92461,921.85154 379.18557,927.35885 374.0019,925.8738 Z M 369.3669,1133.9335 C 349.36649,1133.166 329.20417,1128.179 311.98231,1117.9242 302.23009,1110.9731 291.44168,1105.4463 283.61642,1096.0879 265.59137,1077.832 253.79754,1051.3075 249.70807,1028.2961 247.17506,1010.1273 246.3235,991.85831 253.137,981.62012 264.91396,963.09686 278.27909,955.7608 291.78496,950.72887 303.09259,947.31753 321.35339,949.92764 330.93318,942.47236 339.36894,936.18151 322.48075,913.94001 328.80709,904.36137 L 378.16532,904.36137 426.5169,904.36137 C 433.74916,916.83101 415.72643,930.3522 420.55396,942.47236 426.62472,947.47459 441.7382,946.65957 453.68872,947.08674 469.78263,950.54452 481.39921,956.06987 493.7511,982.09206 500.16265,996.92215 497.97872,1013.756 496.14814,1029.3487 491.21178,1058.9772 474.95334,1086.4925 451.89191,1105.6247 428.84397,1124.311 399.07968,1134.7143 369.3669,1133.9335 Z M 421.5416,1003.8731 416.74427,997.17763 412.07499,989.43291 C 407.33816,980.47904 400.7076,972.50577 396.09524,963.31725 394.36746,958.96704 383.11779,946.11271 385.57823,958.00618 387.79995,965.80246 389.40028,974.79534 391.13321,980.90525 L 393.08026,990.66865 408.35077,1048.9934 410.55109,1056.8397 C 414.22338,1069.2931 417.26109,1073.0614 419.65696,1083.0625 417.3497,1079.1641 426.49095,1093.3649 416.7669,1097.4976 412.80382,1083.3293 408.79567,1069.2961 405.45787,1055.7233 405.12583,1053.212 404.34519,1050.5219 403.83574,1048.0427 L 391.68396,999.3212 389.22854,987.07082 C 385.44128,977.54487 384.73596,956.63177 377.38637,954.6635 374.81123,953.63951 376.19013,958.0242 375.75338,976.63731 L 374.89614,1011.3789 375.26384,1068.1313 C 375.31617,1079.5325 374.89805,1090.8055 376.17438,1102.145 376.24551,1105.1978 372.74517,1116.842 370.82195,1102.5059 369.93096,1090.0256 370.21176,1082.5391 369.97573,1077.2966 L 371.7459,1018.5238 371.11693,986.4783 C 371.31441,969.98853 373.01086,952.36198 370.34665,953.21372 360.34155,956.75047 363.02544,975.14958 356.97322,985.44873 L 352.78136,1004.6085 C 352.26886,1007.414 351.7814,1009.8167 350.6397,1011.9173 347.35051,1025.5588 346.94775,1025.7426 343.82825,1034.4902 342.7153,1041.0374 337.90671,1047.5574 335.7736,1057.6523 L 333.11975,1069.1464 C 330.85894,1076.133 331.50473,1089.1459 324.69045,1096.8241 323.0211,1097.6241 322.38339,1095.3291 321.54918,1093.6236 321.76009,1082.2311 328.04782,1071.7959 330.74559,1060.1928 334.9027,1046.8798 336.503,1041.1254 337.80578,1037.2887 338.59297,1034.0472 339.136,1031.5383 340.16735,1027.5643 340.83483,1024.884 343.09448,1020.3887 342.53613,1021.0826 344.40769,1015.6754 345.30646,1014.6373 345.04623,1014.0802 L 348.6419,1000.7586 C 350.63909,995.88076 351.38094,994.32754 351.88945,989.31802 L 356.48348,974.57279 359.8848,958.97772 C 362.8737,947.34226 352.99057,960.64609 351.51927,963.4318 L 331.40479,992.74132 325.7236,1002.1145 322.04113,1007.7802 C 319.05373,1011.2432 321.22081,1009.5144 317.16452,1014.708 316.01812,1016.5134 315.808,1016.3501 314.03294,1019.1732 310.23022,1025.191 305.19546,1033.2341 300.51078,1041.0418 296.32115,1047.2345 290.05666,1060.6082 288.05749,1059.6459 281.9341,1046.8761 297.39435,1037.7508 304.06107,1027.916 315.25416,1011.9293 324.92096,995.05401 336.23898,979.17738 L 343.26415,969.47078 C 347.44826,962.33799 357.02687,953.84096 350.09924,955.43882 340.09092,955.97045 339.142,963.55352 334.03653,968.05888 328.5589,972.89266 322.90008,978.19616 318.4579,983.47428 311.28909,990.6225 304.8808,998.51712 298.57367,1003.9643 290.95615,1011.3609 284.97612,1019.4135 276.33648,1026.4392 274.39069,1022.3115 282.10699,1012.2207 283.33389,1011.3599 291.97018,1003.2941 298.14106,997.98382 305.94075,989.08885 315.39231,980.44364 324.15721,971.109 333.43102,962.28393 338.24958,954.83941 326.61831,962.2514 318.55056,966.3411 306.77024,973.19039 287.54111,984.76633 274.78409,986.68379 268.71247,987.59639 302.48053,970.55163 298.65624,972.3767 305.94551,968.25768 311.89354,965.09985 317.62634,962.81289 324.04382,959.15986 333.06363,956.25066 339.04754,950.26162 348.83945,943.40375 360.00797,936.94379 372.10403,935.68723 395.08077,936.05312 413.8067,950.79972 433.3442,960.93468 444.7067,967.3717 458.79017,974.33627 470.97892,979.49218 469.93842,977.74747 479.61235,988.58028 471.88165,986.71122 458.30172,979.90001 442.91987,971.41607 429.44895,964.30093 423.23926,961.95277 411.70455,952.94143 407.85594,955.72095 415.11148,965.47973 425.10343,972.87659 433.19635,981.93549 438.24175,986.8739 446.05975,995.8694 448.36062,996.9992 449.04463,996.39716 457.38,1006.4236 462.55663,1009.9929 465.98991,1012.0806 477.58998,1023.6904 471.9669,1026.5541 461.67196,1015.5474 451.13207,1004.8442 440.3352,994.42385 430.95207,984.83024 421.88568,975.21623 411.99367,966.24759 408.17679,963.31593 397.87199,948.50397 396.32207,957.54641 404.22721,967.32119 408.6668,979.54317 416.59113,989.30163 L 431.29945,1012.216 C 436.70564,1018.954 439.82301,1026.3242 444.45426,1032.7046 451.05235,1043.0326 458.74541,1051.0646 459.11574,1061.8711 458.40936,1063.1118 457.41015,1064.9165 455.98654,1063.3517 450.72623,1053.94 445.65294,1044.4253 440.32694,1035.0595 L 436.28733,1027.9158 Z"
       style="fill:none;stroke:#ff0000;stroke-opacity:1"
       id="path4138-2-6-1-0-7"
       inkscape:connector-curvature="0" />
    <path
       d="M 374.0019,691.26065 C 359.52702,688.68611 376.30639,668.30221 381.84484,682.28282 383.92461,687.23839 379.18557,692.7457 374.0019,691.26065 Z M 369.3669,899.32035 C 349.36649,898.55284 329.20417,893.56588 311.98231,883.3111 302.23009,876.35997 291.44168,870.83316 283.61642,861.47472 265.59137,843.21886 253.79754,816.6944 249.70807,793.68296 247.17506,775.51417 246.3235,757.24516 253.137,747.00697 264.91396,728.48371 278.27909,721.14765 291.78496,716.11572 303.09259,712.70438 321.35339,715.31449 330.93318,707.85921 339.36894,701.56836 322.48075,679.32686 328.80709,669.74822 L 378.16532,669.74822 426.5169,669.74822 C 433.74916,682.21786 415.72643,695.73905 420.55396,707.85921 426.62472,712.86144 441.7382,712.04642 453.68872,712.47359 469.78263,715.93137 481.39921,721.45672 493.7511,747.47891 500.16265,762.309 497.97872,779.14281 496.14814,794.73553 491.21178,824.36402 474.95334,851.87933 451.89191,871.01152 428.84397,889.69787 399.07968,900.10115 369.3669,899.32035 Z M 421.5416,769.25991 416.74427,762.56448 412.07499,754.81976 C 407.33816,745.86589 400.7076,737.89262 396.09524,728.7041 394.36746,724.35389 383.11779,711.49956 385.57823,723.39303 387.79995,731.18931 389.40028,740.18219 391.13321,746.2921 L 393.08026,756.0555 408.35077,814.3803 410.55109,822.2266 C 414.22338,834.67992 417.26109,838.44826 419.65696,848.44935 417.3497,844.55094 426.49095,858.7518 416.7669,862.88448 412.80382,848.71619 408.79567,834.68293 405.45787,821.11011 405.12583,818.59885 404.34519,815.90879 403.83574,813.42956 L 391.68396,764.70805 389.22854,752.45767 C 385.44128,742.93172 384.73596,722.01862 377.38637,720.05035 374.81123,719.02636 376.19013,723.41105 375.75338,742.02416 L 374.89614,776.76579 375.26384,833.51816 C 375.31617,844.91939 374.89805,856.19234 376.17438,867.53189 376.24551,870.58468 372.74517,882.22886 370.82195,867.89277 369.93096,855.41246 370.21176,847.92595 369.97573,842.68342 L 371.7459,783.91069 371.11693,751.86515 C 371.31441,735.37538 373.01086,717.74883 370.34665,718.60057 360.34155,722.13732 363.02544,740.53643 356.97322,750.83558 L 352.78136,769.99534 C 352.26886,772.80081 351.7814,775.2036 350.6397,777.30413 347.35051,790.94564 346.94775,791.12947 343.82825,799.87702 342.7153,806.42425 337.90671,812.94429 335.7736,823.0392 L 333.11975,834.53329 C 330.85894,841.5199 331.50473,854.53278 324.69045,862.21094 323.0211,863.01091 322.38339,860.71595 321.54918,859.01049 321.76009,847.61791 328.04782,837.18278 330.74559,825.57964 334.9027,812.26666 336.503,806.51224 337.80578,802.67555 338.59297,799.43409 339.136,796.92511 340.16735,792.95117 340.83483,790.27081 343.09448,785.77558 342.53613,786.4695 344.40769,781.06225 345.30646,780.0242 345.04623,779.46707 L 348.6419,766.14548 C 350.63909,761.26761 351.38094,759.71439 351.88945,754.70487 L 356.48348,739.95964 359.8848,724.36457 C 362.8737,712.72911 352.99057,726.03294 351.51927,728.81865 L 331.40479,758.12817 325.7236,767.50133 322.04113,773.16705 C 319.05373,776.63001 321.22081,774.90127 317.16452,780.09486 316.01812,781.90024 315.808,781.73697 314.03294,784.56007 310.23022,790.57786 305.19546,798.621 300.51078,806.42866 296.32115,812.62131 290.05666,825.99505 288.05749,825.0328 281.9341,812.26295 297.39435,803.13767 304.06107,793.30286 315.25416,777.31611 324.92096,760.44086 336.23898,744.56423 L 343.26415,734.85763 C 347.44826,727.72484 357.02687,719.22781 350.09924,720.82567 340.09092,721.3573 339.142,728.94037 334.03653,733.44573 328.5589,738.27951 322.90008,743.58301 318.4579,748.86113 311.28909,756.00935 304.8808,763.90397 298.57367,769.35118 290.95615,776.74779 284.97612,784.80034 276.33648,791.82609 274.39069,787.69839 282.10699,777.6076 283.33389,776.74675 291.97018,768.68095 298.14106,763.37067 305.94075,754.4757 315.39231,745.83049 324.15721,736.49585 333.43102,727.67078 338.24958,720.22626 326.61831,727.63825 318.55056,731.72795 306.77024,738.57724 287.54111,750.15318 274.78409,752.07064 268.71247,752.98324 302.48053,735.93848 298.65624,737.76355 305.94551,733.64453 311.89354,730.4867 317.62634,728.19974 324.04382,724.54671 333.06363,721.63751 339.04754,715.64847 348.83945,708.7906 360.00797,702.33064 372.10403,701.07408 395.08077,701.43997 413.8067,716.18657 433.3442,726.32153 444.7067,732.75855 458.79017,739.72312 470.97892,744.87903 469.93842,743.13432 479.61235,753.96713 471.88165,752.09807 458.30172,745.28686 442.91987,736.80292 429.44895,729.68778 423.23926,727.33962 411.70455,718.32828 407.85594,721.1078 415.11148,730.86658 425.10343,738.26344 433.19635,747.32234 438.24175,752.26075 446.05975,761.25625 448.36062,762.38605 449.04463,761.78401 457.38,771.81045 462.55663,775.37976 465.98991,777.46746 477.58998,789.07722 471.9669,791.94099 461.67196,780.93426 451.13207,770.2311 440.3352,759.8107 430.95207,750.21709 421.88568,740.60308 411.99367,731.63444 408.17679,728.70278 397.87199,713.89082 396.32207,722.93326 404.22721,732.70804 408.6668,744.93002 416.59113,754.68848 L 431.29945,777.60282 C 436.70564,784.34088 439.82301,791.7111 444.45426,798.09147 451.05235,808.41942 458.74541,816.45148 459.11574,827.25793 458.40936,828.49862 457.41015,830.30337 455.98654,828.73858 450.72623,819.32687 445.65294,809.81212 440.32694,800.44638 L 436.28733,793.30265 Z"
       style="fill:none;stroke:#ff0000;stroke-opacity:1"
       id="path4138-2-6-1-3-6-7"
       inkscape:connector-curvature="0" />
    <path
       d="M 374.0019,456.6475 C 359.52702,454.07296 376.30639,433.68906 381.84484,447.66967 383.92461,452.62524 379.18557,458.13255 374.0019,456.6475 Z M 369.3669,664.7072 C 349.36649,663.93969 329.20417,658.95273 311.98231,648.69795 302.23009,641.74682 291.44168,636.22001 283.61642,626.86157 265.59137,608.60571 253.79754,582.08125 249.70807,559.06981 247.17506,540.90102 246.3235,522.63201 253.137,512.39382 264.91396,493.87056 278.27909,486.5345 291.78496,481.50256 303.09259,478.09122 321.35339,480.70133 330.93318,473.24606 339.36894,466.95521 322.48075,444.71371 328.80709,435.13507 L 378.16532,435.13507 426.5169,435.13507 C 433.74916,447.60471 415.72643,461.1259 420.55396,473.24606 426.62472,478.24828 441.7382,477.43326 453.68872,477.86043 469.78263,481.31821 481.39921,486.84357 493.7511,512.86576 500.16265,527.69585 497.97872,544.52966 496.14814,560.12238 491.21178,589.75087 474.95334,617.26618 451.89191,636.39837 428.84397,655.08472 399.07968,665.488 369.3669,664.7072 Z M 421.5416,534.64676 416.74427,527.95133 412.07499,520.20661 C 407.33816,511.25274 400.7076,503.27947 396.09524,494.09095 394.36746,489.74074 383.11779,476.8864 385.57823,488.77988 387.79995,496.57616 389.40028,505.56904 391.13321,511.67895 L 393.08026,521.44235 408.35077,579.76715 410.55109,587.61345 C 414.22338,600.06677 417.26109,603.83511 419.65696,613.8362 417.3497,609.93779 426.49095,624.13865 416.7669,628.27133 412.80382,614.10304 408.79567,600.06978 405.45787,586.49696 405.12583,583.9857 404.34519,581.29564 403.83574,578.81641 L 391.68396,530.0949 389.22854,517.84452 C 385.44128,508.31857 384.73596,487.40547 377.38637,485.43719 374.81123,484.4132 376.19013,488.7979 375.75338,507.41101 L 374.89614,542.15264 375.26384,598.90501 C 375.31617,610.30624 374.89805,621.57919 376.17438,632.91874 376.24551,635.97153 372.74517,647.61571 370.82195,633.27962 369.93096,620.79931 370.21176,613.3128 369.97573,608.07027 L 371.7459,549.29754 371.11693,517.252 C 371.31441,500.76223 373.01086,483.13567 370.34665,483.98741 360.34155,487.52417 363.02544,505.92328 356.97322,516.22243 L 352.78136,535.38219 C 352.26886,538.18766 351.7814,540.59045 350.6397,542.69098 347.35051,556.33249 346.94775,556.51632 343.82825,565.26387 342.7153,571.8111 337.90671,578.33114 335.7736,588.42605 L 333.11975,599.92014 C 330.85894,606.90675 331.50473,619.91963 324.69045,627.59779 323.0211,628.39776 322.38339,626.1028 321.54918,624.39734 321.76009,613.00476 328.04782,602.56963 330.74559,590.96649 334.9027,577.65351 336.503,571.89909 337.80578,568.0624 338.59297,564.82094 339.136,562.31196 340.16735,558.33802 340.83483,555.65766 343.09448,551.16243 342.53613,551.85635 344.40769,546.4491 345.30646,545.41105 345.04623,544.85392 L 348.6419,531.53233 C 350.63909,526.65446 351.38094,525.10124 351.88945,520.09172 L 356.48348,505.34649 359.8848,489.75142 C 362.8737,478.11595 352.99057,491.41979 351.51927,494.2055 L 331.40479,523.51502 325.7236,532.88818 322.04113,538.5539 C 319.05373,542.01686 321.22081,540.28812 317.16452,545.48171 316.01812,547.28709 315.808,547.12382 314.03294,549.94692 310.23022,555.96471 305.19546,564.00785 300.51078,571.81551 296.32115,578.00816 290.05666,591.3819 288.05749,590.41965 281.9341,577.6498 297.39435,568.52452 304.06107,558.68971 315.25416,542.70296 324.92096,525.82771 336.23898,509.95108 L 343.26415,500.24448 C 347.44826,493.11169 357.02687,484.61465 350.09924,486.21251 340.09092,486.74415 339.142,494.32722 334.03653,498.83258 328.5589,503.66636 322.90008,508.96986 318.4579,514.24798 311.28909,521.3962 304.8808,529.29082 298.57367,534.73803 290.95615,542.13464 284.97612,550.18719 276.33648,557.21294 274.39069,553.08524 282.10699,542.99445 283.33389,542.1336 291.97018,534.0678 298.14106,528.75752 305.94075,519.86255 315.39231,511.21734 324.15721,501.8827 333.43102,493.05763 338.24958,485.6131 326.61831,493.0251 318.55056,497.1148 306.77024,503.96409 287.54111,515.54003 274.78409,517.45749 268.71247,518.37009 302.48053,501.32533 298.65624,503.1504 305.94551,499.03138 311.89354,495.87355 317.62634,493.58659 324.04382,489.93356 333.06363,487.02436 339.04754,481.03531 348.83945,474.17745 360.00797,467.71749 372.10403,466.46093 395.08077,466.82682 413.8067,481.57341 433.3442,491.70838 444.7067,498.1454 458.79017,505.10997 470.97892,510.26588 469.93842,508.52117 479.61235,519.35398 471.88165,517.48492 458.30172,510.67371 442.91987,502.18977 429.44895,495.07463 423.23926,492.72647 411.70455,483.71512 407.85594,486.49465 415.11148,496.25343 425.10343,503.65029 433.19635,512.70919 438.24175,517.6476 446.05975,526.6431 448.36062,527.7729 449.04463,527.17086 457.38,537.1973 462.55663,540.76661 465.98991,542.85431 477.58998,554.46407 471.9669,557.32784 461.67196,546.32111 451.13207,535.61795 440.3352,525.19755 430.95207,515.60394 421.88568,505.98993 411.99367,497.02129 408.17679,494.08963 397.87199,479.27766 396.32207,488.32011 404.22721,498.09489 408.6668,510.31687 416.59113,520.07533 L 431.29945,542.98967 C 436.70564,549.72773 439.82301,557.09795 444.45426,563.47832 451.05235,573.80627 458.74541,581.83833 459.11574,592.64478 458.40936,593.88547 457.41015,595.69022 455.98654,594.12543 450.72623,584.71372 445.65294,575.19897 440.32694,565.83323 L 436.28733,558.6895 Z"
       style="fill:none;stroke:#ff0000;stroke-opacity:1"
       id="path4138-2-6-1-7-8-1"
       inkscape:connector-curvature="0" />
  </g>
  <path
     style="opacity:1;fill:none;fill-opacity:1;fill-rule:nonzero;stroke:#000000;stroke-width:0.354;stroke-linecap:butt;stroke-linejoin:miter;stroke-miterlimit:4;stroke-dasharray:none;stroke-opacity:1"
     d="M 0.17716568,30.25984 1030.8508,30.25984 1030.8521,743.91732 0.17845778,743.91732 Z"
     id="rect4152"
     inkscape:connector-curvature="0"
     sodipodi:nodetypes="ccccc" />
  <path
     style="fill:none;fill-rule:evenodd;stroke:#000000;stroke-width:0.354;stroke-linecap:butt;stroke-linejoin:miter;stroke-miterlimit:4;stroke-dasharray:none;stroke-opacity:1"
     d="M 2.5885845e-4,30.25984 0.35425886,30.260027"
     id="path4839"
     inkscape:connector-curvature="0"
     sodipodi:nodetypes="cc" />
</svg>
