<?xml version="1.0" encoding="UTF-8" standalone="no"?>
<!-- Created with Inkscape (http://www.inkscape.org/) -->

<svg
   xmlns:dc="http://purl.org/dc/elements/1.1/"
   xmlns:cc="http://creativecommons.org/ns#"
   xmlns:rdf="http://www.w3.org/1999/02/22-rdf-syntax-ns#"
   xmlns:svg="http://www.w3.org/2000/svg"
   xmlns="http://www.w3.org/2000/svg"
   xmlns:sodipodi="http://sodipodi.sourceforge.net/DTD/sodipodi-0.dtd"
   xmlns:inkscape="http://www.inkscape.org/namespaces/inkscape"
   width="297mm"
   height="210mm"
   viewBox="0 0 297 210"
   version="1.1"
   id="svg8"
   inkscape:version="0.92.3 (2405546, 2018-03-11)"
   sodipodi:docname="dessin.svg">
  <defs
     id="defs2" />
  <sodipodi:namedview
     id="base"
     pagecolor="#ffffff"
     bordercolor="#666666"
     borderopacity="1.0"
     inkscape:pageopacity="0.0"
     inkscape:pageshadow="2"
     inkscape:zoom="0.7"
     inkscape:cx="485.30291"
     inkscape:cy="234.41231"
     inkscape:document-units="mm"
     inkscape:current-layer="layer1"
     showgrid="false"
     inkscape:snap-bbox="true"
     inkscape:bbox-paths="true"
     inkscape:bbox-nodes="true"
     inkscape:snap-bbox-edge-midpoints="true"
     inkscape:snap-bbox-midpoints="true"
     inkscape:object-paths="true"
     inkscape:snap-intersection-paths="true"
     inkscape:snap-object-midpoints="true"
     inkscape:snap-center="true"
     showguides="false"
     inkscape:measure-start="727.857,215.714"
     inkscape:measure-end="745.499,210.893"
     inkscape:window-width="1920"
     inkscape:window-height="996"
     inkscape:window-x="0"
     inkscape:window-y="27"
     inkscape:window-maximized="1" />
  <metadata
     id="metadata5">
    <rdf:RDF>
      <cc:Work
         rdf:about="">
        <dc:format>image/svg+xml</dc:format>
        <dc:type
           rdf:resource="http://purl.org/dc/dcmitype/StillImage" />
        <dc:title></dc:title>
      </cc:Work>
    </rdf:RDF>
  </metadata>
  <g
     inkscape:label="Calque 1"
     inkscape:groupmode="layer"
     id="layer1"
     transform="translate(0,-87)">
    <g
       transform="matrix(0.28222199,0,0,0.28222199,-0.12023755,200.9744)"
       id="g1052"
       style="stroke-width:0.35433099;stroke-miterlimit:4;stroke-dasharray:none">
      <polygon
         style="fill:none;stroke:#000000;stroke-width:0.35433099;stroke-miterlimit:4;stroke-dasharray:none"
         points="108.24812,0 108.24812,10.62993 125.96467,10.62993 125.96467,0 143.68122,0 143.68122,10.62993 161.39777,10.62993 161.39777,0 179.11432,0 179.11432,10.62993 196.83087,10.62993 196.83087,0 214.54742,0 214.54742,10.62993 232.26397,10.62993 232.26397,0 249.98052,0 249.98052,10.62993 277.52976,10.62993 277.52976,0 305.07899,0 305.07899,18.496078 294.44906,18.496078 294.44906,36.992156 305.07899,36.992156 305.07899,55.488235 294.44906,55.488235 294.44906,73.984313 305.07899,73.984313 305.07899,92.480391 277.52976,92.480391 277.52976,81.850461 249.98052,81.850461 249.98052,92.480391 232.26397,92.480391 232.26397,81.850461 214.54742,81.850461 214.54742,92.480391 196.83087,92.480391 196.83087,81.850461 179.11432,81.850461 179.11432,92.480391 161.39777,92.480391 161.39777,81.850461 143.68122,81.850461 143.68122,92.480391 125.96467,92.480391 125.96467,81.850461 108.24812,81.850461 108.24812,92.480391 90.53157,92.480391 90.53157,81.850461 72.81502,81.850461 72.81502,92.480391 55.09847,92.480391 55.09847,81.850461 27.549235,81.850461 27.549235,92.480391 0,92.480391 0,73.984313 10.62993,73.984313 10.62993,55.488235 0,55.488235 0,36.992156 10.62993,36.992156 10.62993,18.496078 0,18.496078 0,0 27.549235,0 27.549235,10.62993 55.09847,10.62993 55.09847,0 72.81502,0 72.81502,10.62993 90.53157,10.62993 90.53157,0 "
         id="polygon1050" />
    </g>
    <g
       transform="matrix(0.28222199,0,0,0.28222199,87.038097,200.9744)"
       id="g1056"
       style="stroke-width:0.35433099;stroke-miterlimit:4;stroke-dasharray:none">
      <polygon
         style="fill:none;stroke:#000000;stroke-width:0.35433099;stroke-miterlimit:4;stroke-dasharray:none"
         points="179.11432,0 179.11432,10.62993 196.83087,10.62993 196.83087,0 214.54742,0 214.54742,10.62993 232.26397,10.62993 232.26397,0 249.98052,0 249.98052,10.62993 277.52976,10.62993 277.52976,0 305.07899,0 305.07899,18.496078 294.44906,18.496078 294.44906,36.992156 305.07899,36.992156 305.07899,55.488235 294.44906,55.488235 294.44906,73.984313 305.07899,73.984313 305.07899,92.480391 277.52976,92.480391 277.52976,81.850461 249.98052,81.850461 249.98052,92.480391 232.26397,92.480391 232.26397,81.850461 214.54742,81.850461 214.54742,92.480391 196.83087,92.480391 196.83087,81.850461 179.11432,81.850461 179.11432,92.480391 161.39777,92.480391 161.39777,81.850461 143.68122,81.850461 143.68122,92.480391 125.96467,92.480391 125.96467,81.850461 108.24812,81.850461 108.24812,92.480391 90.53157,92.480391 90.53157,81.850461 72.81502,81.850461 72.81502,92.480391 55.09847,92.480391 55.09847,81.850461 27.549235,81.850461 27.549235,92.480391 0,92.480391 0,73.984313 10.62993,73.984313 10.62993,55.488235 0,55.488235 0,36.992156 10.62993,36.992156 10.62993,18.496078 0,18.496078 0,0 27.549235,0 27.549235,10.62993 55.09847,10.62993 55.09847,0 72.81502,0 72.81502,10.62993 90.53157,10.62993 90.53157,0 108.24812,0 108.24812,10.62993 125.96467,10.62993 125.96467,0 143.68122,0 143.68122,10.62993 161.39777,10.62993 161.39777,0 "
         id="polygon1054" />
    </g>
    <g
       transform="matrix(0,-0.28222199,0.28222199,0,174.19644,227.0744)"
       id="g1060"
       style="stroke-width:0.35433099;stroke-miterlimit:4;stroke-dasharray:none">
      <polygon
         style="fill:none;stroke:#000000;stroke-width:0.35433099;stroke-miterlimit:4;stroke-dasharray:none"
         points="18.496078,0 18.496078,10.62993 36.992156,10.62993 36.992156,0 55.488235,0 55.488235,10.62993 73.984313,10.62993 73.984313,0 81.850461,0 81.850461,18.496078 92.480391,18.496078 92.480391,36.992156 81.850461,36.992156 81.850461,55.488235 92.480391,55.488235 92.480391,73.984313 81.850461,73.984313 81.850461,92.480391 73.984313,92.480391 73.984313,81.850461 55.488235,81.850461 55.488235,92.480391 36.992156,92.480391 36.992156,81.850461 18.496078,81.850461 18.496078,92.480391 10.62993,92.480391 10.62993,73.984313 0,73.984313 0,55.488235 10.62993,55.488235 10.62993,36.992156 0,36.992156 0,18.496078 10.62993,18.496078 10.62993,0 "
         id="polygon1058" />
    </g>
    <g
       transform="matrix(0,-0.28222199,0.28222199,0,174.19646,255.82021)"
       id="g1064"
       style="stroke-width:0.35433099;stroke-miterlimit:4;stroke-dasharray:none">
      <path
         style="fill:none;stroke:#000000;stroke-width:0.37795275;stroke-miterlimit:4;stroke-dasharray:none"
         d="M 669.71875,868.23438 V 887.96289 H 658.38086 V 907.69141 H 669.7168 V 927.42188 H 658.38086 V 947.15039 H 669.71875 V 966.87891 H 678.10938 V 955.54102 H 697.83789 V 966.87891 H 717.56836 V 955.54102 H 737.29688 V 966.87891 H 745.6875 V 947.15039 H 757.02539 V 927.42188 H 745.6875 V 907.69141 H 757.02539 V 887.96289 H 745.6875 V 868.23438 H 737.29688 V 879.57227 H 717.56836 V 868.23438 H 697.83789 V 879.57227 H 678.10938 V 868.23438 Z M 691.63867,915.28906 H 730.18945 V 932.29688 H 691.63867 Z"
         transform="matrix(0.93750077,0,0,0.93750077,-617.23199,-813.96988)"
         id="polygon1062"
         inkscape:connector-curvature="0" />
    </g>
    <g
       transform="matrix(0.28222199,0,0,0.28222199,-0.12023755,229.72025)"
       id="g1068"
       style="stroke-width:0.35433099;stroke-miterlimit:4;stroke-dasharray:none">
      <path
         style="fill:none;stroke:#000000;stroke-width:0.37795275;stroke-miterlimit:4;stroke-dasharray:none"
         d="M 28.931641,858.23438 V 869.57227 H 10.884766 V 877.96289 H -0.45507812 V 897.69141 H 10.884766 V 917.42188 H -0.45507812 V 937.15039 H 10.884766 V 945.54102 H 28.931641 V 956.87891 H 58.316406 V 945.54102 H 77.214844 V 956.87891 H 96.113281 V 945.54102 H 115.00977 V 956.87891 H 133.9082 V 945.54102 H 152.80469 V 956.87891 H 171.70312 V 945.54102 H 190.60156 V 956.87891 H 209.49805 V 945.54102 H 228.39648 V 956.87891 H 247.29297 V 945.54102 H 266.19141 V 956.87891 H 295.57617 V 945.54102 H 313.625 V 937.15039 H 324.96289 V 917.42188 H 313.625 V 897.69141 H 324.96289 V 877.96289 H 313.625 V 869.57227 H 295.57617 V 858.23438 H 266.19141 V 869.57227 H 247.29297 V 858.23438 H 228.39648 V 869.57227 H 209.49805 V 858.23438 H 190.60156 V 869.57227 H 171.70312 V 858.23438 H 152.80469 V 869.57227 H 133.9082 V 858.23438 H 115.00977 V 869.57227 H 96.113281 V 858.23438 H 77.214844 V 869.57227 H 58.316406 V 858.23438 Z M 93.46875,893.57227 A 13.984252,13.984252 0 0 1 105.5625,900.56836 V 914.55078 A 13.984252,13.984252 0 0 1 93.46875,921.54102 13.984252,13.984252 0 0 1 81.373047,914.53906 V 900.5625 A 13.984252,13.984252 0 0 1 93.46875,893.57227 Z M 150.16016,893.57227 A 13.984252,13.984252 0 0 1 162.25391,900.56836 V 914.55078 A 13.984252,13.984252 0 0 1 150.16016,921.54102 13.984252,13.984252 0 0 1 138.06445,914.53906 V 900.5625 A 13.984252,13.984252 0 0 1 150.16016,893.57227 Z M 206.85352,893.57227 A 13.984252,13.984252 0 0 1 218.94727,900.56836 V 914.55078 A 13.984252,13.984252 0 0 1 206.85352,921.54102 13.984252,13.984252 0 0 1 194.75781,914.53906 V 900.5625 A 13.984252,13.984252 0 0 1 206.85352,893.57227 Z M 263.54688,893.57227 A 13.984252,13.984252 0 0 1 275.64062,900.56836 V 914.55078 A 13.984252,13.984252 0 0 1 263.54688,921.54102 13.984252,13.984252 0 0 1 251.45117,914.53906 V 900.5625 A 13.984252,13.984252 0 0 1 263.54688,893.57227 Z"
         transform="matrix(0.93750077,0,0,0.93750077,0.42603891,-804.59499)"
         id="polygon1066"
         inkscape:connector-curvature="0" />
    </g>
    <g
       transform="matrix(0.28222199,0,0,0.28222199,87.038099,229.7202)"
       id="g1072"
       style="stroke-width:0.35433099;stroke-miterlimit:4;stroke-dasharray:none">
      <polygon
         style="fill:none;stroke:#000000;stroke-width:0.35433099;stroke-miterlimit:4;stroke-dasharray:none"
         points="232.26397,0 232.26397,10.62993 249.98052,10.62993 249.98052,0 277.52976,0 277.52976,10.62993 294.44906,10.62993 294.44906,18.496078 305.07899,18.496078 305.07899,36.992156 294.44906,36.992156 294.44906,55.488235 305.07899,55.488235 305.07899,73.984313 294.44906,73.984313 294.44906,81.850461 277.52976,81.850461 277.52976,92.480391 249.98052,92.480391 249.98052,81.850461 232.26397,81.850461 232.26397,92.480391 214.54742,92.480391 214.54742,81.850461 196.83087,81.850461 196.83087,92.480391 179.11432,92.480391 179.11432,81.850461 161.39777,81.850461 161.39777,92.480391 143.68122,92.480391 143.68122,81.850461 125.96467,81.850461 125.96467,92.480391 108.24812,92.480391 108.24812,81.850461 90.53157,81.850461 90.53157,92.480391 72.81502,92.480391 72.81502,81.850461 55.09847,81.850461 55.09847,92.480391 27.549235,92.480391 27.549235,81.850461 10.62993,81.850461 10.62993,73.984313 0,73.984313 0,55.488235 10.62993,55.488235 10.62993,36.992156 0,36.992156 0,18.496078 10.62993,18.496078 10.62993,10.62993 27.549235,10.62993 27.549235,0 55.09847,0 55.09847,10.62993 72.81502,10.62993 72.81502,0 90.53157,0 90.53157,10.62993 108.24812,10.62993 108.24812,0 125.96467,0 125.96467,10.62993 143.68122,10.62993 143.68122,0 161.39777,0 161.39777,10.62993 179.11432,10.62993 179.11432,0 196.83087,0 196.83087,10.62993 214.54742,10.62993 214.54742,0 "
         id="polygon1070" />
    </g>
    <path
       style="opacity:1;fill:none;fill-opacity:1;fill-rule:nonzero;stroke:#000005;stroke-width:0.09999998;stroke-linecap:butt;stroke-linejoin:miter;stroke-miterlimit:4;stroke-dasharray:none;stroke-opacity:1"
       d="M 201.45478,200.9744 201.4553,220.97421 H 221.45511 V 200.9744 Z M 204.50524,217.37443 H 218.40517 V 218.97433 H 204.50524 Z"
       id="rect1155"
       inkscape:connector-curvature="0" />
    <path
       style="opacity:1;fill:none;fill-opacity:1;fill-rule:nonzero;stroke:#000005;stroke-width:0.09999999;stroke-linecap:butt;stroke-linejoin:miter;stroke-miterlimit:4;stroke-dasharray:none;stroke-opacity:1"
       d="M 219.45506,231.53248 V 236.53248 H 205.45506 V 231.53248 Z M 201.45506,222.13255 201.45483,236.53248 201.45509,242.13236 H 221.4549 V 236.53248 L 221.45506,222.13255 Z M 204.50504,238.53248 218.40496,238.53258 V 240.13249 H 204.50504 Z"
       id="rect1155-1"
       inkscape:connector-curvature="0"
       sodipodi:nodetypes="ccccccccccccccccc" />
  </g>
</svg>
