<?xml version="1.0" encoding="UTF-8" standalone="no"?>
<svg
   xmlns:dc="http://purl.org/dc/elements/1.1/"
   xmlns:cc="http://creativecommons.org/ns#"
   xmlns:rdf="http://www.w3.org/1999/02/22-rdf-syntax-ns#"
   xmlns:svg="http://www.w3.org/2000/svg"
   xmlns="http://www.w3.org/2000/svg"
   xmlns:sodipodi="http://sodipodi.sourceforge.net/DTD/sodipodi-0.dtd"
   xmlns:inkscape="http://www.inkscape.org/namespaces/inkscape"
   width="297mm"
   height="210mm"
   viewBox="0 0 297 210"
   version="1.1"
   id="svg8"
   inkscape:version="0.92.3 (2405546, 2018-03-11)"
   sodipodi:docname="esp8266-storage.svg">
  <sodipodi:namedview
     inkscape:document-rotation="0"
     inkscape:snap-bbox="true"
     inkscape:object-nodes="true"
     inkscape:snap-others="true"
     id="base"
     pagecolor="#ffffff"
     bordercolor="#666666"
     borderopacity="1.0"
     inkscape:pageopacity="0.0"
     inkscape:pageshadow="2"
     inkscape:zoom="1.687936"
     inkscape:cx="-96.457246"
     inkscape:cy="-116.47772"
     inkscape:document-units="mm"
     inkscape:current-layer="layer1"
     showgrid="false"
     inkscape:window-width="3840"
     inkscape:window-height="2099"
     inkscape:window-x="0"
     inkscape:window-y="33"
     inkscape:window-maximized="1"
     inkscape:snap-midpoints="true"
     inkscape:measure-start="97.5,879.5"
     inkscape:measure-end="97.625,844"
     inkscape:snap-nodes="true"
     inkscape:snap-object-midpoints="true"
     inkscape:snap-center="true"
     inkscape:bbox-paths="true"
     inkscape:bbox-nodes="true"
     inkscape:snap-bbox-edge-midpoints="true"
     inkscape:snap-bbox-midpoints="false" />
  <defs
     id="defs2" />
  <metadata
     id="metadata5">
    <rdf:RDF>
      <cc:Work
         rdf:about="">
        <dc:format>image/svg+xml</dc:format>
        <dc:type
           rdf:resource="http://purl.org/dc/dcmitype/StillImage" />
        <dc:title />
      </cc:Work>
    </rdf:RDF>
  </metadata>
  <g
     transform="translate(0,-87)"
     inkscape:label="Calque 1"
     inkscape:groupmode="layer"
     id="layer1">
    <path
       style="opacity:1;fill:none;fill-opacity:1;fill-rule:nonzero;stroke:#070000;stroke-width:0.1;stroke-linecap:butt;stroke-linejoin:miter;stroke-miterlimit:4;stroke-dasharray:none;stroke-dashoffset:0;stroke-opacity:1;paint-order:normal"
       d="M 0.05,252.95009 V 264.95039 H 3.04982 V 268.95016 H 0.05 V 280.94993 H 3.04982 V 284.95021 H 0.05 V 296.94999 H 12.77015 V 293.95017 H 25.49031 V 296.94999 H 38.20994 V 293.95017 H 50.930101 V 296.94999 H 75.118291 V 293.95017 H 87.83844 V 296.94999 H 100.55808 V 293.95017 H 113.27823 V 296.94999 H 125.99839 V 284.95021 H 122.99805 V 280.94993 H 125.99839 V 268.95016 H 122.99805 V 264.95039 H 125.99839 V 252.95009 H 113.27823 V 255.94991 H 100.55808 V 252.95009 H 87.83844 V 255.94991 H 75.118291 V 252.95009 H 50.930101 V 255.94991 H 38.20994 V 252.95009 H 25.49031 V 255.94991 H 12.77015 V 252.95009 Z M 17.80395,257.58237 H 19.20387 V 265.10026 H 20.50405 V 281.40055 H 19.20387 V 288.91793 H 17.80395 V 281.40055 265.10026 Z M 37.75157,257.58237 H 39.15149 V 265.10026 H 40.45167 V 281.40055 H 39.15149 V 288.91793 H 37.75157 V 281.40055 265.10026 Z M 57.699711,257.58237 H 59.099631 V 265.10026 H 60.399801 V 281.40055 H 59.099631 V 288.91793 H 57.699711 V 281.40055 265.10026 Z M 77.647851,257.58237 H 79.047761 V 265.10026 H 80.34794 V 281.40055 H 79.047761 V 288.91793 H 77.647851 V 281.40055 265.10026 Z M 97.59598,257.58237 H 98.9959 V 265.10026 H 100.29608 V 281.40055 H 98.9959 V 288.91793 H 97.59598 V 281.40055 265.10026 Z M 117.54412,257.58237 H 118.94404 V 265.10026 H 120.24421 V 281.40055 H 118.94404 V 288.91793 H 117.54412 V 281.40055 265.10026 Z M 7.10435,260.98268 H 8.50426 V 268.50056 284.80086 292.31822 H 7.10435 V 284.80086 H 5.80417 V 268.50056 H 7.10435 Z M 27.05249,260.98268 H 28.4524 V 268.50056 284.80086 292.31822 H 27.05249 V 284.80086 H 25.75231 V 268.50056 H 27.05249 Z M 47.000111,260.98268 H 48.400021 V 268.50056 284.80086 292.31822 H 47.000111 V 284.80086 H 45.699931 V 268.50056 H 47.000111 Z M 66.948241,260.98268 H 68.348151 V 268.50056 284.80086 292.31822 H 66.948241 V 284.80086 H 65.648061 V 268.50056 H 66.948241 Z M 86.89638,260.98268 H 88.29629 V 268.50056 284.80086 292.31822 H 86.89638 V 284.80086 H 85.5962 V 268.50056 H 86.89638 Z M 106.84452,260.98268 H 108.24443 V 268.50056 284.80086 292.31822 H 106.84452 V 284.80086 H 105.54434 V 268.50056 H 106.84452 Z"
       id="rect815-4-6-5-3-5-6"
       inkscape:connector-curvature="0" />
    <path
       style="fill:none;stroke:#000000;stroke-width:0.1;stroke-miterlimit:4;stroke-dasharray:none"
       d="M 156.71848,231.95077 V 234.95059 L 143.99884,234.95006 V 241.5507 H 146.99866 V 246.3504 H 143.99884 V 252.95001 H 269.94619 V 246.3504 H 266.94637 V 241.5507 H 269.94619 V 234.95006 L 257.22655,234.95059 V 231.95077 H 244.5064 V 234.95059 H 231.78624 V 231.95077 H 219.06609 V 234.95059 H 194.87894 V 231.95077 H 182.15878 V 234.95059 H 169.43863 V 231.95077 Z M 169.43863,238.95035 H 182.15878 V 241.95067 H 169.43863 Z M 231.78624,238.95035 H 244.5064 V 241.95067 H 231.78624 Z"
       id="path961"
       inkscape:connector-curvature="0" />
    <path
       style="fill:none;stroke:#000000;stroke-width:0.1;stroke-miterlimit:4;stroke-dasharray:none"
       d="M 169.43811,252.95011 V 255.94993 H 146.99814 V 268.95015 H 143.99832 V 280.94993 H 146.99814 V 293.95018 H 169.43811 V 296.95 H 182.15826 V 293.95018 H 231.78624 V 296.95 H 244.5064 V 293.95018 H 266.94637 V 280.94993 H 269.94619 V 268.95015 H 266.94637 V 255.94993 H 244.5064 V 252.95011 H 231.78624 V 255.94993 H 182.15826 V 252.95011 Z M 161.75176,257.58185 H 163.15167 V 265.10025 H 164.45185 V 281.40004 H 163.15167 V 288.91741 H 161.75176 V 281.40004 265.10025 Z M 181.69989,257.58185 H 183.09981 V 265.10025 H 184.39999 V 281.40004 H 183.09981 V 288.91741 H 181.69989 V 281.40004 265.10025 Z M 201.64803,257.58185 H 203.04795 V 265.10025 H 204.34812 V 281.40004 H 203.04795 V 288.91741 H 201.64803 V 281.40004 265.10025 Z M 221.59565,257.58185 H 222.99557 V 265.10025 H 224.29574 V 281.40004 H 222.99557 V 288.91741 H 221.59565 V 281.40004 265.10025 Z M 241.54379,257.58185 H 242.9437 V 265.10025 H 244.24388 V 281.40004 H 242.9437 V 288.91741 H 241.54379 V 281.40004 265.10025 Z M 261.49192,257.58185 H 262.89184 V 265.10025 H 264.19202 V 281.40004 H 262.89184 V 288.91741 H 261.49192 V 281.40004 265.10025 Z M 151.05215,260.98217 H 152.45207 V 268.50057 284.80036 292.31773 H 151.05215 V 284.80036 H 149.75197 V 268.50057 H 151.05215 Z M 171.00029,260.98217 H 172.4002 V 268.50057 284.80036 292.31773 H 171.00029 V 284.80036 H 169.70011 V 268.50057 H 171.00029 Z M 190.94843,260.98217 H 192.34834 V 268.50057 284.80036 292.31773 H 190.94843 V 284.80036 H 189.64825 V 268.50057 H 190.94843 Z M 210.89656,260.98217 H 212.29648 V 268.50057 284.80036 292.31773 H 210.89656 V 284.80036 H 209.59638 V 268.50057 H 210.89656 Z M 230.84418,260.98217 H 232.24409 V 268.50057 284.80036 292.31773 H 230.84418 V 284.80036 H 229.544 V 268.50057 H 230.84418 Z M 250.79232,260.98217 H 252.19223 V 268.50057 284.80036 292.31773 H 250.79232 V 284.80036 H 249.49214 V 268.50057 H 250.79232 Z"
       id="path2366-6-4"
       inkscape:connector-curvature="0" />
    <path
       inkscape:connector-curvature="0"
       style="fill:none;stroke:#000000;stroke-width:0.1;stroke-miterlimit:4;stroke-dasharray:none"
       d="M 12.77041,255.94965 V 252.94983 L 0.05078,252.95036 V 246.34972 H 3.05059 V 241.55002 H 0.05078 V 234.95041 H 125.99813 V 241.55002 H 122.99831 V 246.34972 H 125.99813 V 252.95036 L 113.27849,252.94983 V 255.94965 H 100.55834 V 252.94983 H 87.83819 V 255.94965 H 75.118031 V 252.94983 H 50.930881 V 255.94965 H 38.21072 V 252.94983 H 25.49057 V 255.94965 Z M 25.49057,248.95007 H 38.21072 V 245.94975 H 25.49057 Z M 87.83819,248.95007 H 100.55834 V 245.94975 H 87.83819 Z"
       id="path961-3" />
    <path
       inkscape:connector-curvature="0"
       id="path2330-8-3"
       d="M 132.59798,252.95009 V 255.94991 H 125.99839 V 264.9504 H 122.99805 V 268.95016 H 125.99839 V 280.94993 H 122.99805 V 284.9502 H 125.99839 V 293.95018 H 132.59798 V 296.94998 H 137.39821 V 293.95018 H 143.99832 V 255.94991 H 137.39821 V 252.95009 Z M 129.99814,268.95016 H 132.99796 V 280.94993 H 129.99814 Z"
       style="fill:none;stroke:#000000;stroke-width:0.1;stroke-miterlimit:4;stroke-dasharray:none" />
    <path
       inkscape:connector-curvature="0"
       id="path2330-8-8"
       d="M 276.54578,252.95009 V 255.94991 H 269.94619 V 264.95039 H 266.94585 V 268.95015 H 269.94619 V 280.94993 H 266.94585 V 284.9502 H 269.94619 V 293.95017 H 276.54578 V 296.94998 H 281.34601 V 293.95017 H 287.94612 V 255.94991 H 281.34601 V 252.95009 Z M 273.94594,268.95015 H 276.94576 V 280.94993 H 273.94594 Z"
       style="fill:none;stroke:#000000;stroke-width:0.1;stroke-miterlimit:4;stroke-dasharray:none" />
  </g>
</svg>
