<?xml version="1.0" encoding="UTF-8" standalone="no"?>
<svg
   xmlns:dc="http://purl.org/dc/elements/1.1/"
   xmlns:cc="http://creativecommons.org/ns#"
   xmlns:rdf="http://www.w3.org/1999/02/22-rdf-syntax-ns#"
   xmlns:svg="http://www.w3.org/2000/svg"
   xmlns="http://www.w3.org/2000/svg"
   xmlns:sodipodi="http://sodipodi.sourceforge.net/DTD/sodipodi-0.dtd"
   xmlns:inkscape="http://www.inkscape.org/namespaces/inkscape"
   width="297mm"
   height="210mm"
   id="svg5112"
   version="1.1"
   inkscape:version="0.92.2 2405546, 2018-03-11"
   sodipodi:docname="Storage_Box_A4.svg">
  <metadata
     id="metadata6048">
    <rdf:RDF>
      <cc:Work
         rdf:about="">
        <dc:format>image/svg+xml</dc:format>
        <dc:type
           rdf:resource="http://purl.org/dc/dcmitype/StillImage" />
        <dc:title></dc:title>
      </cc:Work>
    </rdf:RDF>
  </metadata>
  <sodipodi:namedview
     pagecolor="#ffffff"
     bordercolor="#666666"
     borderopacity="1"
     objecttolerance="10"
     gridtolerance="10"
     guidetolerance="10"
     inkscape:pageopacity="0"
     inkscape:pageshadow="2"
     inkscape:window-width="1920"
     inkscape:window-height="1016"
     id="namedview6046"
     showgrid="false"
     showguides="false"
     inkscape:zoom="0.5835012"
     inkscape:cx="1850.1035"
     inkscape:cy="279.42477"
     inkscape:window-x="0"
     inkscape:window-y="27"
     inkscape:window-maximized="1"
     inkscape:current-layer="g5804"
     inkscape:document-units="mm"
     units="mm"
     inkscape:snap-bbox="true"
     inkscape:bbox-paths="true"
     inkscape:bbox-nodes="true"
     inkscape:snap-bbox-edge-midpoints="true"
     inkscape:snap-bbox-midpoints="true"
     inkscape:object-paths="true"
     inkscape:snap-intersection-paths="true"
     inkscape:snap-smooth-nodes="true" />
  <desc
     id="desc5114">/home/avernois/TÃ©lÃ©chargements/laser/Compartment_Storage_Box.dxf - scale = 1.000000, origin = (0.000000, 0.000000), auto = False</desc>
  <defs
     id="defs5116">
    <marker
       id="DistanceX"
       orient="auto"
       refX="0"
       refY="0"
       style="overflow:visible">
      <path
         d="M 3.2,-3.2 -3.2,3.2 M 0,-5.3333333 V 5.3333333"
         style="stroke:#000000;stroke-width:0.53333336"
         id="path5119"
         inkscape:connector-curvature="0" />
    </marker>
    <pattern
       height="8"
       id="Hatch"
       patternUnits="userSpaceOnUse"
       width="8"
       x="0"
       y="0">
      <path
         d="M8 4 l-4,4"
         linecap="square"
         stroke="#000000"
         stroke-width="0.25"
         id="path5122" />
      <path
         d="M6 2 l-4,4"
         linecap="square"
         stroke="#000000"
         stroke-width="0.25"
         id="path5124" />
      <path
         d="M4 0 l-4,4"
         linecap="square"
         stroke="#000000"
         stroke-width="0.25"
         id="path5126" />
    </pattern>
    <symbol
       id="$MODEL_SPACE" />
    <symbol
       id="$PAPER_SPACE" />
  </defs>
  <g
     inkscape:groupmode="layer"
     inkscape:label="0"
     id="g5130"
     transform="translate(0,-328.8189)" />
  <g
     inkscape:groupmode="layer"
     inkscape:label="LAYER1"
     id="g5132"
     transform="translate(0,-328.8189)" />
  <g
     inkscape:groupmode="layer"
     inkscape:label="LAYER2"
     id="g5582"
     transform="translate(0,-328.8189)" />
  <g
     inkscape:groupmode="layer"
     inkscape:label="STANDARD"
     id="g5804"
     transform="translate(0,-328.8189)">
    <path
       d="M 785.86611,835.89605 C 786.9098,835.89605 787.75588,835.04998 787.75588,834.00629 V 762.19527 C 787.75588,761.15158 786.9098,760.3055 785.86611,760.3055 H 772.63777 V 703.6126 H 438.95877 C 434.78402,703.61259 431.39926,700.22829 431.39926,696.05354 431.39926,691.8788 428.01496,688.4945 423.84022,688.49449 H 363.3678 C 359.19306,688.4945 355.80876,691.8788 355.80876,696.05354 355.80876,700.22829 352.42447,703.61259 348.24972,703.6126 H 15.651331 V 760.3055 H 2.423031 C 1.379361,760.30554 0.533331,761.1516 0.533331,762.19527 V 834.00629 C 0.533331,835.04995 1.379371,835.89601 2.423031,835.89605 H 15.651331 V 892.58897 H 280.21825 V 907.70708 H 347.49377 C 351.66851,907.70707 355.05281,904.32277 355.05281,900.14803 355.05281,895.55579 358.77556,891.83305 363.3678,891.83307 H 423.84022 C 428.43246,891.83305 432.15521,895.55579 432.15521,900.14803 432.15521,904.32277 435.53951,907.70707 439.71425,907.70708 H 506.98986 L 506.98977,892.58897 H 772.63777 V 835.89605 Z"
       style="fill:none;stroke:#000000;stroke-width:1.06666672;stroke-linecap:round"
       id="path5890-3"
       inkscape:connector-curvature="0"
       sodipodi:nodetypes="ccccccccccccccccccccccccccccccccc" />
    <path
       d="M 795.94066,584.37511 V 709.42489 H 852.63356 V 693.73986 H 928.22416 V 709.42489 H 984.92076 V 652.73197 H 1000.0352 V 585.45639 C 1000.0352,581.28164 996.65086,577.89733 992.47606,577.89733 987.88386,577.89733 984.16116,574.17461 984.16116,569.58238 V 509.10994 C 984.16116,504.51771 987.88386,500.79497 992.47606,500.79497 996.65086,500.79497 1000.0352,497.41067 1000.0352,493.23592 V 425.96033 H 984.92076 V 369.27118 L 928.22416,369.27496 V 384.96001 H 852.63356 V 369.27511 H 795.94066 V 493.66711 C 795.94065,497.84185 792.55636,501.22583 788.38161,501.22583 784.20686,501.22583 780.82255,504.61014 780.82255,508.78489 V 569.25733 C 780.82255,573.43208 784.20686,576.81638 788.38161,576.81638 792.55636,576.81638 795.94066,580.20035 795.94066,584.37511"
       style="fill:none;stroke:#000000;stroke-width:1.06666672;stroke-linecap:round"
       id="path6042-1"
       inkscape:connector-curvature="0"
       sodipodi:nodetypes="ccccccccccccccccccccccccccccc" />
    <path
       d="M 1943.7245,612.12375 V 385.35236 H 1959.4093 L 1959.4095,328.65997 H 1679.7207 L 1679.7169,344.34498 H 1452.9453 V 328.65997 H 1173.2602 V 385.35236 H 1188.9453 V 612.12375 H 1173.2602 V 668.81665 H 1452.9453 V 653.13155 H 1679.7169 L 1679.7207,668.81665 H 1959.4095 V 612.12375 H 1943.7245"
       style="fill:none;stroke:#000000;stroke-width:1.06666672;stroke-linecap:round"
       id="path5840-3"
       inkscape:connector-curvature="0"
       sodipodi:nodetypes="ccccccccccccccccccccc" />
    <path
       d="M 1604.134,1088.6603 C 1604.134,1084.4855 1600.7497,1081.1012 1596.5749,1081.1012 H 1536.1025 C 1531.9277,1081.1012 1528.5434,1084.4855 1528.5434,1088.6603 1528.5434,1092.835 1525.1589,1096.2193 1520.9842,1096.2194 L 1187.305,1096.2195 V 1039.5266 H 1174.0766 C 1173.0329,1039.5266 1172.1869,1038.6805 1172.1869,1037.6369 V 965.82595 C 1172.1869,964.78235 1173.0329,963.93625 1174.0766,963.93625 H 1187.305 V 907.24335 H 1452.9532 L 1452.9529,892.12525 H 1520.2285 C 1524.4032,892.12515 1527.7875,888.74085 1527.7875,884.56605 1527.7875,879.97375 1531.5103,876.25095 1536.1025,876.25095 H 1596.5749 C 1601.1671,876.25095 1604.8899,879.97375 1604.8899,884.56605 1604.8899,888.74085 1608.2742,892.12515 1612.4489,892.12525 H 1679.7245 V 907.24335 H 1944.2914 V 963.93625 H 1957.5198 C 1958.5635,963.93625 1959.4095,964.78235 1959.4095,965.82595 V 1037.6369 C 1959.4095,1038.6805 1958.5635,1039.5266 1957.5198,1039.5266 H 1944.2914 V 1096.2195 L 1611.693,1096.2194 C 1607.5183,1096.2193 1604.134,1092.835 1604.134,1088.6603 Z"
       style="fill:none;stroke:#000000;stroke-width:1.06666672;stroke-linecap:round"
       id="path5262-2"
       inkscape:connector-curvature="0"
       sodipodi:nodetypes="ccccccccccccccccccccccccccccccccc" />
    <path
       d="M 2113.2153,1050.2941 H 2037.6247 V 1065.9791 L 1980.9281,1065.9829 V 1009.2939 H 1965.8137 L 1965.8136,942.01842 C 1965.8135,937.84362 1962.4292,934.45942 1958.2545,934.45932 1953.6623,934.45932 1949.9395,930.73662 1949.9395,926.14442 V 865.67202 C 1949.9395,861.07982 1953.6623,857.35702 1958.2545,857.35712 1962.4292,857.35702 1965.8135,853.97272 1965.8136,849.79802 L 1965.8137,782.52252 H 1980.9281 V 725.82972 H 2037.6247 V 741.51472 H 2113.2153 V 725.82972 H 2169.9082 L 2169.9083,850.87902 C 2169.9085,855.05372 2166.5242,858.43802 2162.3494,858.43802 2158.1747,858.43802 2154.7904,861.82232 2154.7904,865.99712 V 926.46942 C 2154.7904,930.64412 2158.1747,934.02842 2162.3494,934.02852 2166.5242,934.02842 2169.9085,937.41322 2169.9083,941.58802 L 2169.9082,1065.979 2113.2153,1065.9791"
       style="fill:none;stroke:#000000;stroke-width:1.06666672;stroke-linecap:round"
       id="path5534-1-5"
       inkscape:connector-curvature="0"
       sodipodi:nodetypes="cccccccccccccccccccccccccccc" />
    <path
       d="M 2026.8891,1097.2938 V 1112.9788"
       style="fill:none;stroke:#000000;stroke-width:1.06666672;stroke-linecap:round"
       id="path6020-3-7"
       inkscape:connector-curvature="0"
       sodipodi:nodetypes="cc" />
    <path
       d="M 1604.134,871.62516 C 1604.134,867.45036 1600.7497,864.06606 1596.5749,864.06606 H 1536.1025 C 1531.9277,864.06606 1528.5434,867.45036 1528.5434,871.62516 1528.5434,875.79986 1525.1589,879.18416 1520.9842,879.18426 H 1187.305 V 822.49146 H 1174.0766 C 1173.0329,822.49146 1172.1869,821.64536 1172.1869,820.60166 V 748.79076 C 1172.1869,747.74716 1173.0329,746.90106 1174.0766,746.90106 H 1187.305 V 690.20816 H 1452.9532 L 1452.9529,675.09016 1520.2285,675.09006 C 1524.4032,675.08996 1527.7875,671.70566 1527.7875,667.53086 1527.7875,662.93856 1531.5103,659.21576 1536.1025,659.21586 H 1596.5749 C 1601.1671,659.21576 1604.8899,662.93856 1604.8899,667.53086 1604.8899,671.70566 1608.2742,675.08996 1612.4489,675.09006 L 1679.7245,675.09016 V 690.20816 H 1944.2914 V 746.90106 H 1957.5198 C 1958.5635,746.90106 1959.4095,747.74716 1959.4095,748.79076 V 820.60166 C 1959.4095,821.64536 1958.5635,822.49146 1957.5198,822.49146 H 1944.2914 V 879.18426 H 1611.693 C 1607.5183,879.18416 1604.134,875.79986 1604.134,871.62516 Z"
       style="fill:none;stroke:#000000;stroke-width:1.06666672;stroke-linecap:round"
       id="path5262-2-9"
       inkscape:connector-curvature="0"
       sodipodi:nodetypes="ccccccccccccccccccccccccccccccccc" />
    <path
       d="M 785.8661,1050.1753 C 786.9098,1050.1753 787.7559,1049.3293 787.7559,1048.2856 V 976.47455 C 787.7559,975.43086 786.9098,974.58478 785.8661,974.58478 H 772.6378 V 917.89188 H 438.95876 C 434.78401,917.89187 431.39925,914.50757 431.39925,910.33282 431.39925,906.15808 428.01495,902.77378 423.84021,902.77377 H 363.36779 C 359.19305,902.77378 355.80875,906.15808 355.80875,910.33282 355.80875,914.50757 352.42446,917.89187 348.24971,917.89188 H 15.65132 V 974.58478 H 2.42302 C 1.37935,974.58482 0.53332,975.43088 0.53332,976.47455 V 1048.2856 C 0.53332,1049.3292 1.37936,1050.1753 2.42302,1050.1753 H 15.65132 V 1106.8682 H 280.21824 V 1121.9864 H 347.49376 C 351.6685,1121.9863 355.0528,1118.602 355.0528,1114.4273 355.0528,1109.8351 358.77555,1106.1123 363.36779,1106.1123 H 423.84021 C 428.43245,1106.1123 432.1552,1109.8351 432.1552,1114.4273 432.1552,1118.602 435.5395,1121.9863 439.71424,1121.9864 H 506.98985 L 506.98976,1106.8682 H 772.6378 V 1050.1753 Z"
       style="fill:none;stroke:#000000;stroke-width:1.06666672;stroke-linecap:round"
       id="path5890-3-2"
       inkscape:connector-curvature="0"
       sodipodi:nodetypes="ccccccccccccccccccccccccccccccccc" />
    <path
       d="M 770.99763,640.73492 V 413.96347 H 786.68243 L 786.68263,357.27108 H 506.99383 L 506.99003,372.95609 H 280.21843 V 357.27108 H 0.533331 V 413.96347 H 16.218431 V 640.73492 H 0.533331 V 697.42782 H 280.21843 V 681.74272 H 506.99003 L 506.99383,697.42782 H 786.68263 V 640.73492 H 770.99763"
       style="fill:none;stroke:#000000;stroke-width:1.06666672;stroke-linecap:round"
       id="path5840-3-6"
       inkscape:connector-curvature="0"
       sodipodi:nodetypes="ccccccccccccccccccccc" />
    <path
       d="M 795.94066,930.52882 V 1055.5786 H 852.63356 V 1039.8936 H 928.22416 V 1055.5786 H 984.92076 V 998.8857 H 1000.0352 V 931.6101 C 1000.0352,927.43535 996.65086,924.05104 992.47606,924.05104 987.88386,924.05104 984.16116,920.32832 984.16116,915.73609 V 855.26365 C 984.16116,850.67142 987.88386,846.94868 992.47606,846.94868 996.65086,846.94868 1000.0352,843.56438 1000.0352,839.38963 V 772.11404 H 984.92076 V 715.42489 L 928.22416,715.42867 V 731.11372 H 852.63356 V 715.42882 H 795.94066 V 839.82082 C 795.94065,843.99556 792.55636,847.37954 788.38161,847.37954 784.20686,847.37954 780.82255,850.76385 780.82255,854.9386 V 915.41104 C 780.82255,919.58579 784.20686,922.97009 788.38161,922.97009 792.55636,922.97009 795.94066,926.35406 795.94066,930.52882"
       style="fill:none;stroke:#000000;stroke-width:1.06666672;stroke-linecap:round"
       id="path6042-1-6"
       inkscape:connector-curvature="0"
       sodipodi:nodetypes="ccccccccccccccccccccccccccccc" />
    <path
       d="M 2113.752,686.22377 H 2038.1614 V 701.90877 L 1981.4648,701.91257 V 645.22357 H 1966.3504 L 1966.3503,577.94807 C 1966.3502,573.77327 1962.9659,570.38907 1958.7912,570.38897 1954.199,570.38897 1950.4762,566.66627 1950.4762,562.07407 V 501.60168 C 1950.4762,497.00948 1954.199,493.28668 1958.7912,493.28678 1962.9659,493.28668 1966.3502,489.90238 1966.3503,485.72768 L 1966.3504,418.45217 H 1981.4648 V 361.75937 H 2038.1614 V 377.44437 H 2113.752 V 361.75937 H 2170.4449 L 2170.445,486.80868 C 2170.4452,490.98338 2167.0609,494.36768 2162.8861,494.36768 2158.7114,494.36768 2155.3271,497.75198 2155.3271,501.92678 V 562.39907 C 2155.3271,566.57377 2158.7114,569.95807 2162.8861,569.95817 2167.0609,569.95807 2170.4452,573.34287 2170.445,577.51767 L 2170.4449,701.90867 2113.752,701.90877"
       style="fill:none;stroke:#000000;stroke-width:1.06666672;stroke-linecap:round"
       id="path5534-1-5-4"
       inkscape:connector-curvature="0"
       sodipodi:nodetypes="cccccccccccccccccccccccccccc" />
  </g>
</svg>
