<?xml version="1.0" encoding="UTF-8" standalone="no"?>
<!-- Created with Inkscape (http://www.inkscape.org/) -->

<svg
   xmlns:dc="http://purl.org/dc/elements/1.1/"
   xmlns:cc="http://creativecommons.org/ns#"
   xmlns:rdf="http://www.w3.org/1999/02/22-rdf-syntax-ns#"
   xmlns:svg="http://www.w3.org/2000/svg"
   xmlns="http://www.w3.org/2000/svg"
   xmlns:sodipodi="http://sodipodi.sourceforge.net/DTD/sodipodi-0.dtd"
   xmlns:inkscape="http://www.inkscape.org/namespaces/inkscape"
   width="297mm"
   height="210mm"
   viewBox="0 0 297 210"
   version="1.1"
   id="svg1076"
   inkscape:version="0.92.3 (2405546, 2018-03-11)"
   sodipodi:docname="storage-small_clamps.svg">
  <defs
     id="defs1070" />
  <sodipodi:namedview
     id="base"
     pagecolor="#ffffff"
     bordercolor="#666666"
     borderopacity="1.0"
     inkscape:pageopacity="0.0"
     inkscape:pageshadow="2"
     inkscape:zoom="0.35"
     inkscape:cx="963.91218"
     inkscape:cy="1238.6111"
     inkscape:document-units="mm"
     inkscape:current-layer="layer1"
     showgrid="false"
     inkscape:measure-start="-184.245,-329.279"
     inkscape:measure-end="-191.929,-330.32"
     inkscape:snap-midpoints="true"
     inkscape:snap-bbox="true"
     inkscape:snap-bbox-edge-midpoints="true"
     inkscape:window-width="1920"
     inkscape:window-height="996"
     inkscape:window-x="0"
     inkscape:window-y="27"
     inkscape:window-maximized="1" />
  <metadata
     id="metadata1073">
    <rdf:RDF>
      <cc:Work
         rdf:about="">
        <dc:format>image/svg+xml</dc:format>
        <dc:type
           rdf:resource="http://purl.org/dc/dcmitype/StillImage" />
        <dc:title></dc:title>
      </cc:Work>
    </rdf:RDF>
  </metadata>
  <g
     inkscape:label="Calque 1"
     inkscape:groupmode="layer"
     id="layer1"
     transform="translate(0,-87)">
    <path
       style="opacity:1;fill:none;fill-opacity:1;fill-rule:nonzero;stroke:#000000;stroke-width:0.10000002;stroke-linecap:butt;stroke-linejoin:miter;stroke-miterlimit:4;stroke-dasharray:none;stroke-dashoffset:0;stroke-opacity:1;paint-order:normal"
       d="M 0.05000001,161.2516 V 170.23297 H 3.05032 V 182.20794 H 0.05000001 V 188.19518 H 3.05032 V 200.17119 L 0.05000001,200.17067 V 209.15152 H 277.95036 V 200.17119 H 274.95004 V 188.19518 L 277.95036,188.19569 V 182.20794 H 274.95004 V 170.23297 H 277.95036 V 161.2516 Z M 36.037988,183.70243 H 69.025127 V 186.70173 H 52.531557 36.037988 Z M 121.50718,183.70243 H 156.49419 V 186.70173 H 139.00069 121.50718 Z M 208.97523,183.70243 H 241.96341 V 186.70173 H 225.46932 208.97523 Z"
       id="rect1636-0"
       inkscape:connector-curvature="0" />
    <path
       style="opacity:1;fill:none;fill-opacity:1;fill-rule:nonzero;stroke:#000000;stroke-width:0.10000002;stroke-linecap:butt;stroke-linejoin:miter;stroke-miterlimit:4;stroke-dasharray:none;stroke-dashoffset:0;stroke-opacity:1;paint-order:normal"
       d="M 277.95036,226.05117 H 261.45669 244.96335 V 229.0508 H 228.46937 211.97534 V 226.05117 H 194.48195 176.98819 159.49434 V 229.0508 H 142.00069 124.50734 V 226.05117 H 107.01319 89.519433 72.025335 V 229.0508 H 55.531845 39.038336 L 39.038006,226.05117 H 22.544177 6.0503372 V 220.57625 L 3.0501772,220.57585 V 214.62684 L 6.0503372,214.62643 V 209.15152 H 277.95036 V 214.62684 H 280.95021 V 220.57585 H 277.95036 Z"
       id="rect1636-7-8"
       inkscape:connector-curvature="0"
       sodipodi:nodetypes="cccccccccccccccccccccccccccccccccc" />
    <path
       inkscape:connector-curvature="0"
       style="opacity:1;fill:none;fill-opacity:1;fill-rule:nonzero;stroke:#000000;stroke-width:0.10000002;stroke-linecap:butt;stroke-linejoin:miter;stroke-miterlimit:4;stroke-dasharray:none;stroke-dashoffset:0;stroke-opacity:1;paint-order:normal"
       d="M 277.95038,209.15099 C 290.07301,209.15099 294.89989,198.4279 294.89989,185.20068 294.89989,171.97346 290.07301,161.25113 277.95038,161.25108 V 170.23244 L 274.95002,170.23192 V 182.20794 H 277.95038 V 188.19466 H 274.95002 V 200.16963 H 277.95038 Z M 289.37464,186.70085 283.42498,186.7012 V 183.70138 L 289.37414,183.70103 Z"
       id="rect1636-7-3-5"
       sodipodi:nodetypes="csccccccccccccccc" />
    <path
       style="opacity:1;fill:none;fill-opacity:1;fill-rule:nonzero;stroke:#000000;stroke-width:0.10000002;stroke-linecap:butt;stroke-linejoin:miter;stroke-miterlimit:4;stroke-dasharray:none;stroke-dashoffset:0;stroke-opacity:1;paint-order:normal"
       d="M 0.05000001,93.4524 V 102.43377 H 3.05032 V 114.40874 H 0.05000001 V 120.39598 H 3.05032 V 132.37199 L 0.05000001,132.37147 V 141.35232 H 277.95036 V 132.37199 H 274.95004 V 120.39598 L 277.95036,120.39649 V 114.40874 H 274.95004 V 102.43377 H 277.95036 V 93.4524 Z M 36.037989,115.90323 H 69.025128 V 118.90253 H 52.531559 36.037989 Z M 121.50719,115.90323 H 156.4942 V 118.90253 H 139.0007 121.50719 Z M 208.97524,115.90323 H 241.96342 V 118.90253 H 225.46933 208.97524 Z"
       id="rect1636-0-3"
       inkscape:connector-curvature="0" />
    <path
       style="opacity:1;fill:none;fill-opacity:1;fill-rule:nonzero;stroke:#000000;stroke-width:0.10000002;stroke-linecap:butt;stroke-linejoin:miter;stroke-miterlimit:4;stroke-dasharray:none;stroke-dashoffset:0;stroke-opacity:1;paint-order:normal"
       d="M 277.95036,158.25197 H 261.4567 244.96336 V 161.2516 H 228.46938 211.97535 V 158.25197 H 194.48196 176.9882 159.49435 V 161.2516 H 142.0007 124.50735 V 158.25197 H 107.0132 89.51944 72.025336 V 161.2516 H 55.531846 39.038338 L 39.038007,158.25197 H 22.544178 6.0503368 V 152.77705 L 3.050177,152.77665 V 146.82764 L 6.0503368,146.82723 V 141.35232 H 277.95036 V 146.82764 H 280.95023 V 152.77665 H 277.95036 Z"
       id="rect1636-7-8-5"
       inkscape:connector-curvature="0"
       sodipodi:nodetypes="cccccccccccccccccccccccccccccccccc" />
    <path
       inkscape:connector-curvature="0"
       style="opacity:1;fill:none;fill-opacity:1;fill-rule:nonzero;stroke:#000000;stroke-width:0.10000002;stroke-linecap:butt;stroke-linejoin:miter;stroke-miterlimit:4;stroke-dasharray:none;stroke-dashoffset:0;stroke-opacity:1;paint-order:normal"
       d="M 277.95038,141.35179 C 290.07301,141.35179 294.89991,130.6287 294.89991,117.40148 294.89991,104.17426 290.07301,93.45193 277.95038,93.45188 V 102.43324 L 274.95004,102.43272 V 114.40874 H 277.95038 V 120.39546 H 274.95004 V 132.37043 H 277.95038 Z M 289.37464,118.90165 283.42498,118.902 V 115.90218 L 289.37414,115.90183 Z"
       id="rect1636-7-3-5-9"
       sodipodi:nodetypes="csccccccccccccccc" />
    <path
       style="opacity:1;fill:none;fill-opacity:1;fill-rule:nonzero;stroke:#000000;stroke-width:0.10000002;stroke-linecap:butt;stroke-linejoin:miter;stroke-miterlimit:4;stroke-dasharray:none;stroke-dashoffset:0;stroke-opacity:1;paint-order:normal"
       d="M 0.05000001,229.1508 V 238.13217 H 3.050321 V 250.10714 H 0.05000001 V 256.09438 H 3.050321 V 268.07039 L 0.05000001,268.06987 V 277.05072 H 277.95035 V 268.07039 H 274.95003 V 256.09438 L 277.95035,256.09489 V 250.10714 H 274.95003 V 238.13217 H 277.95035 V 229.1508 Z M 36.037988,251.60163 H 69.025127 V 254.60093 H 52.531558 36.037988 Z M 121.50718,251.60163 H 156.49419 V 254.60093 H 139.00069 121.50718 Z M 208.97523,251.60163 H 241.96341 V 254.60093 H 225.46932 208.97523 Z"
       id="rect1636-0-34"
       inkscape:connector-curvature="0" />
    <path
       style="opacity:1;fill:none;fill-opacity:1;fill-rule:nonzero;stroke:#000000;stroke-width:0.10000002;stroke-linecap:butt;stroke-linejoin:miter;stroke-miterlimit:4;stroke-dasharray:none;stroke-dashoffset:0;stroke-opacity:1;paint-order:normal"
       d="M 277.95035,293.95037 H 261.45669 244.96335 V 296.95 H 228.46937 211.97534 V 293.95037 H 194.48195 176.98819 159.49434 V 296.95 H 142.00069 124.50734 V 293.95037 H 107.01319 89.519435 72.025335 V 296.95 H 55.531845 39.038337 L 39.038006,293.95037 H 22.544177 6.050338 V 288.47545 L 3.050178,288.47505 V 282.52604 L 6.050338,282.52563 V 277.05072 H 277.95035 V 282.52604 H 280.95022 V 288.47505 H 277.95035 Z"
       id="rect1636-7-8-1"
       inkscape:connector-curvature="0"
       sodipodi:nodetypes="cccccccccccccccccccccccccccccccccc" />
    <path
       inkscape:connector-curvature="0"
       style="opacity:1;fill:none;fill-opacity:1;fill-rule:nonzero;stroke:#000000;stroke-width:0.10000002;stroke-linecap:butt;stroke-linejoin:miter;stroke-miterlimit:4;stroke-dasharray:none;stroke-dashoffset:0;stroke-opacity:1;paint-order:normal"
       d="M 277.95037,277.05019 C 290.073,277.05019 294.8999,266.3271 294.8999,253.09988 294.8999,239.87266 290.073,229.15033 277.95037,229.15028 V 238.13164 L 274.95003,238.13112 V 250.10714 H 277.95037 V 256.09386 H 274.95003 V 268.06883 H 277.95037 Z M 289.37463,254.60005 283.42497,254.6004 V 251.60058 L 289.37413,251.60023 Z"
       id="rect1636-7-3-5-5"
       sodipodi:nodetypes="csccccccccccccccc" />
    <path
       inkscape:connector-curvature="0"
       style="opacity:1;fill:none;fill-opacity:1;fill-rule:nonzero;stroke:#000000;stroke-width:0.10000002;stroke-linecap:butt;stroke-linejoin:miter;stroke-miterlimit:4;stroke-dasharray:none;stroke-dashoffset:0;stroke-opacity:1;paint-order:normal"
       d="M 302.82137,209.15099 C 314.944,209.15099 319.77088,198.4279 319.77088,185.20068 319.77088,171.97346 314.944,161.25113 302.82137,161.25108 V 170.23244 L 299.82101,170.23192 V 182.20794 H 302.82137 V 188.19466 H 299.82101 V 200.16963 H 302.82137 Z M 314.24563,186.70085 308.29597,186.7012 V 183.70138 L 314.24513,183.70103 Z"
       id="rect1636-7-3-5-3"
       sodipodi:nodetypes="csccccccccccccccc" />
    <path
       inkscape:connector-curvature="0"
       style="opacity:1;fill:none;fill-opacity:1;fill-rule:nonzero;stroke:#000000;stroke-width:0.10000002;stroke-linecap:butt;stroke-linejoin:miter;stroke-miterlimit:4;stroke-dasharray:none;stroke-dashoffset:0;stroke-opacity:1;paint-order:normal"
       d="M 302.82137,141.35179 C 314.944,141.35179 319.7709,130.6287 319.7709,117.40148 319.7709,104.17426 314.944,93.451931 302.82137,93.451881 V 102.43324 L 299.82103,102.43272 V 114.40874 H 302.82137 V 120.39546 H 299.82103 V 132.37043 H 302.82137 Z M 314.24563,118.90165 308.29597,118.902 V 115.90218 L 314.24513,115.90183 Z"
       id="rect1636-7-3-5-9-5"
       sodipodi:nodetypes="csccccccccccccccc" />
    <path
       inkscape:connector-curvature="0"
       style="opacity:1;fill:none;fill-opacity:1;fill-rule:nonzero;stroke:#000000;stroke-width:0.10000002;stroke-linecap:butt;stroke-linejoin:miter;stroke-miterlimit:4;stroke-dasharray:none;stroke-dashoffset:0;stroke-opacity:1;paint-order:normal"
       d="M 302.82136,277.05019 C 314.94399,277.05019 319.77089,266.3271 319.77089,253.09988 319.77089,239.87266 314.94399,229.15033 302.82136,229.15028 V 238.13164 L 299.82102,238.13112 V 250.10714 H 302.82136 V 256.09386 H 299.82102 V 268.06883 H 302.82136 Z M 314.24562,254.60005 308.29596,254.6004 V 251.60058 L 314.24512,251.60023 Z"
       id="rect1636-7-3-5-5-6"
       sodipodi:nodetypes="csccccccccccccccc" />
  </g>
</svg>
