<?xml version="1.0" encoding="UTF-8" standalone="no"?>
<!-- Created with Inkscape (http://www.inkscape.org/) -->

<svg
   width="215.02357mm"
   height="192.31934mm"
   viewBox="0 0 215.02357 192.31934"
   version="1.1"
   id="svg6544"
   inkscape:version="1.2.1 (9c6d41e410, 2022-07-14, custom)"
   sodipodi:docname="pentagonal_hexecontahedron.bottom.svg"
   xmlns:inkscape="http://www.inkscape.org/namespaces/inkscape"
   xmlns:sodipodi="http://sodipodi.sourceforge.net/DTD/sodipodi-0.dtd"
   xmlns="http://www.w3.org/2000/svg"
   xmlns:svg="http://www.w3.org/2000/svg"
   xmlns:rdf="http://www.w3.org/1999/02/22-rdf-syntax-ns#"
   xmlns:cc="http://creativecommons.org/ns#"
   xmlns:dc="http://purl.org/dc/elements/1.1/">
  <defs
     id="defs6538" />
  <sodipodi:namedview
     id="base"
     pagecolor="#ffffff"
     bordercolor="#666666"
     borderopacity="1.0"
     inkscape:pageopacity="0.0"
     inkscape:pageshadow="2"
     inkscape:zoom="2.9654017"
     inkscape:cx="831.59053"
     inkscape:cy="755.88409"
     inkscape:document-units="mm"
     inkscape:current-layer="layer1"
     showgrid="false"
     inkscape:window-width="1920"
     inkscape:window-height="1011"
     inkscape:window-x="0"
     inkscape:window-y="0"
     inkscape:window-maximized="1"
     inkscape:showpageshadow="2"
     inkscape:pagecheckerboard="0"
     inkscape:deskcolor="#d1d1d1" />
  <metadata
     id="metadata6541">
    <rdf:RDF>
      <cc:Work
         rdf:about="">
        <dc:format>image/svg+xml</dc:format>
        <dc:type
           rdf:resource="http://purl.org/dc/dcmitype/StillImage" />
        <dc:title />
      </cc:Work>
    </rdf:RDF>
  </metadata>
  <g
     inkscape:label="Calque 1"
     inkscape:groupmode="layer"
     id="layer1"
     transform="translate(-0.00824102,-104.68066)">
    <path
       style="opacity:1;fill:none;fill-opacity:1;fill-rule:nonzero;stroke:#ff0000;stroke-width:0.1;stroke-linecap:butt;stroke-linejoin:round;stroke-miterlimit:4;stroke-dasharray:none;stroke-dashoffset:0;stroke-opacity:1;paint-order:normal"
       d="M 38.410431,204.80936 0.103741,262.18415 18.697441,296.95 H 58.123451 L 76.715084,262.18415 Z M 34.718171,213.94058 37.129901,215.55082 35.519671,217.96308 33.107921,216.35284 Z M 42.102221,213.94058 43.712441,216.35284 41.300181,217.96308 39.689951,215.55082 Z M 45.647211,219.25137 63.508141,246.00375 59.742991,253.0302 39.797431,223.15914 Z M 31.172121,219.25189 37.023461,223.15811 17.077371,253.0302 13.312241,246.00375 Z M 38.410961,224.68256 58.671751,255.02852 54.230661,263.31587 63.785101,277.62455 H 46.560831 L 38.410431,292.83345 30.257981,277.62455 H 13.033191 L 22.588161,263.31381 18.148641,255.02852 Z M 12.053411,247.88943 20.260121,263.20064 10.630241,277.62455 7.264561,271.33191 12.957221,262.80376 8.121331,253.77951 Z M 64.767471,247.88993 68.724874,253.81775 63.888981,262.84304 69.556324,271.33141 66.190141,277.62508 56.558681,263.20269 Z M 5.781431,257.28368 8.193161,258.89391 6.583441,261.30566 4.171181,259.69541 Z M 71.038944,257.28368 72.648644,259.69541 70.236914,261.30566 68.626684,258.89391 Z M 70.353204,263.69105 72.910664,265.05892 71.543294,267.61586 68.985834,266.24851 Z M 6.489911,263.73394 7.857281,266.29088 5.299811,267.65876 3.932451,265.10129 Z M 11.699421,279.62443 H 29.062701 L 37.276141,294.94909 H 30.187671 L 25.346131,285.91552 H 15.064581 Z M 47.758191,279.62443 H 65.120961 L 61.755771,285.91552 H 51.521781 L 46.680211,294.94909 H 39.544751 Z M 19.609011,288.26422 20.976881,290.82169 18.419421,292.18904 17.052051,289.6321 Z M 57.210851,288.26422 59.768311,289.6321 58.400951,292.18904 55.843481,290.82169 Z M 23.025331,292.049 H 25.925431 V 294.94909 H 23.025331 Z M 50.894431,292.049 H 53.794521 V 294.94909 H 50.894431 Z"
       id="path1428"
       inkscape:connector-curvature="0" />
    <path
       style="opacity:1;fill:none;fill-opacity:1;fill-rule:nonzero;stroke:#ff0000;stroke-width:0.1;stroke-linecap:butt;stroke-linejoin:round;stroke-miterlimit:4;stroke-dasharray:none;stroke-dashoffset:0;stroke-opacity:1;paint-order:normal"
       d="M 114.97162,204.80884 76.664932,262.18363 95.258631,296.94948 H 134.68464 L 153.27628,262.18363 Z M 111.27936,213.94006 113.69109,215.5503 112.08086,217.96256 109.66911,216.35232 Z M 118.66341,213.94006 120.27363,216.35232 117.86137,217.96256 116.25114,215.5503 Z M 122.2084,219.25085 140.06933,246.00323 136.30418,253.02968 116.35862,223.15862 Z M 107.73331,219.25137 113.58465,223.15759 93.638561,253.02968 89.873431,246.00323 Z M 114.97215,224.68204 135.23294,255.028 130.79185,263.31535 140.34629,277.62403 H 123.12202 L 114.97162,292.83293 106.81917,277.62403 H 89.594381 L 99.14935,263.31329 94.709831,255.028 Z M 88.614601,247.88891 96.821311,263.20012 87.191431,277.62403 83.825752,271.33139 89.518411,262.80324 84.682522,253.77899 Z M 141.32866,247.88941 145.28607,253.81723 140.45017,262.84252 146.11752,271.33089 142.75133,277.62456 133.11987,263.20217 Z M 82.342622,257.28316 84.754352,258.89339 83.144632,261.30514 80.732372,259.69489 Z M 147.60014,257.28316 149.20984,259.69489 146.79811,261.30514 145.18788,258.89339 Z M 146.9144,263.69053 149.47186,265.0584 148.10449,267.61534 145.54702,266.24799 Z M 83.051102,263.73342 84.418472,266.29036 81.861002,267.65824 80.493641,265.10077 Z M 88.260611,279.62391 H 105.62389 L 113.83733,294.94857 H 106.74886 L 101.90732,285.915 H 91.625771 Z M 124.31938,279.62391 H 141.68215 L 138.31696,285.915 H 128.08297 L 123.2414,294.94857 H 116.10594 Z M 96.170201,288.2637 97.53807,290.82117 94.980611,292.18852 93.613241,289.63158 Z M 133.77204,288.2637 136.3295,289.63158 134.96214,292.18852 132.40467,290.82117 Z M 99.58652,292.04848 H 102.48662 V 294.94857 H 99.58652 Z M 127.45562,292.04848 H 130.35571 V 294.94857 H 127.45562 Z"
       id="path1428-5"
       inkscape:connector-curvature="0" />
    <path
       style="opacity:1;fill:none;fill-opacity:1;fill-rule:nonzero;stroke:#ff0000;stroke-width:0.1;stroke-linecap:butt;stroke-linejoin:round;stroke-miterlimit:4;stroke-dasharray:none;stroke-dashoffset:0;stroke-opacity:1;paint-order:normal"
       d="M 38.364932,196.87181 0.0582402,139.49702 18.65194,104.73117 H 58.077951 L 76.669584,139.49702 Z M 34.672671,187.74059 37.084401,186.13035 35.474171,183.71809 33.06242,185.32833 Z M 42.056721,187.74059 43.666941,185.32833 41.254682,183.71809 39.644452,186.13035 Z M 45.601712,182.4298 63.46264,155.67742 59.69749,148.65097 39.751931,178.52203 Z M 31.12662,182.42928 36.97796,178.52306 17.03187,148.65097 13.26674,155.67742 Z M 38.365461,176.99861 58.62625,146.65265 54.18516,138.3653 63.739601,124.05662 H 46.515331 L 38.364932,108.84772 30.212482,124.05662 H 12.98769 L 22.54266,138.36736 18.10314,146.65265 Z M 12.00791,153.79174 20.21462,138.48053 10.58474,124.05662 7.2190602,130.34926 12.91172,138.87741 8.0758302,147.90166 Z M 64.721972,153.79124 68.679374,147.86342 63.843481,138.83813 69.510825,130.34976 66.144642,124.05609 56.513182,138.47848 Z M 5.7359302,144.39749 8.1476602,142.78726 6.5379402,140.37551 4.1256802,141.98576 Z M 70.993444,144.39749 72.603145,141.98576 70.191415,140.37551 68.581185,142.78726 Z M 70.307705,137.99012 72.865164,136.62225 71.497795,134.06531 68.940333,135.43266 Z M 6.4444102,137.94723 7.8117802,135.39029 5.2543102,134.02241 3.8869502,136.57988 Z M 11.65392,122.05674 H 29.0172 L 37.230642,106.73208 H 30.142171 L 25.30063,115.76565 H 15.01908 Z M 47.71269,122.05674 H 65.075461 L 61.71027,115.76565 H 51.47628 L 46.634711,106.73208 H 39.499251 Z M 19.56351,113.41695 20.93138,110.85948 18.37392,109.49213 17.00655,112.04907 Z M 57.16535,113.41695 59.72281,112.04907 58.355451,109.49213 55.797981,110.85948 Z M 22.97983,109.63217 H 25.87993 V 106.73208 H 22.97983 Z M 50.848931,109.63217 H 53.749021 V 106.73208 H 50.848931 Z"
       id="path1428-59"
       inkscape:connector-curvature="0" />
    <path
       style="opacity:1;fill:none;fill-opacity:1;fill-rule:nonzero;stroke:#ff0000;stroke-width:0.1;stroke-linecap:butt;stroke-linejoin:round;stroke-miterlimit:4;stroke-dasharray:none;stroke-dashoffset:0;stroke-opacity:1;paint-order:normal"
       d="M 114.97368,196.87131 76.666992,139.49651 95.260692,104.73066 H 134.6867 L 153.27834,139.49651 Z M 111.28142,187.74009 113.69315,186.12985 112.08292,183.71759 109.67117,185.32783 Z M 118.66547,187.74009 120.27569,185.32783 117.86343,183.71759 116.2532,186.12985 Z M 122.21046,182.4293 140.07139,155.67691 136.30624,148.65047 116.36068,178.52153 Z M 107.73537,182.42878 113.58671,178.52256 93.640622,148.65047 89.875492,155.67691 Z M 114.97421,176.99811 135.235,146.65214 130.79391,138.36479 140.34835,124.05611 H 123.12408 L 114.97368,108.84721 106.82123,124.05611 H 89.596442 L 99.151412,138.36685 94.711892,146.65214 Z M 88.616662,153.79123 96.823372,138.48002 87.193492,124.05611 83.827813,130.34875 89.520472,138.8769 84.684583,147.90115 Z M 141.33072,153.79073 145.28813,147.86291 140.45223,138.83762 146.11958,130.34925 142.75339,124.05558 133.12193,138.47797 Z M 82.344683,144.39698 84.756413,142.78675 83.146693,140.375 80.734433,141.98525 Z M 147.6022,144.39698 149.2119,141.98525 146.80017,140.375 145.18994,142.78675 Z M 146.91646,137.98961 149.47392,136.62174 148.10655,134.0648 145.54909,135.43215 Z M 83.053163,137.94672 84.420533,135.38978 81.863063,134.0219 80.495702,136.57937 Z M 88.262672,122.05623 H 105.62595 L 113.83939,106.73157 H 106.75092 L 101.90938,115.76514 H 91.627832 Z M 124.32144,122.05623 H 141.68421 L 138.31902,115.76514 H 128.08503 L 123.24346,106.73157 H 116.108 Z M 96.172262,113.41644 97.540132,110.85897 94.982672,109.49162 93.615302,112.04856 Z M 133.7741,113.41644 136.33156,112.04856 134.9642,109.49162 132.40673,110.85897 Z M 99.588582,109.63166 H 102.48868 V 106.73157 H 99.588582 Z M 127.45768,109.63166 H 130.35777 V 106.73157 H 127.45768 Z"
       id="path1428-59-1"
       inkscape:connector-curvature="0" />
    <path
       style="opacity:1;fill:none;fill-opacity:1;fill-rule:nonzero;stroke:#ff0000;stroke-width:0.1;stroke-linecap:butt;stroke-linejoin:round;stroke-miterlimit:4;stroke-dasharray:none;stroke-dashoffset:0;stroke-opacity:1;paint-order:normal"
       d="M 38.363389,204.80939 56.957089,170.04354 H 96.383096 L 114.97474,204.80939 M 72.97782,253.05297 75.38955,251.44273 73.77932,249.03047 71.367569,250.64071 Z M 80.36187,253.05297 81.97209,250.64071 79.559831,249.03047 77.949601,251.44273 Z M 83.906861,247.74218 101.76779,220.98979 98.002636,213.96335 78.05708,243.83441 Z M 69.431769,247.74166 75.283109,243.83544 55.337019,213.96335 51.571889,220.98979 Z M 76.67061,242.31099 96.931396,211.96502 92.490306,203.67767 102.04475,189.36899 H 84.82048 L 76.670081,174.16009 68.517631,189.36899 H 51.292839 L 60.847809,203.67973 56.408289,211.96502 Z M 50.313059,219.10411 58.519769,203.7929 48.889889,189.36899 45.524209,195.66163 51.216869,204.18978 46.38098,213.21403 Z M 103.02713,219.10361 106.98453,213.17579 102.14863,204.1505 107.81598,195.66213 104.4498,189.36846 94.818336,203.79085 Z M 44.041079,209.70986 46.452809,208.09963 44.843089,205.68788 42.430829,207.29813 Z M 109.2986,209.70986 110.9083,207.29813 108.49657,205.68788 106.88634,208.09963 Z M 108.61286,203.30249 111.17032,201.93462 109.80295,199.37768 107.24549,200.74503 Z M 44.749559,203.2596 46.11693,200.70266 43.559459,199.33478 42.192099,201.89225 Z M 49.959069,187.36911 H 67.322349 L 75.535791,172.04445 H 68.44732 L 63.605779,181.07802 H 53.324229 Z M 86.017839,187.36911 H 103.38061 L 100.01542,181.07802 H 89.781426 L 84.93986,172.04445 H 77.8044 Z M 57.868659,178.72932 59.236529,176.17185 56.679069,174.8045 55.311699,177.36144 Z M 95.470496,178.72932 98.027956,177.36144 96.660596,174.8045 94.103126,176.17185 Z M 61.284979,174.94454 H 64.185079 V 172.04445 H 61.284979 Z M 89.154076,174.94454 H 92.054166 V 172.04445 H 89.154076 Z"
       id="path1428-59-11"
       inkscape:connector-curvature="0"
       sodipodi:nodetypes="ccccccccccccccccccccccccccccccccccccccccccccccccccccccccccccccccccccccccccccccccccccccccccccccccccccccc" />
    <path
       sodipodi:nodetypes="ccccccccccccccc"
       inkscape:connector-curvature="0"
       id="path10091-6"
       d="M 196.3819,259.40795 197.27371,259.86038 195.96146,262.44658 198.54775,263.75868 199.85985,261.1724 201.68988,262.10083 H 203.74192 V 265.0009 H 206.64201 V 262.10083 H 209.69402 V 258.20081 H 202.6226 L 198.14642,255.92992 Z"
       style="opacity:1;fill:none;fill-opacity:1;fill-rule:nonzero;stroke:#fe0000;stroke-width:0.1;stroke-linecap:butt;stroke-linejoin:round;stroke-miterlimit:4;stroke-dasharray:none;stroke-dashoffset:0;stroke-opacity:1;paint-order:normal" />
    <path
       sodipodi:nodetypes="cccccccccccccc"
       inkscape:connector-curvature="0"
       id="path10089-4-1"
       d="M 198.14642,252.0299 202.6226,254.30079 204.38711,250.82276 203.49529,250.37033 204.80754,247.78413 202.22127,246.47203 200.90917,249.05831 199.07914,248.12988 H 197.02708 V 245.22981 H 194.12701 V 248.12988 H 191.075 V 252.0299"
       style="opacity:1;fill:none;fill-opacity:1;fill-rule:nonzero;stroke:#fe0000;stroke-width:0.1;stroke-linecap:butt;stroke-linejoin:round;stroke-miterlimit:4;stroke-dasharray:none;stroke-dashoffset:0;stroke-opacity:1;paint-order:normal" />
    <path
       sodipodi:nodetypes="ccccccccccccccc"
       inkscape:connector-curvature="0"
       id="path10091-0-9"
       d="M 184.83431,253.23704 185.72612,253.68947 184.41387,256.27567 187.00016,257.58777 188.31225,255.00149 190.14228,255.92992 H 192.19433 V 258.82999 H 195.09441 V 255.92992 H 198.14642 V 252.0299 H 191.075 L 186.59882,249.75901 Z"
       style="opacity:1;fill:none;fill-opacity:1;fill-rule:nonzero;stroke:#fe0000;stroke-width:0.1;stroke-linecap:butt;stroke-linejoin:round;stroke-miterlimit:4;stroke-dasharray:none;stroke-dashoffset:0;stroke-opacity:1;paint-order:normal" />
    <path
       sodipodi:nodetypes="cccccccccccccc"
       inkscape:connector-curvature="0"
       id="path10089-28"
       d="M 197.17443,290.14991 201.65062,292.4208 203.41512,288.94277 202.52331,288.49034 203.83556,285.90414 M 201.24928,284.59204 199.93718,287.17832 198.10715,286.24989 H 196.0551 V 283.34982 H 193.15502 V 286.24989 H 190.10301 V 290.14991"
       style="opacity:1;fill:none;fill-opacity:1;fill-rule:nonzero;stroke:#fe0000;stroke-width:0.1;stroke-linecap:butt;stroke-linejoin:round;stroke-miterlimit:4;stroke-dasharray:none;stroke-dashoffset:0;stroke-opacity:1;paint-order:normal" />
    <path
       sodipodi:nodetypes="ccccccccccccccc"
       inkscape:connector-curvature="0"
       id="path10091-67"
       d="M 183.86232,291.35705 184.75413,291.80948 183.44188,294.39568 186.02817,295.70778 187.34026,293.1215 189.17029,294.04993 H 191.22234 V 296.95 H 194.12242 V 294.04993 H 197.17443 V 290.14991 H 190.10301 L 185.62683,287.87902 Z"
       style="opacity:1;fill:none;fill-opacity:1;fill-rule:nonzero;stroke:#fe0000;stroke-width:0.1;stroke-linecap:butt;stroke-linejoin:round;stroke-miterlimit:4;stroke-dasharray:none;stroke-dashoffset:0;stroke-opacity:1;paint-order:normal" />
    <path
       sodipodi:nodetypes="cccccccccccccc"
       inkscape:connector-curvature="0"
       id="path10089-4-3"
       d="M 185.62683,283.979 190.10302,286.24989 191.86752,282.77186 190.97571,282.31943 192.28796,279.73323 M 189.70168,278.42113 188.38958,281.00741 186.55955,280.07898 H 184.5075 V 277.17891 H 181.60742 V 280.07898 H 178.55541 V 283.979"
       style="opacity:1;fill:none;fill-opacity:1;fill-rule:nonzero;stroke:#fe0000;stroke-width:0.1;stroke-linecap:butt;stroke-linejoin:round;stroke-miterlimit:4;stroke-dasharray:none;stroke-dashoffset:0;stroke-opacity:1;paint-order:normal" />
    <path
       sodipodi:nodetypes="ccccccccccccccc"
       inkscape:connector-curvature="0"
       id="path10091-0-5"
       d="M 172.31472,285.18614 173.20653,285.63857 171.89428,288.22477 174.48057,289.53687 175.79266,286.95059 177.62269,287.87902 H 179.67474 V 290.77909 H 182.57482 V 287.87902 H 185.62683 V 283.979 H 178.55541 L 174.07923,281.70811 Z"
       style="opacity:1;fill:none;fill-opacity:1;fill-rule:nonzero;stroke:#fe0000;stroke-width:0.1;stroke-linecap:butt;stroke-linejoin:round;stroke-miterlimit:4;stroke-dasharray:none;stroke-dashoffset:0;stroke-opacity:1;paint-order:normal" />
    <path
       sodipodi:nodetypes="ccccccccccccccc"
       inkscape:connector-curvature="0"
       id="path10091-7-5"
       d="M 201.66971,281.55341 202.56152,282.00584 201.24927,284.59204 203.83556,285.90414 205.14765,283.31786 206.97768,284.24629 H 209.02973 V 287.14636 H 211.92981 V 284.24629 H 214.98182 V 280.34627 H 207.9104 L 203.43422,278.07538 Z"
       style="opacity:1;fill:none;fill-opacity:1;fill-rule:nonzero;stroke:#fe0000;stroke-width:0.1;stroke-linecap:butt;stroke-linejoin:round;stroke-miterlimit:4;stroke-dasharray:none;stroke-dashoffset:0;stroke-opacity:1;paint-order:normal" />
    <path
       sodipodi:nodetypes="cccccccccccccc"
       inkscape:connector-curvature="0"
       id="path10089-4-2-95"
       d="M 203.43422,274.17536 207.91041,276.44625 209.67491,272.96822 208.7831,272.51579 210.09535,269.92959 207.50907,268.61749 206.19697,271.20377 204.36694,270.27534 H 202.31489 V 267.37527 H 199.41481 V 270.27534 H 196.3628 V 274.17536"
       style="opacity:1;fill:none;fill-opacity:1;fill-rule:nonzero;stroke:#fe0000;stroke-width:0.1;stroke-linecap:butt;stroke-linejoin:round;stroke-miterlimit:4;stroke-dasharray:none;stroke-dashoffset:0;stroke-opacity:1;paint-order:normal" />
    <path
       sodipodi:nodetypes="ccccccccccccccc"
       inkscape:connector-curvature="0"
       id="path10091-0-0-9"
       d="M 190.12211,275.3825 191.01392,275.83493 189.70167,278.42113 192.28796,279.73323 193.60005,277.14695 195.43008,278.07538 H 197.48213 V 280.97545 H 200.38221 V 278.07538 H 203.43422 V 274.17536 H 196.3628 L 191.88662,271.90447 Z"
       style="opacity:1;fill:none;fill-opacity:1;fill-rule:nonzero;stroke:#fe0000;stroke-width:0.1;stroke-linecap:butt;stroke-linejoin:round;stroke-miterlimit:4;stroke-dasharray:none;stroke-dashoffset:0;stroke-opacity:1;paint-order:normal" />
    <path
       sodipodi:nodetypes="cccccccccccccc"
       inkscape:connector-curvature="0"
       id="path10089-1-7"
       d="M 174.07923,277.80809 178.55542,280.07898 180.31991,276.60095 179.4281,276.14852 180.74036,273.56232 M 178.15407,272.25022 176.84197,274.8365 175.01195,273.90807 H 172.9599 V 271.008 H 170.05982 V 273.90807 H 167.00781 V 277.80809"
       style="opacity:1;fill:none;fill-opacity:1;fill-rule:nonzero;stroke:#fe0000;stroke-width:0.1;stroke-linecap:butt;stroke-linejoin:round;stroke-miterlimit:4;stroke-dasharray:none;stroke-dashoffset:0;stroke-opacity:1;paint-order:normal" />
    <path
       sodipodi:nodetypes="ccccccccccccccc"
       inkscape:connector-curvature="0"
       id="path10091-6-9"
       d="M 160.76711,279.01523 161.65892,279.46766 160.34667,282.05386 162.93296,283.36596 164.24506,280.77968 166.07509,281.70811 H 168.12713 V 284.60818 H 171.02722 V 281.70811 H 174.07923 V 277.80809 H 167.00781 L 162.53163,275.5372 Z"
       style="opacity:1;fill:none;fill-opacity:1;fill-rule:nonzero;stroke:#fe0000;stroke-width:0.1;stroke-linecap:butt;stroke-linejoin:round;stroke-miterlimit:4;stroke-dasharray:none;stroke-dashoffset:0;stroke-opacity:1;paint-order:normal" />
    <path
       sodipodi:nodetypes="cccccccccccccc"
       inkscape:connector-curvature="0"
       id="path10089-4-1-9"
       d="M 162.53163,271.63718 167.00781,273.90807 168.77232,270.43004 167.8805,269.97761 169.19275,267.39141 M 166.60648,266.07931 165.29438,268.66559 163.46435,267.73716 H 161.41229 V 264.83709 H 158.51222 V 267.73716 H 155.46021 V 271.63718"
       style="opacity:1;fill:none;fill-opacity:1;fill-rule:nonzero;stroke:#fe0000;stroke-width:0.1;stroke-linecap:butt;stroke-linejoin:round;stroke-miterlimit:4;stroke-dasharray:none;stroke-dashoffset:0;stroke-opacity:1;paint-order:normal" />
    <path
       sodipodi:nodetypes="ccccccccccccccc"
       inkscape:connector-curvature="0"
       id="path10091-0-9-0"
       d="M 149.21952,272.84432 150.11133,273.29675 148.79908,275.88295 151.38537,277.19505 152.69746,274.60877 154.52749,275.5372 H 156.57954 V 278.43727 H 159.47962 V 275.5372 H 162.53163 V 271.63718 H 155.46021 L 150.98403,269.36629 Z"
       style="opacity:1;fill:none;fill-opacity:1;fill-rule:nonzero;stroke:#fe0000;stroke-width:0.1;stroke-linecap:butt;stroke-linejoin:round;stroke-miterlimit:4;stroke-dasharray:none;stroke-dashoffset:0;stroke-opacity:1;paint-order:normal" />
    <path
       sodipodi:nodetypes="cccccccccccccc"
       inkscape:connector-curvature="0"
       id="path10089-2-4-5"
       d="M 191.88662,268.00445 196.36281,270.27534 198.12731,266.79731 197.2355,266.34488 198.54775,263.75868 M 195.96146,262.44658 194.64937,265.03286 192.81934,264.10443 H 190.76729 V 261.20436 H 187.86721 V 264.10443 H 184.8152 V 268.00445"
       style="opacity:1;fill:none;fill-opacity:1;fill-rule:nonzero;stroke:#fe0000;stroke-width:0.1;stroke-linecap:butt;stroke-linejoin:round;stroke-miterlimit:4;stroke-dasharray:none;stroke-dashoffset:0;stroke-opacity:1;paint-order:normal" />
    <path
       sodipodi:nodetypes="ccccccccccccccc"
       inkscape:connector-curvature="0"
       id="path10091-7-9-2"
       d="M 178.57451,269.21159 179.46632,269.66402 178.15406,272.25022 180.74036,273.56232 182.05245,270.97604 183.88248,271.90447 H 185.93453 V 274.80454 H 188.83461 V 271.90447 H 191.88662 V 268.00445 H 184.8152 L 180.33901,265.73356 Z"
       style="opacity:1;fill:none;fill-opacity:1;fill-rule:nonzero;stroke:#fe0000;stroke-width:0.1;stroke-linecap:butt;stroke-linejoin:round;stroke-miterlimit:4;stroke-dasharray:none;stroke-dashoffset:0;stroke-opacity:1;paint-order:normal" />
    <path
       sodipodi:nodetypes="cccccccccccccc"
       inkscape:connector-curvature="0"
       id="path10089-4-2-9-1"
       d="M 180.33901,261.83354 184.81521,264.10443 186.5797,260.6264 185.68789,260.17397 187.00015,257.58777 M 184.41386,256.27567 183.10176,258.86195 181.27173,257.93352 H 179.21969 V 255.03345 H 176.3196 V 257.93352 H 173.2676 V 261.83354"
       style="opacity:1;fill:none;fill-opacity:1;fill-rule:nonzero;stroke:#fe0000;stroke-width:0.1;stroke-linecap:butt;stroke-linejoin:round;stroke-miterlimit:4;stroke-dasharray:none;stroke-dashoffset:0;stroke-opacity:1;paint-order:normal" />
    <path
       sodipodi:nodetypes="ccccccccccccccc"
       inkscape:connector-curvature="0"
       id="path10091-0-0-6-0"
       d="M 167.0269,263.04068 167.91872,263.49311 166.60647,266.07931 169.19275,267.39141 170.50485,264.80513 172.33488,265.73356 H 174.38693 V 268.63363 H 177.28701 V 265.73356 H 180.33901 V 261.83354 H 173.2676 L 168.79142,259.56265 Z"
       style="opacity:1;fill:none;fill-opacity:1;fill-rule:nonzero;stroke:#fe0000;stroke-width:0.1;stroke-linecap:butt;stroke-linejoin:round;stroke-miterlimit:4;stroke-dasharray:none;stroke-dashoffset:0;stroke-opacity:1;paint-order:normal" />
    <path
       sodipodi:nodetypes="cccccccccccccc"
       inkscape:connector-curvature="0"
       id="path10089-20"
       d="M 204.40621,236.05535 208.8824,238.32624 210.6469,234.84821 209.75509,234.39578 211.06734,231.80958 208.48106,230.49748 207.16896,233.08376 205.33892,232.15533 H 203.28687 V 229.25526 H 200.3868 V 232.15533 H 197.33479 V 236.05535"
       style="opacity:1;fill:none;fill-opacity:1;fill-rule:nonzero;stroke:#fe0000;stroke-width:0.1;stroke-linecap:butt;stroke-linejoin:round;stroke-miterlimit:4;stroke-dasharray:none;stroke-dashoffset:0;stroke-opacity:1;paint-order:normal" />
    <path
       sodipodi:nodetypes="ccccccccccccccc"
       inkscape:connector-curvature="0"
       id="path10091-63"
       d="M 191.0941,237.26249 191.98591,237.71492 190.67366,240.30112 193.25994,241.61322 194.57204,239.02694 196.40206,239.95537 H 198.45411 V 242.85544 H 201.3542 V 239.95537 H 204.40621 V 236.05535 H 197.33479 L 192.85861,233.78446 Z"
       style="opacity:1;fill:none;fill-opacity:1;fill-rule:nonzero;stroke:#fe0000;stroke-width:0.1;stroke-linecap:butt;stroke-linejoin:round;stroke-miterlimit:4;stroke-dasharray:none;stroke-dashoffset:0;stroke-opacity:1;paint-order:normal" />
    <path
       sodipodi:nodetypes="cccccccccccccc"
       inkscape:connector-curvature="0"
       id="path10089-4-6"
       d="M 192.85861,229.88444 197.33479,232.15533 199.0993,228.6773 198.20749,228.22487 199.51973,225.63867 M 196.93346,224.32657 195.62136,226.91285 193.79133,225.98442 H 191.73928 V 223.08435 H 188.8392 V 225.98442 H 185.78718 V 229.88444"
       style="opacity:1;fill:none;fill-opacity:1;fill-rule:nonzero;stroke:#fe0000;stroke-width:0.1;stroke-linecap:butt;stroke-linejoin:round;stroke-miterlimit:4;stroke-dasharray:none;stroke-dashoffset:0;stroke-opacity:1;paint-order:normal" />
    <path
       sodipodi:nodetypes="ccccccccccccccc"
       inkscape:connector-curvature="0"
       id="path10091-0-94"
       d="M 179.54649,231.09158 180.4383,231.54401 179.12606,234.13021 181.71234,235.44231 183.02443,232.85603 184.85447,233.78446 H 186.90652 V 236.68453 H 189.80659 V 233.78446 H 192.85861 V 229.88444 H 185.78718 L 181.31101,227.61355 Z"
       style="opacity:1;fill:none;fill-opacity:1;fill-rule:nonzero;stroke:#fe0000;stroke-width:0.1;stroke-linecap:butt;stroke-linejoin:round;stroke-miterlimit:4;stroke-dasharray:none;stroke-dashoffset:0;stroke-opacity:1;paint-order:normal" />
    <path
       sodipodi:nodetypes="ccccccccccccccc"
       inkscape:connector-curvature="0"
       id="path10091-0-0-8"
       d="M 197.35388,221.28794 198.24569,221.74037 196.93345,224.32657 199.51973,225.63867 200.83182,223.05239 202.66185,223.98082 H 204.7139 V 226.88089 H 207.61399 V 223.98082 H 210.666 V 220.0808 H 203.59457 L 199.1184,217.80991 Z"
       style="opacity:1;fill:none;fill-opacity:1;fill-rule:nonzero;stroke:#fe0000;stroke-width:0.1;stroke-linecap:butt;stroke-linejoin:round;stroke-miterlimit:4;stroke-dasharray:none;stroke-dashoffset:0;stroke-opacity:1;paint-order:normal" />
    <path
       sodipodi:nodetypes="cccccccccccccc"
       inkscape:connector-curvature="0"
       id="path10089-1-4"
       d="M 181.31101,223.71353 185.7872,225.98442 187.55169,222.50639 186.65988,222.05396 187.97214,219.46776 M 185.38585,218.15566 184.07375,220.74194 182.24373,219.81351 H 180.19168 V 216.91344 H 177.2916 V 219.81351 H 174.23959 V 223.71353"
       style="opacity:1;fill:none;fill-opacity:1;fill-rule:nonzero;stroke:#fe0000;stroke-width:0.1;stroke-linecap:butt;stroke-linejoin:round;stroke-miterlimit:4;stroke-dasharray:none;stroke-dashoffset:0;stroke-opacity:1;paint-order:normal" />
    <path
       sodipodi:nodetypes="ccccccccccccccc"
       inkscape:connector-curvature="0"
       id="path10091-6-4"
       d="M 167.99888,224.92067 168.89069,225.3731 167.57845,227.9593 170.16474,229.2714 171.47684,226.68512 173.30687,227.61355 H 175.35891 V 230.51362 H 178.259 V 227.61355 H 181.31101 V 223.71353 H 174.23959 L 169.7634,221.44264 Z"
       style="opacity:1;fill:none;fill-opacity:1;fill-rule:nonzero;stroke:#fe0000;stroke-width:0.1;stroke-linecap:butt;stroke-linejoin:round;stroke-miterlimit:4;stroke-dasharray:none;stroke-dashoffset:0;stroke-opacity:1;paint-order:normal" />
    <path
       sodipodi:nodetypes="cccccccccccccc"
       inkscape:connector-curvature="0"
       id="path10089-4-1-8"
       d="M 169.7634,217.54262 174.23959,219.81351 176.00409,216.33548 175.11228,215.88305 176.42453,213.29685 M 173.83825,211.98475 172.52615,214.57103 170.69612,213.6426 H 168.64407 V 210.74253 H 165.74399 V 213.6426 H 162.69199 V 217.54262"
       style="opacity:1;fill:none;fill-opacity:1;fill-rule:nonzero;stroke:#fe0000;stroke-width:0.1;stroke-linecap:butt;stroke-linejoin:round;stroke-miterlimit:4;stroke-dasharray:none;stroke-dashoffset:0;stroke-opacity:1;paint-order:normal" />
    <path
       sodipodi:nodetypes="ccccccccccccccc"
       inkscape:connector-curvature="0"
       id="path10091-0-9-2"
       d="M 156.4513,218.74976 157.34311,219.20219 156.03085,221.78839 158.61715,223.10049 159.92924,220.51421 161.75927,221.44264 H 163.81131 V 224.34271 H 166.7114 V 221.44264 H 169.7634 V 217.54262 H 162.69199 L 158.21581,215.27173 Z"
       style="opacity:1;fill:none;fill-opacity:1;fill-rule:nonzero;stroke:#fe0000;stroke-width:0.1;stroke-linecap:butt;stroke-linejoin:round;stroke-miterlimit:4;stroke-dasharray:none;stroke-dashoffset:0;stroke-opacity:1;paint-order:normal" />
    <path
       sodipodi:nodetypes="cccccccccccccc"
       inkscape:connector-curvature="0"
       id="path10089-2-4-4"
       d="M 199.1184,213.90989 203.59459,216.18078 205.35909,212.70275 204.46728,212.25032 205.77952,209.66412 203.19324,208.35202 201.88115,210.9383 200.05112,210.00987 H 197.99907 V 207.1098 H 195.09899 V 210.00987 H 192.04698 V 213.90989"
       style="opacity:1;fill:none;fill-opacity:1;fill-rule:nonzero;stroke:#fe0000;stroke-width:0.1;stroke-linecap:butt;stroke-linejoin:round;stroke-miterlimit:4;stroke-dasharray:none;stroke-dashoffset:0;stroke-opacity:1;paint-order:normal" />
    <path
       sodipodi:nodetypes="ccccccccccccccc"
       inkscape:connector-curvature="0"
       id="path10091-7-9-27"
       d="M 185.80629,215.11703 186.6981,215.56946 185.38584,218.15566 187.97214,219.46776 189.28423,216.88148 191.11426,217.80991 H 193.16631 V 220.70998 H 196.06639 V 217.80991 H 199.1184 V 213.90989 H 192.04698 L 187.57079,211.639 Z"
       style="opacity:1;fill:none;fill-opacity:1;fill-rule:nonzero;stroke:#fe0000;stroke-width:0.1;stroke-linecap:butt;stroke-linejoin:round;stroke-miterlimit:4;stroke-dasharray:none;stroke-dashoffset:0;stroke-opacity:1;paint-order:normal" />
    <path
       sodipodi:nodetypes="cccccccccccccc"
       inkscape:connector-curvature="0"
       id="path10089-4-2-9-7"
       d="M 187.57079,207.73898 192.04699,210.00987 193.81148,206.53184 192.91967,206.07941 194.23193,203.49321 M 191.64564,202.18111 190.33354,204.76739 188.50351,203.83896 H 186.45147 V 200.93889 H 183.55138 V 203.83896 H 180.49938 V 207.73898"
       style="opacity:1;fill:none;fill-opacity:1;fill-rule:nonzero;stroke:#fe0000;stroke-width:0.1;stroke-linecap:butt;stroke-linejoin:round;stroke-miterlimit:4;stroke-dasharray:none;stroke-dashoffset:0;stroke-opacity:1;paint-order:normal" />
    <path
       sodipodi:nodetypes="ccccccccccccccc"
       inkscape:connector-curvature="0"
       id="path10091-0-0-6-9"
       d="M 174.25868,208.94612 175.1505,209.39855 173.83824,211.98475 176.42453,213.29685 177.73663,210.71057 179.56666,211.639 H 181.61871 V 214.53907 H 184.51879 V 211.639 H 187.57079 V 207.73898 H 180.49938 L 176.02319,205.46809 Z"
       style="opacity:1;fill:none;fill-opacity:1;fill-rule:nonzero;stroke:#fe0000;stroke-width:0.1;stroke-linecap:butt;stroke-linejoin:round;stroke-miterlimit:4;stroke-dasharray:none;stroke-dashoffset:0;stroke-opacity:1;paint-order:normal" />
    <path
       sodipodi:nodetypes="cccccccccccccc"
       inkscape:connector-curvature="0"
       id="path10089-28-9"
       d="M 168.79142,255.66263 173.2676,257.93352 175.03211,254.45549 174.1403,254.00306 175.45255,251.41686 M 172.86627,250.10476 171.55417,252.69104 169.72413,251.76261 H 167.67208 V 248.86254 H 164.77201 V 251.76261 H 161.71999 V 255.66263"
       style="opacity:1;fill:none;fill-opacity:1;fill-rule:nonzero;stroke:#fe0000;stroke-width:0.1;stroke-linecap:butt;stroke-linejoin:round;stroke-miterlimit:4;stroke-dasharray:none;stroke-dashoffset:0;stroke-opacity:1;paint-order:normal" />
    <path
       sodipodi:nodetypes="ccccccccccccccc"
       inkscape:connector-curvature="0"
       id="path10091-67-3"
       d="M 155.4793,256.86977 156.37111,257.3222 155.05887,259.9084 157.64515,261.2205 158.95724,258.63422 160.78727,259.56265 H 162.83932 V 262.46272 H 165.7394 V 259.56265 H 168.79142 V 255.66263 H 161.71999 L 157.24382,253.39174 Z"
       style="opacity:1;fill:none;fill-opacity:1;fill-rule:nonzero;stroke:#fe0000;stroke-width:0.1;stroke-linecap:butt;stroke-linejoin:round;stroke-miterlimit:4;stroke-dasharray:none;stroke-dashoffset:0;stroke-opacity:1;paint-order:normal" />
    <path
       sodipodi:nodetypes="cccccccccccccc"
       inkscape:connector-curvature="0"
       id="path10089-4-3-9"
       d="M 161.31867,243.93385 160.00657,246.52013 158.17654,245.5917 H 156.12449 V 242.69163 H 153.22441 V 245.5917 H 150.1724 V 249.49172 H 157.24382 L 161.72,251.76261 163.48451,248.28458 162.5927,247.83215 163.90494,245.24595"
       style="opacity:1;fill:none;fill-opacity:1;fill-rule:nonzero;stroke:#fe0000;stroke-width:0.1;stroke-linecap:butt;stroke-linejoin:round;stroke-miterlimit:4;stroke-dasharray:none;stroke-dashoffset:0;stroke-opacity:1;paint-order:normal" />
    <path
       sodipodi:nodetypes="cccccccccccccc"
       inkscape:connector-curvature="0"
       id="path10089-2-3-4"
       d="M 186.5988,245.85899 191.075,248.12988 192.83949,244.65185 191.94769,244.19942 193.25994,241.61322 M 190.67366,240.30112 189.36155,242.8874 187.53152,241.95897 H 185.47947 V 239.0589 H 182.5794 V 241.95897 H 179.52739 V 245.85899"
       style="opacity:1;fill:none;fill-opacity:1;fill-rule:nonzero;stroke:#fe0000;stroke-width:0.1;stroke-linecap:butt;stroke-linejoin:round;stroke-miterlimit:4;stroke-dasharray:none;stroke-dashoffset:0;stroke-opacity:1;paint-order:normal" />
    <path
       sodipodi:nodetypes="ccccccccccccccc"
       inkscape:connector-curvature="0"
       id="path10091-7-5-0"
       d="M 173.2867,247.06613 174.17851,247.51856 172.86626,250.10476 175.45255,251.41686 176.76464,248.83058 178.59466,249.75901 H 180.64671 V 252.65908 H 183.5468 V 249.75901 H 186.5988 V 245.85899 H 179.52739 L 175.05121,243.5881 Z"
       style="opacity:1;fill:none;fill-opacity:1;fill-rule:nonzero;stroke:#fe0000;stroke-width:0.1;stroke-linecap:butt;stroke-linejoin:round;stroke-miterlimit:4;stroke-dasharray:none;stroke-dashoffset:0;stroke-opacity:1;paint-order:normal" />
    <path
       sodipodi:nodetypes="cccccccccccccc"
       inkscape:connector-curvature="0"
       id="path10089-4-2-95-8"
       d="M 175.05121,239.68808 179.52739,241.95897 181.2919,238.48094 180.40009,238.02851 181.71233,235.44231 M 179.12606,234.13021 177.81396,236.71649 175.98393,235.78806 H 173.93188 V 232.88799 H 171.0318 V 235.78806 H 167.97978 V 239.68808"
       style="opacity:1;fill:none;fill-opacity:1;fill-rule:nonzero;stroke:#fe0000;stroke-width:0.1;stroke-linecap:butt;stroke-linejoin:round;stroke-miterlimit:4;stroke-dasharray:none;stroke-dashoffset:0;stroke-opacity:1;paint-order:normal" />
    <path
       sodipodi:nodetypes="ccccccccccccccc"
       inkscape:connector-curvature="0"
       id="path10091-0-0-9-0"
       d="M 161.73909,240.89522 162.6309,241.34765 161.31866,243.93385 163.90494,245.24595 165.21703,242.65967 167.04706,243.5881 H 169.09912 V 246.48817 H 171.99919 V 243.5881 H 175.05121 V 239.68808 H 167.97978 L 163.50361,237.41719 Z"
       style="opacity:1;fill:none;fill-opacity:1;fill-rule:nonzero;stroke:#fe0000;stroke-width:0.1;stroke-linecap:butt;stroke-linejoin:round;stroke-miterlimit:4;stroke-dasharray:none;stroke-dashoffset:0;stroke-opacity:1;paint-order:normal" />
    <path
       sodipodi:nodetypes="cccccccccccccc"
       inkscape:connector-curvature="0"
       id="path10089-2-4-5-1"
       d="M 163.50361,233.51717 167.9798,235.78806 169.7443,232.31003 168.85249,231.8576 170.16474,229.2714 M 167.57845,227.9593 166.26636,230.54558 164.43633,229.61715 H 162.38428 V 226.71708 H 159.4842 V 229.61715 H 156.43219 V 233.51717"
       style="opacity:1;fill:none;fill-opacity:1;fill-rule:nonzero;stroke:#fe0000;stroke-width:0.1;stroke-linecap:butt;stroke-linejoin:round;stroke-miterlimit:4;stroke-dasharray:none;stroke-dashoffset:0;stroke-opacity:1;paint-order:normal" />
    <path
       sodipodi:nodetypes="ccccccccccccccc"
       inkscape:connector-curvature="0"
       id="path10091-7-9-2-8"
       d="M 150.1915,234.72431 151.08331,235.17674 149.77105,237.76294 152.35735,239.07504 153.66944,236.48876 155.49947,237.41719 H 157.55152 V 240.31726 H 160.4516 V 237.41719 H 163.50361 V 233.51717 H 156.43219 L 151.956,231.24628 Z"
       style="opacity:1;fill:none;fill-opacity:1;fill-rule:nonzero;stroke:#fe0000;stroke-width:0.1;stroke-linecap:butt;stroke-linejoin:round;stroke-miterlimit:4;stroke-dasharray:none;stroke-dashoffset:0;stroke-opacity:1;paint-order:normal" />
    <path
       sodipodi:nodetypes="cccccccccccccc"
       inkscape:connector-curvature="0"
       id="path10089-4-2-9-1-2"
       d="M 151.956,227.34626 156.4322,229.61715 158.19669,226.13912 157.30488,225.68669 158.61714,223.10049 M 156.03084,221.78839 154.71875,224.37467 152.88872,223.44624 H 150.83668 V 220.54617 H 147.93658 V 223.44624 H 144.88459 V 227.34626"
       style="opacity:1;fill:none;fill-opacity:1;fill-rule:nonzero;stroke:#fe0000;stroke-width:0.1;stroke-linecap:butt;stroke-linejoin:round;stroke-miterlimit:4;stroke-dasharray:none;stroke-dashoffset:0;stroke-opacity:1;paint-order:normal" />
    <path
       sodipodi:nodetypes="ccccccccccccccc"
       inkscape:connector-curvature="0"
       id="path10091-0-0-6-0-8"
       d="M 138.64389,228.5534 139.53571,229.00583 138.22346,231.59203 140.80974,232.90413 142.12184,230.31785 143.95187,231.24628 H 146.00392 V 234.14635 H 148.904 V 231.24628 H 151.956 V 227.34626 H 144.88459 L 140.40841,225.07537 Z"
       style="opacity:1;fill:none;fill-opacity:1;fill-rule:nonzero;stroke:#fe0000;stroke-width:0.1;stroke-linecap:butt;stroke-linejoin:round;stroke-miterlimit:4;stroke-dasharray:none;stroke-dashoffset:0;stroke-opacity:1;paint-order:normal" />
    <path
       sodipodi:nodetypes="cccccccccccccc"
       inkscape:connector-curvature="0"
       id="path10089-7"
       d="M 176.02319,201.56807 180.49938,203.83896 182.26388,200.36093 181.37207,199.9085 182.68432,197.3223 M 180.09804,196.0102 178.78594,198.59648 176.95591,197.66805 H 174.90386 V 194.76798 H 172.00378 V 197.66805 H 168.95177 V 201.56807"
       style="opacity:1;fill:none;fill-opacity:1;fill-rule:nonzero;stroke:#fe0000;stroke-width:0.1;stroke-linecap:butt;stroke-linejoin:round;stroke-miterlimit:4;stroke-dasharray:none;stroke-dashoffset:0;stroke-opacity:1;paint-order:normal" />
    <path
       sodipodi:nodetypes="ccccccccccccccc"
       inkscape:connector-curvature="0"
       id="path10091-68"
       d="M 162.71108,202.77521 163.60289,203.22764 162.29064,205.81384 164.87693,207.12594 166.18902,204.53966 168.01905,205.46809 H 170.0711 V 208.36816 H 172.97118 V 205.46809 H 176.02319 V 201.56807 H 168.95177 L 164.47559,199.29718 Z"
       style="opacity:1;fill:none;fill-opacity:1;fill-rule:nonzero;stroke:#fe0000;stroke-width:0.1;stroke-linecap:butt;stroke-linejoin:round;stroke-miterlimit:4;stroke-dasharray:none;stroke-dashoffset:0;stroke-opacity:1;paint-order:normal" />
    <path
       sodipodi:nodetypes="cccccccccccccc"
       inkscape:connector-curvature="0"
       id="path10089-4-4"
       d="M 164.47559,195.39716 168.95178,197.66805 170.71628,194.19002 169.82447,193.73759 171.13672,191.15139 M 168.55044,189.83929 167.23834,192.42557 165.40831,191.49714 H 163.35626 V 188.59707 H 160.45618 V 191.49714 H 157.40417 V 195.39716"
       style="opacity:1;fill:none;fill-opacity:1;fill-rule:nonzero;stroke:#fe0000;stroke-width:0.1;stroke-linecap:butt;stroke-linejoin:round;stroke-miterlimit:4;stroke-dasharray:none;stroke-dashoffset:0;stroke-opacity:1;paint-order:normal" />
    <path
       sodipodi:nodetypes="ccccccccccccccc"
       inkscape:connector-curvature="0"
       id="path10091-0-8"
       d="M 151.16348,196.6043 152.05529,197.05673 150.74304,199.64293 153.32933,200.95503 154.64142,198.36875 156.47145,199.29718 H 158.5235 V 202.19725 H 161.42358 V 199.29718 H 164.47559 V 195.39716 H 157.40417 L 152.92799,193.12627 Z"
       style="opacity:1;fill:none;fill-opacity:1;fill-rule:nonzero;stroke:#fe0000;stroke-width:0.1;stroke-linecap:butt;stroke-linejoin:round;stroke-miterlimit:4;stroke-dasharray:none;stroke-dashoffset:0;stroke-opacity:1;paint-order:normal" />
    <path
       sodipodi:nodetypes="cccccccccccccc"
       inkscape:connector-curvature="0"
       id="path10089-2-9"
       d="M 193.83058,191.76443 198.30677,194.03532 200.07127,190.55729 199.17946,190.10486 200.49171,187.51866 M 197.90543,186.20656 196.59333,188.79284 194.7633,187.86441 H 192.71125 V 184.96434 H 189.81117 V 187.86441 H 186.75916 V 191.76443"
       style="opacity:1;fill:none;fill-opacity:1;fill-rule:nonzero;stroke:#fe0000;stroke-width:0.1;stroke-linecap:butt;stroke-linejoin:round;stroke-miterlimit:4;stroke-dasharray:none;stroke-dashoffset:0;stroke-opacity:1;paint-order:normal" />
    <path
       sodipodi:nodetypes="ccccccccccccccc"
       inkscape:connector-curvature="0"
       id="path10091-7-8"
       d="M 180.51847,192.97157 181.41028,193.424 180.09803,196.0102 182.68432,197.3223 183.99641,194.73602 185.82644,195.66445 H 187.87849 V 198.56452 H 190.77857 V 195.66445 H 193.83058 V 191.76443 H 186.75916 L 182.28298,189.49354 Z"
       style="opacity:1;fill:none;fill-opacity:1;fill-rule:nonzero;stroke:#fe0000;stroke-width:0.1;stroke-linecap:butt;stroke-linejoin:round;stroke-miterlimit:4;stroke-dasharray:none;stroke-dashoffset:0;stroke-opacity:1;paint-order:normal" />
    <path
       sodipodi:nodetypes="cccccccccccccc"
       inkscape:connector-curvature="0"
       id="path10089-4-2-3"
       d="M 182.28298,185.59352 186.75917,187.86441 188.52367,184.38638 187.63186,183.93395 188.94411,181.34775 M 186.35783,180.03565 185.04573,182.62193 183.2157,181.6935 H 181.16365 V 178.79343 H 178.26357 V 181.6935 H 175.21156 V 185.59352"
       style="opacity:1;fill:none;fill-opacity:1;fill-rule:nonzero;stroke:#fe0000;stroke-width:0.1;stroke-linecap:butt;stroke-linejoin:round;stroke-miterlimit:4;stroke-dasharray:none;stroke-dashoffset:0;stroke-opacity:1;paint-order:normal" />
    <path
       sodipodi:nodetypes="ccccccccccccccc"
       inkscape:connector-curvature="0"
       id="path10091-0-0-7"
       d="M 168.97087,186.80066 169.86268,187.25309 168.55043,189.83929 171.13672,191.15139 172.44881,188.56511 174.27884,189.49354 H 176.33089 V 192.39361 H 179.23097 V 189.49354 H 182.28298 V 185.59352 H 175.21156 L 170.73538,183.32263 Z"
       style="opacity:1;fill:none;fill-opacity:1;fill-rule:nonzero;stroke:#fe0000;stroke-width:0.1;stroke-linecap:butt;stroke-linejoin:round;stroke-miterlimit:4;stroke-dasharray:none;stroke-dashoffset:0;stroke-opacity:1;paint-order:normal" />
    <path
       sodipodi:nodetypes="cccccccccccccc"
       inkscape:connector-curvature="0"
       id="path10089-1-0"
       d="M 152.92799,189.22625 157.40418,191.49714 159.16867,188.01911 158.27686,187.56668 159.58912,184.98048 M 157.00283,183.66838 155.69073,186.25466 153.86071,185.32623 H 151.80866 V 182.42616 H 148.90858 V 185.32623 H 145.85657 V 189.22625"
       style="opacity:1;fill:none;fill-opacity:1;fill-rule:nonzero;stroke:#fe0000;stroke-width:0.1;stroke-linecap:butt;stroke-linejoin:round;stroke-miterlimit:4;stroke-dasharray:none;stroke-dashoffset:0;stroke-opacity:1;paint-order:normal" />
    <path
       sodipodi:nodetypes="ccccccccccccccc"
       inkscape:connector-curvature="0"
       id="path10091-6-7"
       d="M 139.61587,190.43339 140.50768,190.88582 139.19543,193.47202 141.78172,194.78412 143.09382,192.19784 144.92385,193.12627 H 146.97589 V 196.02634 H 149.87598 V 193.12627 H 152.92799 V 189.22625 H 145.85657 L 141.38039,186.95536 Z"
       style="opacity:1;fill:none;fill-opacity:1;fill-rule:nonzero;stroke:#fe0000;stroke-width:0.1;stroke-linecap:butt;stroke-linejoin:round;stroke-miterlimit:4;stroke-dasharray:none;stroke-dashoffset:0;stroke-opacity:1;paint-order:normal" />
    <path
       sodipodi:nodetypes="cccccccccccccc"
       inkscape:connector-curvature="0"
       id="path10089-4-1-1"
       d="M 141.38039,183.05534 145.85657,185.32623 147.62108,181.8482 146.72926,181.39577 148.04151,178.80957 M 145.45524,177.49747 144.14314,180.08375 142.31311,179.15532 H 140.26105 V 176.25525 H 137.36098 V 179.15532 H 134.30897 V 183.05534"
       style="opacity:1;fill:none;fill-opacity:1;fill-rule:nonzero;stroke:#fe0000;stroke-width:0.1;stroke-linecap:butt;stroke-linejoin:round;stroke-miterlimit:4;stroke-dasharray:none;stroke-dashoffset:0;stroke-opacity:1;paint-order:normal" />
    <path
       sodipodi:nodetypes="ccccccccccccccc"
       inkscape:connector-curvature="0"
       id="path10091-0-9-9"
       d="M 128.06828,184.26248 128.96009,184.71491 127.64784,187.30111 130.23413,188.61321 131.54622,186.02693 133.37625,186.95536 H 135.4283 V 189.85543 H 138.32838 V 186.95536 H 141.38039 V 183.05534 H 134.30897 L 129.83279,180.78445 Z"
       style="opacity:1;fill:none;fill-opacity:1;fill-rule:nonzero;stroke:#fe0000;stroke-width:0.1;stroke-linecap:butt;stroke-linejoin:round;stroke-miterlimit:4;stroke-dasharray:none;stroke-dashoffset:0;stroke-opacity:1;paint-order:normal" />
    <path
       sodipodi:nodetypes="cccccccccccccc"
       inkscape:connector-curvature="0"
       id="path10089-2-4-6"
       d="M 170.73538,179.42261 175.21157,181.6935 176.97607,178.21547 176.08426,177.76304 177.39651,175.17684 M 174.81022,173.86474 173.49813,176.45102 171.6681,175.52259 H 169.61605 V 172.62252 H 166.71597 V 175.52259 H 163.66396 V 179.42261"
       style="opacity:1;fill:none;fill-opacity:1;fill-rule:nonzero;stroke:#fe0000;stroke-width:0.1;stroke-linecap:butt;stroke-linejoin:round;stroke-miterlimit:4;stroke-dasharray:none;stroke-dashoffset:0;stroke-opacity:1;paint-order:normal" />
    <path
       sodipodi:nodetypes="ccccccccccccccc"
       inkscape:connector-curvature="0"
       id="path10091-7-9-3"
       d="M 157.42327,180.62975 158.31508,181.08218 157.00282,183.66838 159.58912,184.98048 160.90121,182.3942 162.73124,183.32263 H 164.78329 V 186.2227 H 167.68337 V 183.32263 H 170.73538 V 179.42261 H 163.66396 L 159.18777,177.15172 Z"
       style="opacity:1;fill:none;fill-opacity:1;fill-rule:nonzero;stroke:#fe0000;stroke-width:0.1;stroke-linecap:butt;stroke-linejoin:round;stroke-miterlimit:4;stroke-dasharray:none;stroke-dashoffset:0;stroke-opacity:1;paint-order:normal" />
    <path
       sodipodi:nodetypes="cccccccccccccc"
       inkscape:connector-curvature="0"
       id="path10089-4-2-9-0"
       d="M 159.18777,173.2517 163.66397,175.52259 165.42846,172.04456 164.53665,171.59213 165.84891,169.00593 M 163.26262,167.69383 161.95052,170.28011 160.12049,169.35168 H 158.06845 V 166.45161 H 155.16836 V 169.35168 H 152.11636 V 173.2517"
       style="opacity:1;fill:none;fill-opacity:1;fill-rule:nonzero;stroke:#fe0000;stroke-width:0.1;stroke-linecap:butt;stroke-linejoin:round;stroke-miterlimit:4;stroke-dasharray:none;stroke-dashoffset:0;stroke-opacity:1;paint-order:normal" />
    <path
       sodipodi:nodetypes="ccccccccccccccc"
       inkscape:connector-curvature="0"
       id="path10091-0-0-6-1"
       d="M 145.87566,174.45884 146.76748,174.91127 145.45523,177.49747 148.04151,178.80957 149.35361,176.22329 151.18364,177.15172 H 153.23569 V 180.05179 H 156.13577 V 177.15172 H 159.18777 V 173.2517 H 152.11636 L 147.64018,170.98081 Z"
       style="opacity:1;fill:none;fill-opacity:1;fill-rule:nonzero;stroke:#fe0000;stroke-width:0.1;stroke-linecap:butt;stroke-linejoin:round;stroke-miterlimit:4;stroke-dasharray:none;stroke-dashoffset:0;stroke-opacity:1;paint-order:normal" />
    <path
       sodipodi:nodetypes="cccccccccccccc"
       inkscape:connector-curvature="0"
       id="path10089-28-4"
       d="M 144.48325,215.61748 143.17115,218.20376 141.34112,217.27533 H 139.28907 V 214.37526 H 136.38899 V 217.27533 H 133.33698 V 221.17535 H 140.4084 L 144.88459,223.44624 146.64909,219.96821 145.75728,219.51578 147.06953,216.92958"
       style="opacity:1;fill:none;fill-opacity:1;fill-rule:nonzero;stroke:#fe0000;stroke-width:0.1;stroke-linecap:butt;stroke-linejoin:round;stroke-miterlimit:4;stroke-dasharray:none;stroke-dashoffset:0;stroke-opacity:1;paint-order:normal" />
    <path
       sodipodi:nodetypes="cccccccccccccc"
       inkscape:connector-curvature="0"
       id="path10089-2-3-6"
       d="M 158.21579,211.37171 162.69198,213.6426 164.45648,210.16457 163.56467,209.71214 164.87692,207.12594 M 162.29064,205.81384 160.97854,208.40012 159.14851,207.47169 H 157.09646 V 204.57162 H 154.19638 V 207.47169 H 151.14437 V 211.37171"
       style="opacity:1;fill:none;fill-opacity:1;fill-rule:nonzero;stroke:#fe0000;stroke-width:0.1;stroke-linecap:butt;stroke-linejoin:round;stroke-miterlimit:4;stroke-dasharray:none;stroke-dashoffset:0;stroke-opacity:1;paint-order:normal" />
    <path
       sodipodi:nodetypes="ccccccccccccccc"
       inkscape:connector-curvature="0"
       id="path10091-7-5-6"
       d="M 144.90368,212.57885 145.79549,213.03128 144.48324,215.61748 147.06953,216.92958 148.38162,214.3433 150.21165,215.27173 H 152.2637 V 218.1718 H 155.16378 V 215.27173 H 158.21579 V 211.37171 H 151.14437 L 146.66819,209.10082 Z"
       style="opacity:1;fill:none;fill-opacity:1;fill-rule:nonzero;stroke:#fe0000;stroke-width:0.1;stroke-linecap:butt;stroke-linejoin:round;stroke-miterlimit:4;stroke-dasharray:none;stroke-dashoffset:0;stroke-opacity:1;paint-order:normal" />
    <path
       sodipodi:nodetypes="cccccccccccccc"
       inkscape:connector-curvature="0"
       id="path10089-4-2-95-1"
       d="M 146.66819,205.2008 151.14438,207.47169 152.90888,203.99366 152.01707,203.54123 153.32932,200.95503 M 150.74304,199.64293 149.43094,202.22921 147.60091,201.30078 H 145.54886 V 198.40071 H 142.64878 V 201.30078 H 139.59677 V 205.2008"
       style="opacity:1;fill:none;fill-opacity:1;fill-rule:nonzero;stroke:#fe0000;stroke-width:0.1;stroke-linecap:butt;stroke-linejoin:round;stroke-miterlimit:4;stroke-dasharray:none;stroke-dashoffset:0;stroke-opacity:1;paint-order:normal" />
    <path
       sodipodi:nodetypes="ccccccccccccccc"
       inkscape:connector-curvature="0"
       id="path10091-0-0-9-7"
       d="M 133.35608,206.40794 134.24789,206.86037 132.93564,209.44657 135.52193,210.75867 136.83402,208.17239 138.66405,209.10082 H 140.7161 V 212.00089 H 143.61618 V 209.10082 H 146.66819 V 205.2008 H 139.59677 L 135.12059,202.92991 Z"
       style="opacity:1;fill:none;fill-opacity:1;fill-rule:nonzero;stroke:#fe0000;stroke-width:0.1;stroke-linecap:butt;stroke-linejoin:round;stroke-miterlimit:4;stroke-dasharray:none;stroke-dashoffset:0;stroke-opacity:1;paint-order:normal" />
    <path
       sodipodi:nodetypes="cccccccccccccc"
       inkscape:connector-curvature="0"
       id="path10089-2-4-5-5"
       d="M 135.12059,199.02989 139.59678,201.30078 141.36128,197.82275 140.46947,197.37032 141.78172,194.78412 M 139.19543,193.47202 137.88334,196.0583 136.05331,195.12987 H 134.00126 V 192.2298 H 131.10118 V 195.12987 H 128.04917 V 199.02989"
       style="opacity:1;fill:none;fill-opacity:1;fill-rule:nonzero;stroke:#fe0000;stroke-width:0.1;stroke-linecap:butt;stroke-linejoin:round;stroke-miterlimit:4;stroke-dasharray:none;stroke-dashoffset:0;stroke-opacity:1;paint-order:normal" />
    <path
       sodipodi:nodetypes="ccccccccccccccc"
       inkscape:connector-curvature="0"
       id="path10091-7-9-2-9"
       d="M 121.80848,200.23703 122.70029,200.68946 121.38803,203.27566 123.97433,204.58776 125.28642,202.00148 127.11645,202.92991 H 129.1685 V 205.82998 H 132.06858 V 202.92991 H 135.12059 V 199.02989 H 128.04917 L 123.57298,196.759 Z"
       style="opacity:1;fill:none;fill-opacity:1;fill-rule:nonzero;stroke:#fe0000;stroke-width:0.1;stroke-linecap:butt;stroke-linejoin:round;stroke-miterlimit:4;stroke-dasharray:none;stroke-dashoffset:0;stroke-opacity:1;paint-order:normal" />
    <path
       sodipodi:nodetypes="cccccccccccccc"
       inkscape:connector-curvature="0"
       id="path10089-4-2-0-6"
       d="M 205.37819,197.93534 209.85437,200.20623 211.61888,196.7282 210.72707,196.27577 212.03932,193.68957 209.45304,192.37747 208.14094,194.96375 206.31091,194.03532 H 204.25886 V 191.13525 H 201.35878 V 194.03532 H 198.30676 V 197.93534"
       style="opacity:1;fill:none;fill-opacity:1;fill-rule:nonzero;stroke:#fe0000;stroke-width:0.1;stroke-linecap:butt;stroke-linejoin:round;stroke-miterlimit:4;stroke-dasharray:none;stroke-dashoffset:0;stroke-opacity:1;paint-order:normal" />
    <path
       sodipodi:nodetypes="ccccccccccccccc"
       inkscape:connector-curvature="0"
       id="path10091-0-0-8-4"
       d="M 192.06607,199.14248 192.95788,199.59491 191.64564,202.18111 194.23192,203.49321 195.54401,200.90693 197.37404,201.83536 H 199.42609 V 204.73543 H 202.32618 V 201.83536 H 205.37819 V 197.93534 H 198.30676 L 193.83059,195.66445 Z"
       style="opacity:1;fill:none;fill-opacity:1;fill-rule:nonzero;stroke:#fe0000;stroke-width:0.1;stroke-linecap:butt;stroke-linejoin:round;stroke-miterlimit:4;stroke-dasharray:none;stroke-dashoffset:0;stroke-opacity:1;paint-order:normal" />
    <path
       sodipodi:nodetypes="cccccccccccccc"
       inkscape:connector-curvature="0"
       id="path10089-2-8-8"
       d="M 165.44756,157.27715 169.92375,159.54804 171.68825,156.07001 170.79644,155.61758 172.10869,153.03138 M 169.52241,151.71928 168.21031,154.30556 166.38028,153.37713 H 164.32823 V 150.47706 H 161.42815 V 153.37713 H 158.37614 V 157.27715"
       style="opacity:1;fill:none;fill-opacity:1;fill-rule:nonzero;stroke:#fe0000;stroke-width:0.1;stroke-linecap:butt;stroke-linejoin:round;stroke-miterlimit:4;stroke-dasharray:none;stroke-dashoffset:0;stroke-opacity:1;paint-order:normal" />
    <path
       sodipodi:nodetypes="ccccccccccccccc"
       inkscape:connector-curvature="0"
       id="path10091-7-4-3"
       d="M 152.13545,158.48429 153.02726,158.93672 151.71501,161.52292 154.3013,162.83502 155.61339,160.24874 157.44342,161.17717 H 159.49547 V 164.07724 H 162.39555 V 161.17717 H 165.44756 V 157.27715 H 158.37614 L 153.89996,155.00626 Z"
       style="opacity:1;fill:none;fill-opacity:1;fill-rule:nonzero;stroke:#fe0000;stroke-width:0.1;stroke-linecap:butt;stroke-linejoin:round;stroke-miterlimit:4;stroke-dasharray:none;stroke-dashoffset:0;stroke-opacity:1;paint-order:normal" />
    <path
       sodipodi:nodetypes="cccccccccccccc"
       inkscape:connector-curvature="0"
       id="path10089-2-8-6-6"
       d="M 176.99517,163.44806 181.47136,165.71895 183.23586,162.24092 182.34405,161.78849 183.6563,159.20229 M 181.07002,157.89019 179.75792,160.47647 177.92789,159.54804 H 175.87584 V 156.64797 H 172.97576 V 159.54804 H 169.92375 V 163.44806"
       style="opacity:1;fill:none;fill-opacity:1;fill-rule:nonzero;stroke:#fe0000;stroke-width:0.1;stroke-linecap:butt;stroke-linejoin:round;stroke-miterlimit:4;stroke-dasharray:none;stroke-dashoffset:0;stroke-opacity:1;paint-order:normal" />
    <path
       sodipodi:nodetypes="ccccccccccccccc"
       inkscape:connector-curvature="0"
       id="path10091-7-4-4-6"
       d="M 163.68306,164.6552 164.57487,165.10763 163.26262,167.69383 165.84891,169.00593 167.161,166.41965 168.99103,167.34808 H 171.04308 V 170.24815 H 173.94316 V 167.34808 H 176.99517 V 163.44806 H 169.92375 L 165.44757,161.17717 Z"
       style="opacity:1;fill:none;fill-opacity:1;fill-rule:nonzero;stroke:#fe0000;stroke-width:0.1;stroke-linecap:butt;stroke-linejoin:round;stroke-miterlimit:4;stroke-dasharray:none;stroke-dashoffset:0;stroke-opacity:1;paint-order:normal" />
    <path
       sodipodi:nodetypes="cccccccccccccc"
       inkscape:connector-curvature="0"
       id="path10089-2-8-5-9"
       d="M 188.54278,169.61897 193.01897,171.88986 194.78347,168.41183 193.89166,167.9594 195.20391,165.3732 M 192.61763,164.0611 191.30553,166.64738 189.4755,165.71895 H 187.42345 V 162.81888 H 184.52337 V 165.71895 H 181.47136 V 169.61897"
       style="opacity:1;fill:none;fill-opacity:1;fill-rule:nonzero;stroke:#fe0000;stroke-width:0.1;stroke-linecap:butt;stroke-linejoin:round;stroke-miterlimit:4;stroke-dasharray:none;stroke-dashoffset:0;stroke-opacity:1;paint-order:normal" />
    <path
       sodipodi:nodetypes="ccccccccccccccc"
       inkscape:connector-curvature="0"
       id="path10091-7-4-5-71"
       d="M 175.23067,170.82611 176.12248,171.27854 174.81023,173.86474 177.39652,175.17684 178.70861,172.59056 180.53864,173.51899 H 182.59069 V 176.41906 H 185.49077 V 173.51899 H 188.54278 V 169.61897 H 181.47136 L 176.99518,167.34808 Z"
       style="opacity:1;fill:none;fill-opacity:1;fill-rule:nonzero;stroke:#fe0000;stroke-width:0.1;stroke-linecap:butt;stroke-linejoin:round;stroke-miterlimit:4;stroke-dasharray:none;stroke-dashoffset:0;stroke-opacity:1;paint-order:normal" />
    <path
       sodipodi:nodetypes="cccccccccccccc"
       inkscape:connector-curvature="0"
       id="path10089-2-8-4-9"
       d="M 200.09039,175.78988 204.56658,178.06077 206.33108,174.58274 205.43927,174.13031 206.75152,171.54411 204.16524,170.23201 202.85314,172.81829 201.02311,171.88986 H 198.97106 V 168.98979 H 196.07098 V 171.88986 H 193.01897 V 175.78988"
       style="opacity:1;fill:none;fill-opacity:1;fill-rule:nonzero;stroke:#fe0000;stroke-width:0.1;stroke-linecap:butt;stroke-linejoin:round;stroke-miterlimit:4;stroke-dasharray:none;stroke-dashoffset:0;stroke-opacity:1;paint-order:normal" />
    <path
       sodipodi:nodetypes="ccccccccccccccc"
       inkscape:connector-curvature="0"
       id="path10091-7-4-7-3"
       d="M 186.77828,176.99702 187.67009,177.44945 186.35784,180.03565 188.94413,181.34775 190.25622,178.76147 192.08625,179.6899 H 194.1383 V 182.58997 H 197.03838 V 179.6899 H 200.09039 V 175.78988 H 193.01897 L 188.54279,173.51899 Z"
       style="opacity:1;fill:none;fill-opacity:1;fill-rule:nonzero;stroke:#fe0000;stroke-width:0.1;stroke-linecap:butt;stroke-linejoin:round;stroke-miterlimit:4;stroke-dasharray:none;stroke-dashoffset:0;stroke-opacity:1;paint-order:normal" />
    <path
       sodipodi:nodetypes="ccccccccccccccc"
       inkscape:connector-curvature="0"
       id="path10091-0-0-8-3"
       d="M 198.32586,183.16793 199.21767,183.62036 197.90543,186.20656 200.49171,187.51866 201.8038,184.93238 203.63383,185.86081 H 205.68588 V 188.76088 H 208.58597 V 185.86081 H 211.63798 V 181.96079 H 204.56655 L 200.09038,179.6899 Z"
       style="opacity:1;fill:none;fill-opacity:1;fill-rule:nonzero;stroke:#fe0000;stroke-width:0.1;stroke-linecap:butt;stroke-linejoin:round;stroke-miterlimit:4;stroke-dasharray:none;stroke-dashoffset:0;stroke-opacity:1;paint-order:normal" />
    <path
       sodipodi:nodetypes="cccccccccccccc"
       inkscape:connector-curvature="0"
       id="path10089-2-8-73"
       d="M 171.70736,141.3026 176.18355,143.57349 177.94805,140.09546 177.05624,139.64303 178.36849,137.05683 M 175.78221,135.74473 174.47011,138.33101 172.64008,137.40258 H 170.58803 V 134.50251 H 167.68795 V 137.40258 H 164.63594 V 141.3026"
       style="opacity:1;fill:none;fill-opacity:1;fill-rule:nonzero;stroke:#fe0000;stroke-width:0.1;stroke-linecap:butt;stroke-linejoin:round;stroke-miterlimit:4;stroke-dasharray:none;stroke-dashoffset:0;stroke-opacity:1;paint-order:normal" />
    <path
       sodipodi:nodetypes="ccccccccccccccc"
       inkscape:connector-curvature="0"
       id="path10091-7-4-71"
       d="M 158.39525,142.50974 159.28706,142.96217 157.97481,145.54837 160.5611,146.86047 161.87319,144.27419 163.70322,145.20262 H 165.75527 V 148.10269 H 168.65535 V 145.20262 H 171.70736 V 141.3026 H 164.63594 L 160.15976,139.03171 Z"
       style="opacity:1;fill:none;fill-opacity:1;fill-rule:nonzero;stroke:#fe0000;stroke-width:0.1;stroke-linecap:butt;stroke-linejoin:round;stroke-miterlimit:4;stroke-dasharray:none;stroke-dashoffset:0;stroke-opacity:1;paint-order:normal" />
    <path
       sodipodi:nodetypes="cccccccccccccc"
       inkscape:connector-curvature="0"
       id="path10089-4-2-0-8"
       d="M 164.23461,129.57382 162.92251,132.1601 161.09248,131.23167 H 159.04043 V 128.3316 H 156.14035 V 131.23167 H 153.08833 V 135.13169 H 160.15976 L 164.63594,137.40258 166.40045,133.92455 165.50864,133.47212 166.82089,130.88592"
       style="opacity:1;fill:none;fill-opacity:1;fill-rule:nonzero;stroke:#fe0000;stroke-width:0.1;stroke-linecap:butt;stroke-linejoin:round;stroke-miterlimit:4;stroke-dasharray:none;stroke-dashoffset:0;stroke-opacity:1;paint-order:normal" />
    <path
       sodipodi:nodetypes="cccccccccccccc"
       inkscape:connector-curvature="0"
       id="path10089-2-8-6-68"
       d="M 183.25497,147.47351 187.73116,149.7444 189.49566,146.26637 188.60385,145.81394 189.9161,143.22774 M 187.32982,141.91564 186.01772,144.50192 184.18769,143.57349 H 182.13564 V 140.67342 H 179.23556 V 143.57349 H 176.18355 V 147.47351"
       style="opacity:1;fill:none;fill-opacity:1;fill-rule:nonzero;stroke:#fe0000;stroke-width:0.1;stroke-linecap:butt;stroke-linejoin:round;stroke-miterlimit:4;stroke-dasharray:none;stroke-dashoffset:0;stroke-opacity:1;paint-order:normal" />
    <path
       sodipodi:nodetypes="ccccccccccccccc"
       inkscape:connector-curvature="0"
       id="path10091-7-4-4-9"
       d="M 169.94286,148.68065 170.83467,149.13308 169.52242,151.71928 172.10871,153.03138 173.4208,150.4451 175.25083,151.37353 H 177.30288 V 154.2736 H 180.20296 V 151.37353 H 183.25497 V 147.47351 H 176.18355 L 171.70737,145.20262 Z"
       style="opacity:1;fill:none;fill-opacity:1;fill-rule:nonzero;stroke:#fe0000;stroke-width:0.1;stroke-linecap:butt;stroke-linejoin:round;stroke-miterlimit:4;stroke-dasharray:none;stroke-dashoffset:0;stroke-opacity:1;paint-order:normal" />
    <path
       sodipodi:nodetypes="cccccccccccccc"
       inkscape:connector-curvature="0"
       id="path10089-2-8-5-6"
       d="M 194.80258,153.64442 199.27877,155.91531 201.04327,152.43728 200.15146,151.98485 201.46371,149.39865 M 198.87743,148.08655 197.56533,150.67283 195.7353,149.7444 H 193.68325 V 146.84433 H 190.78317 V 149.7444 H 187.73116 V 153.64442"
       style="opacity:1;fill:none;fill-opacity:1;fill-rule:nonzero;stroke:#fe0000;stroke-width:0.1;stroke-linecap:butt;stroke-linejoin:round;stroke-miterlimit:4;stroke-dasharray:none;stroke-dashoffset:0;stroke-opacity:1;paint-order:normal" />
    <path
       sodipodi:nodetypes="ccccccccccccccc"
       inkscape:connector-curvature="0"
       id="path10091-7-4-5-3"
       d="M 181.49047,154.85156 182.38228,155.30399 181.07003,157.89019 183.65632,159.20229 184.96841,156.61601 186.79844,157.54444 H 188.85049 V 160.44451 H 191.75057 V 157.54444 H 194.80258 V 153.64442 H 187.73116 L 183.25498,151.37353 Z"
       style="opacity:1;fill:none;fill-opacity:1;fill-rule:nonzero;stroke:#fe0000;stroke-width:0.1;stroke-linecap:butt;stroke-linejoin:round;stroke-miterlimit:4;stroke-dasharray:none;stroke-dashoffset:0;stroke-opacity:1;paint-order:normal" />
    <path
       sodipodi:nodetypes="cccccccccccccc"
       inkscape:connector-curvature="0"
       id="path10089-2-8-4-96"
       d="M 206.35019,159.81533 210.82638,162.08622 212.59088,158.60819 211.69907,158.15576 213.01132,155.56956 210.42504,154.25746 209.11294,156.84374 207.28291,155.91531 H 205.23086 V 153.01524 H 202.33078 V 155.91531 H 199.27877 V 159.81533"
       style="opacity:1;fill:none;fill-opacity:1;fill-rule:nonzero;stroke:#fe0000;stroke-width:0.1;stroke-linecap:butt;stroke-linejoin:round;stroke-miterlimit:4;stroke-dasharray:none;stroke-dashoffset:0;stroke-opacity:1;paint-order:normal" />
    <path
       sodipodi:nodetypes="ccccccccccccccc"
       inkscape:connector-curvature="0"
       id="path10091-7-4-7-9"
       d="M 193.03808,161.02247 193.92989,161.4749 192.61764,164.0611 195.20393,165.3732 196.51602,162.78692 198.34605,163.71535 H 200.3981 V 166.61542 H 203.29818 V 163.71535 H 206.35019 V 159.81533 H 199.27877 L 194.80259,157.54444 Z"
       style="opacity:1;fill:none;fill-opacity:1;fill-rule:nonzero;stroke:#fe0000;stroke-width:0.1;stroke-linecap:butt;stroke-linejoin:round;stroke-miterlimit:4;stroke-dasharray:none;stroke-dashoffset:0;stroke-opacity:1;paint-order:normal" />
    <path
       sodipodi:nodetypes="cccccccccccccc"
       inkscape:connector-curvature="0"
       id="path10089-2-8-75"
       d="M 166.41955,119.15714 170.89574,121.42803 172.66024,117.95 171.76843,117.49757 173.08068,114.91137 M 170.4944,113.59927 169.1823,116.18555 167.35227,115.25712 H 165.30022 V 112.35705 H 162.40014 V 115.25712 H 159.34813 V 119.15714"
       style="opacity:1;fill:none;fill-opacity:1;fill-rule:nonzero;stroke:#fe0000;stroke-width:0.1;stroke-linecap:butt;stroke-linejoin:round;stroke-miterlimit:4;stroke-dasharray:none;stroke-dashoffset:0;stroke-opacity:1;paint-order:normal" />
    <path
       sodipodi:nodetypes="ccccccccccccccc"
       inkscape:connector-curvature="0"
       id="path10091-7-4-6"
       d="M 153.10744,120.36428 153.99925,120.81671 152.687,123.40291 155.27329,124.71501 156.58538,122.12873 158.41541,123.05716 H 160.46746 V 125.95723 H 163.36754 V 123.05716 H 166.41955 V 119.15714 H 159.34813 L 154.87195,116.88625 Z"
       style="opacity:1;fill:none;fill-opacity:1;fill-rule:nonzero;stroke:#fe0000;stroke-width:0.1;stroke-linecap:butt;stroke-linejoin:round;stroke-miterlimit:4;stroke-dasharray:none;stroke-dashoffset:0;stroke-opacity:1;paint-order:normal" />
    <path
       sodipodi:nodetypes="ccccccccccccccc"
       inkscape:connector-curvature="0"
       id="path10089-4-2-0-05"
       d="M 158.9468,107.42836 157.6347,110.01464 155.80467,109.08621 H 153.75262 V 106.18614 H 150.85254 V 109.08621 H 147.80052 V 112.98623 H 154.87195 L 159.34813,115.25712 161.11264,111.77909 160.22083,111.32666 161.53308,108.74046 Z"
       style="opacity:1;fill:none;fill-opacity:1;fill-rule:nonzero;stroke:#fe0000;stroke-width:0.1;stroke-linecap:butt;stroke-linejoin:round;stroke-miterlimit:4;stroke-dasharray:none;stroke-dashoffset:0;stroke-opacity:1;paint-order:normal" />
    <path
       sodipodi:nodetypes="cccccccccccccc"
       inkscape:connector-curvature="0"
       id="path10089-2-8-6-7"
       d="M 177.96716,125.32805 182.44335,127.59894 184.20785,124.12091 183.31604,123.66848 184.62829,121.08228 M 182.04201,119.77018 180.72991,122.35646 178.89988,121.42803 H 176.84783 V 118.52796 H 173.94775 V 121.42803 H 170.89574 V 125.32805"
       style="opacity:1;fill:none;fill-opacity:1;fill-rule:nonzero;stroke:#fe0000;stroke-width:0.1;stroke-linecap:butt;stroke-linejoin:round;stroke-miterlimit:4;stroke-dasharray:none;stroke-dashoffset:0;stroke-opacity:1;paint-order:normal" />
    <path
       sodipodi:nodetypes="ccccccccccccccc"
       inkscape:connector-curvature="0"
       id="path10091-7-4-4-66"
       d="M 164.65505,126.53519 165.54686,126.98762 164.23461,129.57382 166.8209,130.88592 168.13299,128.29964 169.96302,129.22807 H 172.01507 V 132.12814 H 174.91515 V 129.22807 H 177.96716 V 125.32805 H 170.89574 L 166.41956,123.05716 Z"
       style="opacity:1;fill:none;fill-opacity:1;fill-rule:nonzero;stroke:#fe0000;stroke-width:0.1;stroke-linecap:butt;stroke-linejoin:round;stroke-miterlimit:4;stroke-dasharray:none;stroke-dashoffset:0;stroke-opacity:1;paint-order:normal" />
    <path
       sodipodi:nodetypes="cccccccccccccc"
       inkscape:connector-curvature="0"
       id="path10089-2-8-5-32"
       d="M 189.51477,131.49896 193.99096,133.76985 195.75546,130.29182 194.86365,129.83939 196.1759,127.25319 M 193.58962,125.94109 192.27752,128.52737 190.44749,127.59894 H 188.39544 V 124.69887 H 185.49536 V 127.59894 H 182.44335 V 131.49896"
       style="opacity:1;fill:none;fill-opacity:1;fill-rule:nonzero;stroke:#fe0000;stroke-width:0.1;stroke-linecap:butt;stroke-linejoin:round;stroke-miterlimit:4;stroke-dasharray:none;stroke-dashoffset:0;stroke-opacity:1;paint-order:normal" />
    <path
       sodipodi:nodetypes="ccccccccccccccc"
       inkscape:connector-curvature="0"
       id="path10091-7-4-5-4"
       d="M 176.20266,132.7061 177.09447,133.15853 175.78222,135.74473 178.36851,137.05683 179.6806,134.47055 181.51063,135.39898 H 183.56268 V 138.29905 H 186.46276 V 135.39898 H 189.51477 V 131.49896 H 182.44335 L 177.96717,129.22807 Z"
       style="opacity:1;fill:none;fill-opacity:1;fill-rule:nonzero;stroke:#fe0000;stroke-width:0.1;stroke-linecap:butt;stroke-linejoin:round;stroke-miterlimit:4;stroke-dasharray:none;stroke-dashoffset:0;stroke-opacity:1;paint-order:normal" />
    <path
       sodipodi:nodetypes="cccccccccccccc"
       inkscape:connector-curvature="0"
       id="path10089-2-8-4-36"
       d="M 201.06238,137.66987 205.53857,139.94076 207.30307,136.46273 206.41126,136.0103 207.72351,133.4241 205.13723,132.112 203.82513,134.69828 201.9951,133.76985 H 199.94305 V 130.86978 H 197.04297 V 133.76985 H 193.99096 V 137.66987"
       style="opacity:1;fill:none;fill-opacity:1;fill-rule:nonzero;stroke:#fe0000;stroke-width:0.1;stroke-linecap:butt;stroke-linejoin:round;stroke-miterlimit:4;stroke-dasharray:none;stroke-dashoffset:0;stroke-opacity:1;paint-order:normal" />
    <path
       sodipodi:nodetypes="ccccccccccccccc"
       inkscape:connector-curvature="0"
       id="path10091-7-4-7-04"
       d="M 187.75027,138.87701 188.64208,139.32944 187.32983,141.91564 189.91612,143.22774 191.22821,140.64146 193.05824,141.56989 H 195.11029 V 144.46996 H 198.01037 V 141.56989 H 201.06238 V 137.66987 H 193.99096 L 189.51478,135.39898 Z"
       style="opacity:1;fill:none;fill-opacity:1;fill-rule:nonzero;stroke:#fe0000;stroke-width:0.1;stroke-linecap:butt;stroke-linejoin:round;stroke-miterlimit:4;stroke-dasharray:none;stroke-dashoffset:0;stroke-opacity:1;paint-order:normal" />
    <path
       sodipodi:nodetypes="cccccccccccccc"
       inkscape:connector-curvature="0"
       id="path10089-2-8-3"
       d="M 195.77455,115.52441 200.25074,117.7953 202.01523,114.31727 201.12343,113.86484 202.43568,111.27864 199.8494,109.96654 198.53729,112.55282 196.70727,111.62439 H 194.65522 V 108.72432 H 191.75514 V 111.62439 H 188.70313 V 115.52441"
       style="opacity:1;fill:none;fill-opacity:1;fill-rule:nonzero;stroke:#fe0000;stroke-width:0.1;stroke-linecap:butt;stroke-linejoin:round;stroke-miterlimit:4;stroke-dasharray:none;stroke-dashoffset:0;stroke-opacity:1;paint-order:normal" />
    <path
       sodipodi:nodetypes="ccccccccccccccc"
       inkscape:connector-curvature="0"
       id="path10091-7-4-63"
       d="M 182.46244,116.73155 183.35425,117.18398 182.042,119.77018 184.62829,121.08228 185.94038,118.496 187.77041,119.42443 H 189.82246 V 122.3245 H 192.72254 V 119.42443 H 195.77455 V 115.52441 H 188.70313 L 184.22695,113.25352 Z"
       style="opacity:1;fill:none;fill-opacity:1;fill-rule:nonzero;stroke:#fe0000;stroke-width:0.1;stroke-linecap:butt;stroke-linejoin:round;stroke-miterlimit:4;stroke-dasharray:none;stroke-dashoffset:0;stroke-opacity:1;paint-order:normal" />
    <path
       sodipodi:nodetypes="ccccccccccccccc"
       inkscape:connector-curvature="0"
       id="path10091-0-0-8-49"
       d="M 170.91483,110.56064 171.80664,111.01307 170.4944,113.59927 173.08068,114.91137 174.39277,112.32509 176.2228,113.25352 H 178.27485 V 116.15359 H 181.17494 V 113.25352 H 184.22695 V 109.3535 H 177.15552 L 172.67935,107.08261 Z"
       style="opacity:1;fill:none;fill-opacity:1;fill-rule:nonzero;stroke:#fe0000;stroke-width:0.1;stroke-linecap:butt;stroke-linejoin:round;stroke-miterlimit:4;stroke-dasharray:none;stroke-dashoffset:0;stroke-opacity:1;paint-order:normal" />
    <path
       sodipodi:nodetypes="cccccccccccccc"
       inkscape:connector-curvature="0"
       id="path10089-2-8-6-4"
       d="M 207.32216,121.69532 211.79835,123.96621 213.56285,120.48818 212.67103,120.03575 213.98329,117.44955 211.39701,116.13745 210.08491,118.72373 208.25488,117.7953 H 206.20283 V 114.89523 H 203.30275 V 117.7953 H 200.25074 V 121.69532"
       style="opacity:1;fill:none;fill-opacity:1;fill-rule:nonzero;stroke:#fe0000;stroke-width:0.1;stroke-linecap:butt;stroke-linejoin:round;stroke-miterlimit:4;stroke-dasharray:none;stroke-dashoffset:0;stroke-opacity:1;paint-order:normal" />
    <path
       sodipodi:nodetypes="ccccccccccccccc"
       inkscape:connector-curvature="0"
       id="path10091-7-4-4-2"
       d="M 194.01005,122.90246 194.90186,123.35489 193.58961,125.94109 196.1759,127.25319 197.48799,124.66691 199.31802,125.59534 H 201.37007 V 128.49541 H 204.27015 V 125.59534 H 207.32216 V 121.69532 H 200.25074 L 195.77456,119.42443 Z"
       style="opacity:1;fill:none;fill-opacity:1;fill-rule:nonzero;stroke:#fe0000;stroke-width:0.1;stroke-linecap:butt;stroke-linejoin:round;stroke-miterlimit:4;stroke-dasharray:none;stroke-dashoffset:0;stroke-opacity:1;paint-order:normal" />
    <path
       sodipodi:nodetypes="ccccccccccccccc"
       inkscape:connector-curvature="0"
       id="path10091-0-0-8-7"
       d="M 199.29787,145.04792 200.18968,145.50035 198.87744,148.08655 201.46372,149.39865 202.77581,146.81237 204.60584,147.7408 H 206.65789 V 150.64087 H 209.55798 V 147.7408 H 212.60999 V 143.84078 H 205.53856 L 201.06239,141.56989 Z"
       style="opacity:1;fill:none;fill-opacity:1;fill-rule:nonzero;stroke:#fe0000;stroke-width:0.1;stroke-linecap:butt;stroke-linejoin:round;stroke-miterlimit:4;stroke-dasharray:none;stroke-dashoffset:0;stroke-opacity:1;paint-order:normal" />
    <path
       sodipodi:nodetypes="cccccccccccccc"
       inkscape:connector-curvature="0"
       id="path10089-28-2"
       d="M 156.27182,287.61173 160.74801,289.88262 162.51251,286.40459 161.6207,285.95216 162.93295,283.36596 M 160.34667,282.05386 159.03457,284.64014 157.20454,283.71171 H 155.15249 V 280.81164 H 152.25241 V 283.71171 H 149.2004 V 287.61173"
       style="opacity:1;fill:none;fill-opacity:1;fill-rule:nonzero;stroke:#fe0000;stroke-width:0.1;stroke-linecap:butt;stroke-linejoin:round;stroke-miterlimit:4;stroke-dasharray:none;stroke-dashoffset:0;stroke-opacity:1;paint-order:normal" />
    <path
       sodipodi:nodetypes="ccccccccccccccc"
       inkscape:connector-curvature="0"
       id="path10091-67-4"
       d="M 142.95971,288.81887 143.85152,289.2713 142.53927,291.8575 145.12556,293.1696 146.43765,290.58332 148.26768,291.51175 H 150.31973 V 294.41182 H 153.21981 V 291.51175 H 156.27182 V 287.61173 H 149.2004 L 144.72422,285.34084 Z"
       style="opacity:1;fill:none;fill-opacity:1;fill-rule:nonzero;stroke:#fe0000;stroke-width:0.1;stroke-linecap:butt;stroke-linejoin:round;stroke-miterlimit:4;stroke-dasharray:none;stroke-dashoffset:0;stroke-opacity:1;paint-order:normal" />
    <path
       sodipodi:nodetypes="cccccccccccccc"
       inkscape:connector-curvature="0"
       id="path10089-28-2-6"
       d="M 171.89428,288.22477 170.58218,290.81105 168.75215,289.88262 H 166.7001 V 286.98255 H 163.80002 V 289.88262 H 160.74801 V 293.78264 H 167.81943 L 172.29562,296.05353 174.06012,292.5755 173.16831,292.12307 174.48056,289.53687"
       style="opacity:1;fill:none;fill-opacity:1;fill-rule:nonzero;stroke:#fe0000;stroke-width:0.1;stroke-linecap:butt;stroke-linejoin:round;stroke-miterlimit:4;stroke-dasharray:none;stroke-dashoffset:0;stroke-opacity:1;paint-order:normal" />
  </g>
</svg>
