<?xml version="1.0" encoding="UTF-8" standalone="no"?>
<svg
   version="1.1"
   width="260.09967mm"
   height="60.099957mm"
   viewBox="0 0 921.6137 212.95278"
   id="svg4398"
   inkscape:version="1.1.1 (3bf5ae0d25, 2021-09-20)"
   sodipodi:docname="mosquito_box.4-cut.2.svg"
   xmlns:inkscape="http://www.inkscape.org/namespaces/inkscape"
   xmlns:sodipodi="http://sodipodi.sourceforge.net/DTD/sodipodi-0.dtd"
   xmlns="http://www.w3.org/2000/svg"
   xmlns:svg="http://www.w3.org/2000/svg"
   xmlns:rdf="http://www.w3.org/1999/02/22-rdf-syntax-ns#"
   xmlns:cc="http://creativecommons.org/ns#"
   xmlns:dc="http://purl.org/dc/elements/1.1/">
  <metadata
     id="metadata4428">
    <rdf:RDF>
      <cc:Work
         rdf:about="">
        <dc:format>image/svg+xml</dc:format>
        <dc:type
           rdf:resource="http://purl.org/dc/dcmitype/StillImage" />
      </cc:Work>
    </rdf:RDF>
  </metadata>
  <defs
     id="defs4426" />
  <sodipodi:namedview
     pagecolor="#ffffff"
     bordercolor="#666666"
     borderopacity="1"
     objecttolerance="10"
     gridtolerance="10"
     guidetolerance="10"
     inkscape:pageopacity="0"
     inkscape:pageshadow="2"
     inkscape:window-width="1920"
     inkscape:window-height="1011"
     id="namedview4424"
     showgrid="false"
     inkscape:zoom="0.21364566"
     inkscape:cx="629.54706"
     inkscape:cy="1333.9845"
     inkscape:window-x="0"
     inkscape:window-y="0"
     inkscape:window-maximized="1"
     inkscape:current-layer="svg4398"
     inkscape:snap-bbox="false"
     inkscape:bbox-paths="true"
     inkscape:bbox-nodes="true"
     inkscape:snap-bbox-edge-midpoints="true"
     inkscape:snap-bbox-midpoints="true"
     inkscape:object-paths="false"
     inkscape:snap-intersection-paths="true"
     inkscape:object-nodes="true"
     inkscape:snap-smooth-nodes="false"
     inkscape:snap-midpoints="true"
     inkscape:snap-text-baseline="true"
     inkscape:document-units="mm"
     inkscape:snap-nodes="true"
     inkscape:snap-object-midpoints="true"
     inkscape:snap-center="true"
     inkscape:snap-others="true"
     inkscape:pagecheckerboard="0" />
  <!-- Front-->
  <!-- Back-->
  <!-- Left-->
  <!-- Right-->
  <!-- Top-->
  <!-- Bottom-->
  <path
     style="fill:none;stroke:#ff0000;stroke-width:0.354331;stroke-miterlimit:4;stroke-dasharray:none;stroke-opacity:1"
     d="M 10.806465,0.17716549 V 44.468579 H 0.17716549 V 88.759999 H 10.806465 V 124.19459 H 0.17716549 V 168.48418 H 10.806465 V 212.7756 H 53.325365 V 202.14632 H 106.47737 V 212.7756 H 141.90827 V 202.14632 H 177.34467 V 212.7756 H 212.77557 V 202.14632 H 248.20837 V 212.7756 H 283.64297 V 202.14632 H 319.07577 V 212.7756 H 354.50667 V 202.14632 H 407.65857 V 212.7756 H 450.17757 V 168.48418 H 460.80687 V 124.19459 H 450.17757 V 88.759999 H 460.80687 V 44.468579 H 450.17757 V 0.17716549 H 407.65857 V 10.808276 H 354.50667 V 0.17716549 H 319.07577 V 10.808276 H 283.64297 V 0.17716549 H 248.20837 V 10.808276 H 212.77557 V 0.17716549 H 177.34467 V 10.808276 H 141.90827 V 0.17716549 H 106.47737 V 10.808276 H 53.325365 V 0.17716549 Z M 55.808365,84.861689 H 36.497965 V 37.38239 H 83.977265 V 56.694539 H 55.808365 Z M 92.835965,56.694539 V 37.38239 H 140.31707 V 56.694539 Z M 149.17387,56.694539 V 37.38239 H 196.65497 V 56.694539 Z M 205.51367,56.694539 V 37.38239 H 252.99477 V 56.694539 Z M 261.85157,56.694539 V 37.38239 H 309.33267 V 56.694539 Z M 318.18957,56.694539 V 37.38239 H 365.67067 V 56.694539 Z M 374.52927,37.38239 H 422.01037 V 84.861689 H 402.69647 V 56.694539 H 374.52927 Z M 64.666965,65.551359 H 83.977265 V 84.861689 H 64.666965 Z M 92.835965,65.551359 H 112.14627 V 84.861689 H 92.835965 Z M 121.00677,65.551359 H 140.31707 V 84.861689 H 121.00677 Z M 149.17387,65.551359 H 168.48607 V 84.861689 H 149.17387 Z M 177.34467,65.551359 H 196.65497 V 84.861689 H 177.34467 Z M 205.51367,65.551359 H 224.82397 V 84.861689 H 205.51367 Z M 233.68257,65.551359 H 252.99477 V 84.861689 H 233.68257 Z M 261.85157,65.551359 H 281.16187 V 84.861689 H 261.85157 Z M 290.02237,65.551359 H 309.33267 V 84.861689 H 290.02237 Z M 318.18957,65.551359 H 337.50167 V 84.861689 H 318.18957 Z M 346.36037,65.551359 H 365.67067 V 84.861689 H 346.36037 Z M 374.52927,65.551359 H 393.83957 V 84.861689 H 374.52927 Z M 36.497965,93.722159 H 55.808365 V 121.8893 H 83.977265 V 141.20145 H 36.497965 Z M 64.666965,93.722159 H 83.977265 V 113.03248 H 64.666965 Z M 92.835965,93.722159 H 112.14627 V 113.03248 H 92.835965 Z M 121.00677,93.722159 H 140.31707 V 113.03248 H 121.00677 Z M 149.17387,93.722159 H 168.48607 V 113.03248 H 149.17387 Z M 177.34467,93.722159 H 196.65497 V 113.03248 H 177.34467 Z M 205.51367,93.722159 H 224.82397 V 113.03248 H 205.51367 Z M 233.68257,93.722159 H 252.99477 V 113.03248 H 233.68257 Z M 261.85157,93.722159 H 281.16187 V 113.03248 H 261.85157 Z M 290.02237,93.722159 H 309.33267 V 113.03248 H 290.02237 Z M 318.18957,93.722159 H 337.50167 V 113.03248 H 318.18957 Z M 346.36037,93.722159 H 365.67067 V 113.03248 H 346.36037 Z M 374.52927,93.722159 H 393.83957 V 113.03248 H 374.52927 Z M 402.69647,93.722159 H 422.01037 V 141.20145 H 374.52927 V 121.8893 H 402.69647 Z M 140.31707,121.8893 V 141.20145 H 92.835965 V 121.8893 Z M 196.65497,121.8893 V 141.20145 H 149.17387 V 121.8893 Z M 252.99477,121.8893 V 141.20145 H 205.51367 V 121.8893 Z M 309.33267,121.8893 V 141.20145 H 261.85157 V 121.8893 Z M 365.67067,121.8893 V 141.20145 H 318.18957 V 121.8893 Z"
     id="path6422"
     inkscape:connector-curvature="0"
     sodipodi:nodetypes="cccccccccccccccccccccccccccccccccccccccccccccccccccccccccccccccccccccccccccccccccccccccccccccccccccccccccccccccccccccccccccccccccccccccccccccccccccccccccccccccccccccccccccccccccccccccccccccccccccccccccccccccccccccccccccccccccccccccccccsccccccccccccccccccccccc" />
  <path
     style="fill:none;stroke:#ff0000;stroke-width:0.354331;stroke-miterlimit:4;stroke-dasharray:none;stroke-opacity:1"
     d="M 460.80687,88.759999 H 471.43617 V 124.1946 H 460.80687 M 460.80687,168.48418 H 471.43617 V 212.7756 H 513.95517 V 202.14632 H 567.10707 V 212.7756 H 602.53797 V 202.14632 H 637.97437 V 212.7756 H 673.40537 V 202.14632 H 708.83807 V 212.7756 H 744.27267 V 202.14632 H 779.70547 V 212.7756 H 815.13637 V 202.14632 H 868.28827 V 212.7756 H 910.80727 V 168.48418 H 921.43657 V 124.1946 H 910.80727 V 88.759999 H 921.43657 V 44.468579 H 910.80727 V 0.17716949 H 868.28827 V 10.808279 H 815.13637 V 0.17716949 H 779.70547 V 10.808279 H 744.27267 V 0.17716949 H 708.83807 V 10.808279 H 673.40537 V 0.17716949 H 637.97437 V 10.808279 H 602.53797 V 0.17716949 H 567.10707 V 10.808279 H 513.95517 V 0.17716949 H 471.43617 V 44.468579 H 460.80687 M 516.43807,84.861679 H 497.12777 V 37.382389 H 544.60697 V 56.694539 H 516.43807 Z M 553.46567,56.694539 V 37.382389 H 600.94677 V 56.694539 Z M 609.80357,56.694539 V 37.382389 H 657.28467 V 56.694539 Z M 666.14337,56.694539 V 37.382389 H 713.62447 V 56.694539 Z M 722.48127,56.694539 V 37.382389 H 769.96237 V 56.694539 Z M 778.81927,56.694539 V 37.382389 H 826.30037 V 56.694539 Z M 835.15897,37.382389 H 882.64017 V 84.861679 H 863.32617 V 56.694539 H 835.15897 Z M 525.29667,65.551359 H 544.60697 V 84.861679 H 525.29667 Z M 553.46567,65.551359 H 572.77597 V 84.861679 H 553.46567 Z M 581.63647,65.551359 H 600.94677 V 84.861679 H 581.63647 Z M 609.80357,65.551359 H 629.11577 V 84.861679 H 609.80357 Z M 637.97437,65.551359 H 657.28467 V 84.861679 H 637.97437 Z M 666.14337,65.551359 H 685.45367 V 84.861679 H 666.14337 Z M 694.31237,65.551359 H 713.62447 V 84.861679 H 694.31237 Z M 722.48127,65.551359 H 741.79157 V 84.861679 H 722.48127 Z M 750.65207,65.551359 H 769.96237 V 84.861679 H 750.65207 Z M 778.81927,65.551359 H 798.13137 V 84.861679 H 778.81927 Z M 806.99007,65.551359 H 826.30037 V 84.861679 H 806.99007 Z M 835.15897,65.551359 H 854.46937 V 84.861679 H 835.15897 Z M 497.12777,93.722159 H 516.43807 V 121.8893 H 544.60697 V 141.20145 H 497.12777 Z M 525.29667,93.722159 H 544.60697 V 113.03248 H 525.29667 Z M 553.46567,93.722159 H 572.77597 V 113.03248 H 553.46567 Z M 581.63647,93.722159 H 600.94677 V 113.03248 H 581.63647 Z M 609.80357,93.722159 H 629.11577 V 113.03248 H 609.80357 Z M 637.97437,93.722159 H 657.28467 V 113.03248 H 637.97437 Z M 666.14337,93.722159 H 685.45367 V 113.03248 H 666.14337 Z M 694.31237,93.722159 H 713.62447 V 113.03248 H 694.31237 Z M 722.48127,93.722159 H 741.79157 V 113.03248 H 722.48127 Z M 750.65207,93.722159 H 769.96237 V 113.03248 H 750.65207 Z M 778.81927,93.722159 H 798.13137 V 113.03248 H 778.81927 Z M 806.99007,93.722159 H 826.30037 V 113.03248 H 806.99007 Z M 835.15897,93.722159 H 854.46937 V 113.03248 H 835.15897 Z M 863.32617,93.722159 H 882.64017 V 141.20145 H 835.15897 V 121.8893 H 863.32617 Z M 600.94677,121.8893 V 141.20145 H 553.46567 V 121.8893 Z M 657.28467,121.8893 V 141.20145 H 609.80357 V 121.8893 Z M 713.62447,121.8893 V 141.20145 H 666.14337 V 121.8893 Z M 769.96237,121.8893 V 141.20145 H 722.48127 V 121.8893 Z M 826.30037,121.8893 V 141.20145 H 778.81927 V 121.8893 Z"
     id="path6422-1"
     inkscape:connector-curvature="0"
     sodipodi:nodetypes="ccccccccccccccccccccccccccccccccccccccccccccccccccccccccccccccccccccccccccccccccccccccccccccccccccccccccccccccccccccccccccccccccccccccccccccccccccccccccccccccccccccccccccccccccccccccccccccccccccccccccccccccccccccccccccccccccccccccccccsccccccccccccccccccccccc" />
</svg>
